%!PS-Adobe-3.0 EPSF-3.0
%%Creator: MATLAB, The MathWorks, Inc. Version 7.11.0.584 (R2010b). Operating System: Linux 3.13.0-43-generic #72-Ubuntu SMP Mon Dec 8 19:35:06 UTC 2014 x86_64.
%%Title: /home/schowell/data/Dropbox/gw_phd/paper_tetranucleosome/1406data/chess/compare_sample_conc.eps
%%CreationDate: 04/30/2015  00:59:19
%%DocumentNeededFonts: Helvetica
%%DocumentProcessColors: Cyan Magenta Yellow Black
%%LanguageLevel: 2
%%Pages: 1
%%BoundingBox:    52   228   558   563
%%EndComments

%%BeginProlog
% MathWorks dictionary
/MathWorks 160 dict begin
% definition operators
/bdef {bind def} bind def
/ldef {load def} bind def
/xdef {exch def} bdef
/xstore {exch store} bdef
% operator abbreviations
/c  /clip ldef
/cc /concat ldef
/cp /closepath ldef
/gr /grestore ldef
/gs /gsave ldef
/mt /moveto ldef
/np /newpath ldef
/cm /currentmatrix ldef
/sm /setmatrix ldef
/rm /rmoveto ldef
/rl /rlineto ldef
/s {show newpath} bdef
/sc {setcmykcolor} bdef
/sr /setrgbcolor ldef
/sg /setgray ldef
/w /setlinewidth ldef
/j /setlinejoin ldef
/cap /setlinecap ldef
/rc {rectclip} bdef
/rf {rectfill} bdef
% page state control
/pgsv () def
/bpage {/pgsv save def} bdef
/epage {pgsv restore} bdef
/bplot /gsave ldef
/eplot {stroke grestore} bdef
% orientation switch
/portraitMode 0 def /landscapeMode 1 def /rotateMode 2 def
% coordinate system mappings
/dpi2point 0 def
% font control
/FontSize 0 def
/FMS {/FontSize xstore findfont [FontSize 0 0 FontSize neg 0 0]
  makefont setfont} bdef
/reencode {exch dup where {pop load} {pop StandardEncoding} ifelse
  exch dup 3 1 roll findfont dup length dict begin
  { 1 index /FID ne {def}{pop pop} ifelse } forall
  /Encoding exch def currentdict end definefont pop} bdef
/isroman {findfont /CharStrings get /Agrave known} bdef
/FMSR {3 1 roll 1 index dup isroman {reencode} {pop pop} ifelse
  exch FMS} bdef
/csm {1 dpi2point div -1 dpi2point div scale neg translate
 dup landscapeMode eq {pop -90 rotate}
  {rotateMode eq {90 rotate} if} ifelse} bdef
% line types: solid, dotted, dashed, dotdash
/SO { [] 0 setdash } bdef
/DO { [.5 dpi2point mul 4 dpi2point mul] 0 setdash } bdef
/DA { [6 dpi2point mul] 0 setdash } bdef
/DD { [.5 dpi2point mul 4 dpi2point mul 6 dpi2point mul 4
  dpi2point mul] 0 setdash } bdef
% macros for lines and objects
/L {lineto stroke} bdef
/MP {3 1 roll moveto 1 sub {rlineto} repeat} bdef
/AP {{rlineto} repeat} bdef
/PDlw -1 def
/W {/PDlw currentlinewidth def setlinewidth} def
/PP {closepath eofill} bdef
/DP {closepath stroke} bdef
/MR {4 -2 roll moveto dup  0 exch rlineto exch 0 rlineto
  neg 0 exch rlineto closepath} bdef
/FR {MR stroke} bdef
/PR {MR fill} bdef
/L1i {{currentfile picstr readhexstring pop} image} bdef
/tMatrix matrix def
/MakeOval {newpath tMatrix currentmatrix pop translate scale
0 0 1 0 360 arc tMatrix setmatrix} bdef
/FO {MakeOval stroke} bdef
/PO {MakeOval fill} bdef
/PD {currentlinewidth 2 div 0 360 arc fill
   PDlw -1 eq not {PDlw w /PDlw -1 def} if} def
/FA {newpath tMatrix currentmatrix pop translate scale
  0 0 1 5 -2 roll arc tMatrix setmatrix stroke} bdef
/PA {newpath tMatrix currentmatrix pop	translate 0 0 moveto scale
  0 0 1 5 -2 roll arc closepath tMatrix setmatrix fill} bdef
/FAn {newpath tMatrix currentmatrix pop translate scale
  0 0 1 5 -2 roll arcn tMatrix setmatrix stroke} bdef
/PAn {newpath tMatrix currentmatrix pop translate 0 0 moveto scale
  0 0 1 5 -2 roll arcn closepath tMatrix setmatrix fill} bdef
/vradius 0 def /hradius 0 def /lry 0 def
/lrx 0 def /uly 0 def /ulx 0 def /rad 0 def
/MRR {/vradius xdef /hradius xdef /lry xdef /lrx xdef /uly xdef
  /ulx xdef newpath tMatrix currentmatrix pop ulx hradius add uly
  vradius add translate hradius vradius scale 0 0 1 180 270 arc 
  tMatrix setmatrix lrx hradius sub uly vradius add translate
  hradius vradius scale 0 0 1 270 360 arc tMatrix setmatrix
  lrx hradius sub lry vradius sub translate hradius vradius scale
  0 0 1 0 90 arc tMatrix setmatrix ulx hradius add lry vradius sub
  translate hradius vradius scale 0 0 1 90 180 arc tMatrix setmatrix
  closepath} bdef
/FRR {MRR stroke } bdef
/PRR {MRR fill } bdef
/MlrRR {/lry xdef /lrx xdef /uly xdef /ulx xdef /rad lry uly sub 2 div def
  newpath tMatrix currentmatrix pop ulx rad add uly rad add translate
  rad rad scale 0 0 1 90 270 arc tMatrix setmatrix lrx rad sub lry rad
  sub translate rad rad scale 0 0 1 270 90 arc tMatrix setmatrix
  closepath} bdef
/FlrRR {MlrRR stroke } bdef
/PlrRR {MlrRR fill } bdef
/MtbRR {/lry xdef /lrx xdef /uly xdef /ulx xdef /rad lrx ulx sub 2 div def
  newpath tMatrix currentmatrix pop ulx rad add uly rad add translate
  rad rad scale 0 0 1 180 360 arc tMatrix setmatrix lrx rad sub lry rad
  sub translate rad rad scale 0 0 1 0 180 arc tMatrix setmatrix
  closepath} bdef
/FtbRR {MtbRR stroke } bdef
/PtbRR {MtbRR fill } bdef
/stri 6 array def /dtri 6 array def
/smat 6 array def /dmat 6 array def
/tmat1 6 array def /tmat2 6 array def /dif 3 array def
/asub {/ind2 exch def /ind1 exch def dup dup
  ind1 get exch ind2 get sub exch } bdef
/tri_to_matrix {
  2 0 asub 3 1 asub 4 0 asub 5 1 asub
  dup 0 get exch 1 get 7 -1 roll astore } bdef
/compute_transform {
  dmat dtri tri_to_matrix tmat1 invertmatrix 
  smat stri tri_to_matrix tmat2 concatmatrix } bdef
/ds {stri astore pop} bdef
/dt {dtri astore pop} bdef
/db {2 copy /cols xdef /rows xdef mul dup 3 mul string
  currentfile 
  3 index 0 eq {/ASCIIHexDecode filter}
  {/ASCII85Decode filter 3 index 2 eq {/RunLengthDecode filter} if }
  ifelse exch readstring pop
  dup 0 3 index getinterval /rbmap xdef
  dup 2 index dup getinterval /gbmap xdef
  1 index dup 2 mul exch getinterval /bbmap xdef pop pop}bdef
/it {gs np dtri aload pop moveto lineto lineto cp c
  cols rows 8 compute_transform 
  rbmap gbmap bbmap true 3 colorimage gr}bdef
/il {newpath moveto lineto stroke}bdef
currentdict end def
%%EndProlog

%%BeginSetup
MathWorks begin

0 cap

end
%%EndSetup

%%Page: 1 1
%%BeginPageSetup
%%PageBoundingBox:    52   228   558   563
MathWorks begin
bpage
%%EndPageSetup

%%BeginObject: obj1
bplot

/dpi2point 12 def
portraitMode 0624 6756 csm

    0     0  6077  4013 rc
93 dict begin %Colortable dictionary
/c0 { 0.000000 0.000000 0.000000 sr} bdef
/c1 { 1.000000 1.000000 1.000000 sr} bdef
/c2 { 0.900000 0.000000 0.000000 sr} bdef
/c3 { 0.000000 0.820000 0.000000 sr} bdef
/c4 { 0.000000 0.000000 0.800000 sr} bdef
/c5 { 0.910000 0.820000 0.320000 sr} bdef
/c6 { 1.000000 0.260000 0.820000 sr} bdef
/c7 { 0.000000 0.820000 0.820000 sr} bdef
c0
1 j
1 sg
   0    0 6078 4014 rf
15.6 w
0 3210 4862 0 0 -3210 729 3531 4 MP
PP
-4862 0 0 3210 4862 0 0 -3210 729 3531 5 MP stroke
10.4 w
DO
SO
15.6 w
0 sg
 729 3531 mt 5591 3531 L
 729  321 mt 5591  321 L
 729 3531 mt  729  321 L
5591 3531 mt 5591  321 L
 729 3531 mt 5591 3531 L
 729 3531 mt  729  321 L
 729 3531 mt  729 3482 L
 729  321 mt  729  369 L
%%IncludeResource: font Helvetica
/Helvetica /ISOLatin1Encoding 180 FMSR

 679 3732 mt 
(0) s
 867 3531 mt  867 3506 L
 867  321 mt  867  345 L
1006 3531 mt 1006 3506 L
1006  321 mt 1006  345 L
1145 3531 mt 1145 3506 L
1145  321 mt 1145  345 L
1284 3531 mt 1284 3506 L
1284  321 mt 1284  345 L
1423 3531 mt 1423 3506 L
1423  321 mt 1423  345 L
1423 3531 mt 1423 3506 L
1423  321 mt 1423  345 L
1423 3531 mt 1423 3506 L
1423  321 mt 1423  345 L
1423 3531 mt 1423 3506 L
1423  321 mt 1423  345 L
1423 3531 mt 1423 3506 L
1423  321 mt 1423  345 L
1423 3531 mt 1423 3482 L
1423  321 mt 1423  369 L
1373 3732 mt 
(2) s
1562 3531 mt 1562 3506 L
1562  321 mt 1562  345 L
1701 3531 mt 1701 3506 L
1701  321 mt 1701  345 L
1840 3531 mt 1840 3506 L
1840  321 mt 1840  345 L
1979 3531 mt 1979 3506 L
1979  321 mt 1979  345 L
2118 3531 mt 2118 3506 L
2118  321 mt 2118  345 L
2118 3531 mt 2118 3506 L
2118  321 mt 2118  345 L
2118 3531 mt 2118 3506 L
2118  321 mt 2118  345 L
2118 3531 mt 2118 3506 L
2118  321 mt 2118  345 L
2118 3531 mt 2118 3506 L
2118  321 mt 2118  345 L
2118 3531 mt 2118 3482 L
2118  321 mt 2118  369 L
2068 3732 mt 
(4) s
2257 3531 mt 2257 3506 L
2257  321 mt 2257  345 L
2395 3531 mt 2395 3506 L
2395  321 mt 2395  345 L
2534 3531 mt 2534 3506 L
2534  321 mt 2534  345 L
2673 3531 mt 2673 3506 L
2673  321 mt 2673  345 L
2812 3531 mt 2812 3506 L
2812  321 mt 2812  345 L
2812 3531 mt 2812 3506 L
2812  321 mt 2812  345 L
2812 3531 mt 2812 3506 L
2812  321 mt 2812  345 L
2812 3531 mt 2812 3506 L
2812  321 mt 2812  345 L
2812 3531 mt 2812 3506 L
2812  321 mt 2812  345 L
2812 3531 mt 2812 3482 L
2812  321 mt 2812  369 L
2762 3732 mt 
(6) s
2951 3531 mt 2951 3506 L
2951  321 mt 2951  345 L
3090 3531 mt 3090 3506 L
3090  321 mt 3090  345 L
3229 3531 mt 3229 3506 L
3229  321 mt 3229  345 L
3368 3531 mt 3368 3506 L
3368  321 mt 3368  345 L
3507 3531 mt 3507 3506 L
3507  321 mt 3507  345 L
3507 3531 mt 3507 3506 L
3507  321 mt 3507  345 L
3507 3531 mt 3507 3506 L
3507  321 mt 3507  345 L
3507 3531 mt 3507 3506 L
3507  321 mt 3507  345 L
3507 3531 mt 3507 3506 L
3507  321 mt 3507  345 L
3507 3531 mt 3507 3482 L
3507  321 mt 3507  369 L
3457 3732 mt 
(8) s
3646 3531 mt 3646 3506 L
3646  321 mt 3646  345 L
3785 3531 mt 3785 3506 L
3785  321 mt 3785  345 L
3924 3531 mt 3924 3506 L
3924  321 mt 3924  345 L
4062 3531 mt 4062 3506 L
4062  321 mt 4062  345 L
4201 3531 mt 4201 3506 L
4201  321 mt 4201  345 L
4201 3531 mt 4201 3506 L
4201  321 mt 4201  345 L
4201 3531 mt 4201 3506 L
4201  321 mt 4201  345 L
4201 3531 mt 4201 3506 L
4201  321 mt 4201  345 L
4201 3531 mt 4201 3506 L
4201  321 mt 4201  345 L
4201 3531 mt 4201 3482 L
4201  321 mt 4201  369 L
4101 3732 mt 
(10) s
4340 3531 mt 4340 3506 L
4340  321 mt 4340  345 L
4479 3531 mt 4479 3506 L
4479  321 mt 4479  345 L
4618 3531 mt 4618 3506 L
4618  321 mt 4618  345 L
4757 3531 mt 4757 3506 L
4757  321 mt 4757  345 L
4896 3531 mt 4896 3506 L
4896  321 mt 4896  345 L
4896 3531 mt 4896 3506 L
4896  321 mt 4896  345 L
4896 3531 mt 4896 3506 L
4896  321 mt 4896  345 L
4896 3531 mt 4896 3506 L
4896  321 mt 4896  345 L
4896 3531 mt 4896 3506 L
4896  321 mt 4896  345 L
4896 3531 mt 4896 3482 L
4896  321 mt 4896  369 L
4796 3732 mt 
(12) s
5035 3531 mt 5035 3506 L
5035  321 mt 5035  345 L
5174 3531 mt 5174 3506 L
5174  321 mt 5174  345 L
5313 3531 mt 5313 3506 L
5313  321 mt 5313  345 L
5452 3531 mt 5452 3506 L
5452  321 mt 5452  345 L
5591 3531 mt 5591 3506 L
5591  321 mt 5591  345 L
5591 3531 mt 5591 3506 L
5591  321 mt 5591  345 L
5591 3531 mt 5591 3506 L
5591  321 mt 5591  345 L
5591 3531 mt 5591 3506 L
5591  321 mt 5591  345 L
5591 3531 mt 5591 3506 L
5591  321 mt 5591  345 L
5591 3531 mt 5591 3482 L
5591  321 mt 5591  369 L
5491 3732 mt 
(14) s
 729 3531 mt  777 3531 L
5591 3531 mt 5542 3531 L
 594 3597 mt 
(0) s
 729 3301 mt  753 3301 L
5591 3301 mt 5566 3301 L
 729 3072 mt  753 3072 L
5591 3072 mt 5566 3072 L
 729 3072 mt  753 3072 L
5591 3072 mt 5566 3072 L
 729 3072 mt  753 3072 L
5591 3072 mt 5566 3072 L
 729 3072 mt  753 3072 L
5591 3072 mt 5566 3072 L
 729 3072 mt  753 3072 L
5591 3072 mt 5566 3072 L
 729 3072 mt  753 3072 L
5591 3072 mt 5566 3072 L
 729 3072 mt  753 3072 L
5591 3072 mt 5566 3072 L
 729 3072 mt  753 3072 L
5591 3072 mt 5566 3072 L
 729 3072 mt  777 3072 L
5591 3072 mt 5542 3072 L
 444 3138 mt 
(0.2) s
 729 2843 mt  753 2843 L
5591 2843 mt 5566 2843 L
 729 2613 mt  753 2613 L
5591 2613 mt 5566 2613 L
 729 2613 mt  753 2613 L
5591 2613 mt 5566 2613 L
 729 2613 mt  753 2613 L
5591 2613 mt 5566 2613 L
 729 2613 mt  753 2613 L
5591 2613 mt 5566 2613 L
 729 2613 mt  753 2613 L
5591 2613 mt 5566 2613 L
 729 2613 mt  753 2613 L
5591 2613 mt 5566 2613 L
 729 2613 mt  753 2613 L
5591 2613 mt 5566 2613 L
 729 2613 mt  753 2613 L
5591 2613 mt 5566 2613 L
 729 2613 mt  777 2613 L
5591 2613 mt 5542 2613 L
 444 2679 mt 
(0.4) s
 729 2384 mt  753 2384 L
5591 2384 mt 5566 2384 L
 729 2155 mt  753 2155 L
5591 2155 mt 5566 2155 L
 729 2155 mt  753 2155 L
5591 2155 mt 5566 2155 L
 729 2155 mt  753 2155 L
5591 2155 mt 5566 2155 L
 729 2155 mt  753 2155 L
5591 2155 mt 5566 2155 L
 729 2155 mt  753 2155 L
5591 2155 mt 5566 2155 L
 729 2155 mt  753 2155 L
5591 2155 mt 5566 2155 L
 729 2155 mt  753 2155 L
5591 2155 mt 5566 2155 L
 729 2155 mt  753 2155 L
5591 2155 mt 5566 2155 L
 729 2155 mt  777 2155 L
5591 2155 mt 5542 2155 L
 444 2221 mt 
(0.6) s
 729 1926 mt  753 1926 L
5591 1926 mt 5566 1926 L
 729 1696 mt  753 1696 L
5591 1696 mt 5566 1696 L
 729 1696 mt  753 1696 L
5591 1696 mt 5566 1696 L
 729 1696 mt  753 1696 L
5591 1696 mt 5566 1696 L
 729 1696 mt  753 1696 L
5591 1696 mt 5566 1696 L
 729 1696 mt  753 1696 L
5591 1696 mt 5566 1696 L
 729 1696 mt  753 1696 L
5591 1696 mt 5566 1696 L
 729 1696 mt  753 1696 L
5591 1696 mt 5566 1696 L
 729 1696 mt  753 1696 L
5591 1696 mt 5566 1696 L
 729 1696 mt  777 1696 L
5591 1696 mt 5542 1696 L
 444 1762 mt 
(0.8) s
 729 1467 mt  753 1467 L
5591 1467 mt 5566 1467 L
 729 1238 mt  753 1238 L
5591 1238 mt 5566 1238 L
 729 1238 mt  753 1238 L
5591 1238 mt 5566 1238 L
 729 1238 mt  753 1238 L
5591 1238 mt 5566 1238 L
 729 1238 mt  753 1238 L
5591 1238 mt 5566 1238 L
 729 1238 mt  753 1238 L
5591 1238 mt 5566 1238 L
 729 1238 mt  753 1238 L
5591 1238 mt 5566 1238 L
 729 1238 mt  753 1238 L
5591 1238 mt 5566 1238 L
 729 1238 mt  753 1238 L
5591 1238 mt 5566 1238 L
 729 1238 mt  777 1238 L
5591 1238 mt 5542 1238 L
 594 1304 mt 
(1) s
 729 1008 mt  753 1008 L
5591 1008 mt 5566 1008 L
 729  779 mt  753  779 L
5591  779 mt 5566  779 L
 729  779 mt  753  779 L
5591  779 mt 5566  779 L
 729  779 mt  753  779 L
5591  779 mt 5566  779 L
 729  779 mt  753  779 L
5591  779 mt 5566  779 L
 729  779 mt  753  779 L
5591  779 mt 5566  779 L
 729  779 mt  753  779 L
5591  779 mt 5566  779 L
 729  779 mt  753  779 L
5591  779 mt 5566  779 L
 729  779 mt  753  779 L
5591  779 mt 5566  779 L
 729  779 mt  777  779 L
5591  779 mt 5542  779 L
 444  845 mt 
(1.2) s
 729  550 mt  753  550 L
5591  550 mt 5566  550 L
 729  321 mt  753  321 L
5591  321 mt 5566  321 L
 729  321 mt  753  321 L
5591  321 mt 5566  321 L
 729  321 mt  753  321 L
5591  321 mt 5566  321 L
 729  321 mt  753  321 L
5591  321 mt 5566  321 L
 729  321 mt  753  321 L
5591  321 mt 5566  321 L
 729  321 mt  753  321 L
5591  321 mt 5566  321 L
 729  321 mt  753  321 L
5591  321 mt 5566  321 L
 729  321 mt  753  321 L
5591  321 mt 5566  321 L
 729  321 mt  777  321 L
5591  321 mt 5542  321 L
 444  387 mt 
(1.4) s
 729 3531 mt 5591 3531 L
 729  321 mt 5591  321 L
 729 3531 mt  729  321 L
5591 3531 mt 5591  321 L
gs 729 321 4863 3211 rc
DA
16.8 w
/c8 { 0.000000 0.000000 1.000000 sr} bdef
c8
347 287 347 573 348 -860 347 287 347 573 347 -860 348 287 347 573 
347 -992 348 132 347 287 347 573 1076 2384 13 MP stroke
gr

16.8 w
c8
DA
SO
  66   66 1076 2384 FO
  66   66 1423 2957 FO
  66   66 1770 3244 FO
  66   66 2118 3376 FO
  66   66 2465 2384 FO
  66   66 2812 2957 FO
  66   66 3160 3244 FO
  66   66 3507 2384 FO
  66   66 3854 2957 FO
  66   66 4201 3244 FO
  66   66 4549 2384 FO
  66   66 4896 2957 FO
  66   66 5243 3244 FO
DA
gs 729 321 4863 3211 rc
/c9 { 0.000000 0.500000 0.000000 sr} bdef
c9
347 262 347 514 348 -440 347 623 347 1128 347 -2039 348 277 347 552 
347 -931 348 148 347 362 347 516 1076 2384 13 MP stroke
gr

c9
SO
0 j
0 -104 -104 0 0 104 104 0 1024 2332 5 MP
DP
0 -104 -104 0 0 104 104 0 1371 2848 5 MP
DP
0 -104 -104 0 0 104 104 0 1718 3210 5 MP
DP
0 -104 -104 0 0 104 104 0 2066 3358 5 MP
DP
0 -104 -104 0 0 104 104 0 2413 2427 5 MP
DP
0 -104 -104 0 0 104 104 0 2760 2979 5 MP
DP
0 -104 -104 0 0 104 104 0 3108 3256 5 MP
DP
0 -104 -104 0 0 104 104 0 3455 1217 5 MP
DP
0 -104 -104 0 0 104 104 0 3802 2345 5 MP
DP
0 -104 -104 0 0 104 104 0 4149 2968 5 MP
DP
0 -104 -104 0 0 104 104 0 4497 2528 5 MP
DP
0 -104 -104 0 0 104 104 0 4844 3042 5 MP
DP
0 -104 -104 0 0 104 104 0 5191 3304 5 MP
DP
DA
gs 729 321 4863 3211 rc
/c10 { 1.000000 0.000000 0.000000 sr} bdef
c10
347 283 347 567 348 -487 347 699 347 1326 347 -2336 348 301 347 611 
347 -1020 348 160 347 399 347 565 1076 2280 13 MP stroke
gr

c10
SO
  66   66 1076 2280 FO
  66   66 1423 2845 FO
  66   66 1770 3244 FO
  66   66 2118 3404 FO
  66   66 2465 2384 FO
  66   66 2812 2995 FO
  66   66 3160 3296 FO
  66   66 3507  960 FO
  66   66 3854 2286 FO
  66   66 4201 2985 FO
  66   66 4549 2498 FO
  66   66 4896 3065 FO
  66   66 5243 3348 FO
DA
gs 729 321 4863 3211 rc
/c11 { 0.750000 0.000000 0.750000 sr} bdef
c11
347 122 347 246 348 -212 347 309 347 604 347 -1047 348 130 347 267 
347 -443 348 69 347 173 347 245 1076 2990 13 MP stroke
gr

c11
SO
-76 131 -76 -131 152 0 1000 3034 4 MP
DP
-76 131 -76 -131 152 0 1347 3279 4 MP
DP
-76 131 -76 -131 152 0 1694 3452 4 MP
DP
-76 131 -76 -131 152 0 2042 3521 4 MP
DP
-76 131 -76 -131 152 0 2389 3078 4 MP
DP
-76 131 -76 -131 152 0 2736 3345 4 MP
DP
-76 131 -76 -131 152 0 3084 3475 4 MP
DP
-76 131 -76 -131 152 0 3431 2428 4 MP
DP
-76 131 -76 -131 152 0 3778 3032 4 MP
DP
-76 131 -76 -131 152 0 4125 3341 4 MP
DP
-76 131 -76 -131 152 0 4473 3129 4 MP
DP
-76 131 -76 -131 152 0 4820 3375 4 MP
DP
-76 131 -76 -131 152 0 5167 3497 4 MP
DP
DA
gs 729 321 4863 3211 rc
/c12 { 0.000000 0.750000 0.750000 sr} bdef
c12
347 313 347 633 348 -543 347 780 347 1501 347 -2626 348 336 347 683 
347 -1138 348 177 347 445 347 635 1076 2134 13 MP stroke
gr

c12
SO
66 87 -66 87 -66 -87 66 -87 1076 2221 5 MP
DP
66 87 -66 87 -66 -87 66 -87 1423 2856 5 MP
DP
66 87 -66 87 -66 -87 66 -87 1770 3301 5 MP
DP
66 87 -66 87 -66 -87 66 -87 2118 3478 5 MP
DP
66 87 -66 87 -66 -87 66 -87 2465 2340 5 MP
DP
66 87 -66 87 -66 -87 66 -87 2812 3023 5 MP
DP
66 87 -66 87 -66 -87 66 -87 3160 3359 5 MP
DP
66 87 -66 87 -66 -87 66 -87 3507 733 5 MP
DP
66 87 -66 87 -66 -87 66 -87 3854 2234 5 MP
DP
66 87 -66 87 -66 -87 66 -87 4201 3014 5 MP
DP
66 87 -66 87 -66 -87 66 -87 4549 2471 5 MP
DP
66 87 -66 87 -66 -87 66 -87 4896 3104 5 MP
DP
66 87 -66 87 -66 -87 66 -87 5243 3417 5 MP
DP
DA
gs 729 321 4863 3211 rc
gr

0 sg
2692 3919 mt 
(Sample No.) s
 349 3176 mt  -90 rotate
(Sample Concentration \(mg/mL\)) s
90 rotate
1829  179 mt 
(Compare Sample Concentrations) s
%%IncludeResource: font Helvetica
/Helvetica /ISOLatin1Encoding 168 FMSR

 706 3592 mt 
( ) s
5569  381 mt 
( ) s
SO
15.6 w
%%IncludeResource: font Helvetica
/Helvetica /ISOLatin1Encoding 180 FMSR

1426  582 mt 
(expt. values) s
gs 789 382 2279 1118 rc
DA
16.8 w
c8
490 0 886 517 2 MP stroke
SO
gr

16.8 w
c8
gs 980 366 303 303 rc
  66   66 1131  517 FO
gr

gs 789 382 2279 1118 rc
gr

0 sg
1426  793 mt 
(ref: c500_3x167_k010) s
gs 789 382 2279 1118 rc
DA
c9
490 0 886 728 2 MP stroke
SO
gs 980 578 303 302 rc
0 -104 -104 0 0 104 104 0 1079 676 5 MP
DP
gr

gr

c9
0 sg
1426 1005 mt 
(ref: c500_3x167_k050) s
gs 789 382 2279 1118 rc
DA
c10
490 0 886 940 2 MP stroke
SO
gs 980 789 303 303 rc
  66   66 1131  940 FO
gr

gr

c10
0 sg
1426 1217 mt 
(ref: c500_3x167_k100) s
gs 789 382 2279 1118 rc
DA
c11
490 0 886 1152 2 MP stroke
SO
gs 980 1001 303 302 rc
-76 131 -76 -131 152 0 1055 1196 4 MP
DP
gr

gr

c11
0 sg
1426 1428 mt 
(ref: c500_3x167_k200) s
gs 789 382 2279 1118 rc
DA
c12
490 0 886 1363 2 MP stroke
SO
gr

c12
gs 980 1212 303 303 rc
66 87 -66 87 -66 -87 66 -87 1131 1450 5 MP
DP
gr

gs 789 382 2279 1118 rc
15.6 w
gr

15.6 w

end %%Color Dict

eplot
%%EndObject

epage
end

showpage

%%Trailer
%%EOF
