%!PS-Adobe-3.0 EPSF-3.0
%%Creator: MATLAB, The MathWorks, Inc. Version 7.11.0.584 (R2010b). Operating System: Linux 3.13.0-43-generic #72-Ubuntu SMP Mon Dec 8 19:35:06 UTC 2014 x86_64.
%%Title: ./compare_sample_conc.eps
%%CreationDate: 06/07/2015  21:43:33
%%DocumentNeededFonts: Helvetica
%%DocumentProcessColors: Cyan Magenta Yellow Black
%%LanguageLevel: 2
%%Pages: 1
%%BoundingBox:    39   194   560   591
%%EndComments

%%BeginProlog
% MathWorks dictionary
/MathWorks 160 dict begin
% definition operators
/bdef {bind def} bind def
/ldef {load def} bind def
/xdef {exch def} bdef
/xstore {exch store} bdef
% operator abbreviations
/c  /clip ldef
/cc /concat ldef
/cp /closepath ldef
/gr /grestore ldef
/gs /gsave ldef
/mt /moveto ldef
/np /newpath ldef
/cm /currentmatrix ldef
/sm /setmatrix ldef
/rm /rmoveto ldef
/rl /rlineto ldef
/s {show newpath} bdef
/sc {setcmykcolor} bdef
/sr /setrgbcolor ldef
/sg /setgray ldef
/w /setlinewidth ldef
/j /setlinejoin ldef
/cap /setlinecap ldef
/rc {rectclip} bdef
/rf {rectfill} bdef
% page state control
/pgsv () def
/bpage {/pgsv save def} bdef
/epage {pgsv restore} bdef
/bplot /gsave ldef
/eplot {stroke grestore} bdef
% orientation switch
/portraitMode 0 def /landscapeMode 1 def /rotateMode 2 def
% coordinate system mappings
/dpi2point 0 def
% font control
/FontSize 0 def
/FMS {/FontSize xstore findfont [FontSize 0 0 FontSize neg 0 0]
  makefont setfont} bdef
/reencode {exch dup where {pop load} {pop StandardEncoding} ifelse
  exch dup 3 1 roll findfont dup length dict begin
  { 1 index /FID ne {def}{pop pop} ifelse } forall
  /Encoding exch def currentdict end definefont pop} bdef
/isroman {findfont /CharStrings get /Agrave known} bdef
/FMSR {3 1 roll 1 index dup isroman {reencode} {pop pop} ifelse
  exch FMS} bdef
/csm {1 dpi2point div -1 dpi2point div scale neg translate
 dup landscapeMode eq {pop -90 rotate}
  {rotateMode eq {90 rotate} if} ifelse} bdef
% line types: solid, dotted, dashed, dotdash
/SO { [] 0 setdash } bdef
/DO { [.5 dpi2point mul 4 dpi2point mul] 0 setdash } bdef
/DA { [6 dpi2point mul] 0 setdash } bdef
/DD { [.5 dpi2point mul 4 dpi2point mul 6 dpi2point mul 4
  dpi2point mul] 0 setdash } bdef
% macros for lines and objects
/L {lineto stroke} bdef
/MP {3 1 roll moveto 1 sub {rlineto} repeat} bdef
/AP {{rlineto} repeat} bdef
/PDlw -1 def
/W {/PDlw currentlinewidth def setlinewidth} def
/PP {closepath eofill} bdef
/DP {closepath stroke} bdef
/MR {4 -2 roll moveto dup  0 exch rlineto exch 0 rlineto
  neg 0 exch rlineto closepath} bdef
/FR {MR stroke} bdef
/PR {MR fill} bdef
/L1i {{currentfile picstr readhexstring pop} image} bdef
/tMatrix matrix def
/MakeOval {newpath tMatrix currentmatrix pop translate scale
0 0 1 0 360 arc tMatrix setmatrix} bdef
/FO {MakeOval stroke} bdef
/PO {MakeOval fill} bdef
/PD {currentlinewidth 2 div 0 360 arc fill
   PDlw -1 eq not {PDlw w /PDlw -1 def} if} def
/FA {newpath tMatrix currentmatrix pop translate scale
  0 0 1 5 -2 roll arc tMatrix setmatrix stroke} bdef
/PA {newpath tMatrix currentmatrix pop	translate 0 0 moveto scale
  0 0 1 5 -2 roll arc closepath tMatrix setmatrix fill} bdef
/FAn {newpath tMatrix currentmatrix pop translate scale
  0 0 1 5 -2 roll arcn tMatrix setmatrix stroke} bdef
/PAn {newpath tMatrix currentmatrix pop translate 0 0 moveto scale
  0 0 1 5 -2 roll arcn closepath tMatrix setmatrix fill} bdef
/vradius 0 def /hradius 0 def /lry 0 def
/lrx 0 def /uly 0 def /ulx 0 def /rad 0 def
/MRR {/vradius xdef /hradius xdef /lry xdef /lrx xdef /uly xdef
  /ulx xdef newpath tMatrix currentmatrix pop ulx hradius add uly
  vradius add translate hradius vradius scale 0 0 1 180 270 arc 
  tMatrix setmatrix lrx hradius sub uly vradius add translate
  hradius vradius scale 0 0 1 270 360 arc tMatrix setmatrix
  lrx hradius sub lry vradius sub translate hradius vradius scale
  0 0 1 0 90 arc tMatrix setmatrix ulx hradius add lry vradius sub
  translate hradius vradius scale 0 0 1 90 180 arc tMatrix setmatrix
  closepath} bdef
/FRR {MRR stroke } bdef
/PRR {MRR fill } bdef
/MlrRR {/lry xdef /lrx xdef /uly xdef /ulx xdef /rad lry uly sub 2 div def
  newpath tMatrix currentmatrix pop ulx rad add uly rad add translate
  rad rad scale 0 0 1 90 270 arc tMatrix setmatrix lrx rad sub lry rad
  sub translate rad rad scale 0 0 1 270 90 arc tMatrix setmatrix
  closepath} bdef
/FlrRR {MlrRR stroke } bdef
/PlrRR {MlrRR fill } bdef
/MtbRR {/lry xdef /lrx xdef /uly xdef /ulx xdef /rad lrx ulx sub 2 div def
  newpath tMatrix currentmatrix pop ulx rad add uly rad add translate
  rad rad scale 0 0 1 180 360 arc tMatrix setmatrix lrx rad sub lry rad
  sub translate rad rad scale 0 0 1 0 180 arc tMatrix setmatrix
  closepath} bdef
/FtbRR {MtbRR stroke } bdef
/PtbRR {MtbRR fill } bdef
/stri 6 array def /dtri 6 array def
/smat 6 array def /dmat 6 array def
/tmat1 6 array def /tmat2 6 array def /dif 3 array def
/asub {/ind2 exch def /ind1 exch def dup dup
  ind1 get exch ind2 get sub exch } bdef
/tri_to_matrix {
  2 0 asub 3 1 asub 4 0 asub 5 1 asub
  dup 0 get exch 1 get 7 -1 roll astore } bdef
/compute_transform {
  dmat dtri tri_to_matrix tmat1 invertmatrix 
  smat stri tri_to_matrix tmat2 concatmatrix } bdef
/ds {stri astore pop} bdef
/dt {dtri astore pop} bdef
/db {2 copy /cols xdef /rows xdef mul dup 3 mul string
  currentfile 
  3 index 0 eq {/ASCIIHexDecode filter}
  {/ASCII85Decode filter 3 index 2 eq {/RunLengthDecode filter} if }
  ifelse exch readstring pop
  dup 0 3 index getinterval /rbmap xdef
  dup 2 index dup getinterval /gbmap xdef
  1 index dup 2 mul exch getinterval /bbmap xdef pop pop}bdef
/it {gs np dtri aload pop moveto lineto lineto cp c
  cols rows 8 compute_transform 
  rbmap gbmap bbmap true 3 colorimage gr}bdef
/il {newpath moveto lineto stroke}bdef
currentdict end def
%%EndProlog

%%BeginSetup
MathWorks begin

0 cap

end
%%EndSetup

%%Page: 1 1
%%BeginPageSetup
%%PageBoundingBox:    39   194   560   591
MathWorks begin
bpage
%%EndPageSetup

%%BeginObject: obj1
bplot

/dpi2point 12 def
portraitMode 0216 7344 csm

  257   246  6253  4770 rc
88 dict begin %Colortable dictionary
/c0 { 0.000000 0.000000 0.000000 sr} bdef
/c1 { 1.000000 1.000000 1.000000 sr} bdef
/c2 { 0.900000 0.000000 0.000000 sr} bdef
/c3 { 0.000000 0.820000 0.000000 sr} bdef
/c4 { 0.000000 0.000000 0.800000 sr} bdef
/c5 { 0.910000 0.820000 0.320000 sr} bdef
/c6 { 1.000000 0.260000 0.820000 sr} bdef
/c7 { 0.000000 0.820000 0.820000 sr} bdef
c0
1 j
1 sg
   0    0 6913 5186 rf
15.6 w
0 4148 5530 0 0 -4148 829 4563 4 MP
PP
-5530 0 0 4148 5530 0 0 -4148 829 4563 5 MP stroke
10.4 w
DO
SO
15.6 w
0 sg
 829 4563 mt 6359 4563 L
 829  415 mt 6359  415 L
 829 4563 mt  829  415 L
6359 4563 mt 6359  415 L
 829 4563 mt 6359 4563 L
 829 4563 mt  829  415 L
 829 4563 mt  829 4507 L
 829  415 mt  829  470 L
%%IncludeResource: font Helvetica
/Helvetica /ISOLatin1Encoding 180 FMSR

 779 4764 mt 
(0) s
 987 4563 mt  987 4535 L
 987  415 mt  987  442 L
1145 4563 mt 1145 4535 L
1145  415 mt 1145  442 L
1303 4563 mt 1303 4535 L
1303  415 mt 1303  442 L
1461 4563 mt 1461 4535 L
1461  415 mt 1461  442 L
1619 4563 mt 1619 4535 L
1619  415 mt 1619  442 L
1619 4563 mt 1619 4535 L
1619  415 mt 1619  442 L
1619 4563 mt 1619 4535 L
1619  415 mt 1619  442 L
1619 4563 mt 1619 4535 L
1619  415 mt 1619  442 L
1619 4563 mt 1619 4535 L
1619  415 mt 1619  442 L
1619 4563 mt 1619 4507 L
1619  415 mt 1619  470 L
1569 4764 mt 
(2) s
1777 4563 mt 1777 4535 L
1777  415 mt 1777  442 L
1935 4563 mt 1935 4535 L
1935  415 mt 1935  442 L
2093 4563 mt 2093 4535 L
2093  415 mt 2093  442 L
2251 4563 mt 2251 4535 L
2251  415 mt 2251  442 L
2409 4563 mt 2409 4535 L
2409  415 mt 2409  442 L
2409 4563 mt 2409 4535 L
2409  415 mt 2409  442 L
2409 4563 mt 2409 4535 L
2409  415 mt 2409  442 L
2409 4563 mt 2409 4535 L
2409  415 mt 2409  442 L
2409 4563 mt 2409 4535 L
2409  415 mt 2409  442 L
2409 4563 mt 2409 4507 L
2409  415 mt 2409  470 L
2359 4764 mt 
(4) s
2567 4563 mt 2567 4535 L
2567  415 mt 2567  442 L
2725 4563 mt 2725 4535 L
2725  415 mt 2725  442 L
2883 4563 mt 2883 4535 L
2883  415 mt 2883  442 L
3041 4563 mt 3041 4535 L
3041  415 mt 3041  442 L
3199 4563 mt 3199 4535 L
3199  415 mt 3199  442 L
3199 4563 mt 3199 4535 L
3199  415 mt 3199  442 L
3199 4563 mt 3199 4535 L
3199  415 mt 3199  442 L
3199 4563 mt 3199 4535 L
3199  415 mt 3199  442 L
3199 4563 mt 3199 4535 L
3199  415 mt 3199  442 L
3199 4563 mt 3199 4507 L
3199  415 mt 3199  470 L
3149 4764 mt 
(6) s
3357 4563 mt 3357 4535 L
3357  415 mt 3357  442 L
3515 4563 mt 3515 4535 L
3515  415 mt 3515  442 L
3672 4563 mt 3672 4535 L
3672  415 mt 3672  442 L
3830 4563 mt 3830 4535 L
3830  415 mt 3830  442 L
3989 4563 mt 3989 4535 L
3989  415 mt 3989  442 L
3989 4563 mt 3989 4535 L
3989  415 mt 3989  442 L
3989 4563 mt 3989 4535 L
3989  415 mt 3989  442 L
3989 4563 mt 3989 4535 L
3989  415 mt 3989  442 L
3989 4563 mt 3989 4535 L
3989  415 mt 3989  442 L
3989 4563 mt 3989 4507 L
3989  415 mt 3989  470 L
3939 4764 mt 
(8) s
4147 4563 mt 4147 4535 L
4147  415 mt 4147  442 L
4305 4563 mt 4305 4535 L
4305  415 mt 4305  442 L
4463 4563 mt 4463 4535 L
4463  415 mt 4463  442 L
4621 4563 mt 4621 4535 L
4621  415 mt 4621  442 L
4779 4563 mt 4779 4535 L
4779  415 mt 4779  442 L
4779 4563 mt 4779 4535 L
4779  415 mt 4779  442 L
4779 4563 mt 4779 4535 L
4779  415 mt 4779  442 L
4779 4563 mt 4779 4535 L
4779  415 mt 4779  442 L
4779 4563 mt 4779 4535 L
4779  415 mt 4779  442 L
4779 4563 mt 4779 4507 L
4779  415 mt 4779  470 L
4679 4764 mt 
(10) s
4937 4563 mt 4937 4535 L
4937  415 mt 4937  442 L
5095 4563 mt 5095 4535 L
5095  415 mt 5095  442 L
5253 4563 mt 5253 4535 L
5253  415 mt 5253  442 L
5411 4563 mt 5411 4535 L
5411  415 mt 5411  442 L
5569 4563 mt 5569 4535 L
5569  415 mt 5569  442 L
5569 4563 mt 5569 4535 L
5569  415 mt 5569  442 L
5569 4563 mt 5569 4535 L
5569  415 mt 5569  442 L
5569 4563 mt 5569 4535 L
5569  415 mt 5569  442 L
5569 4563 mt 5569 4535 L
5569  415 mt 5569  442 L
5569 4563 mt 5569 4507 L
5569  415 mt 5569  470 L
5469 4764 mt 
(12) s
5727 4563 mt 5727 4535 L
5727  415 mt 5727  442 L
5885 4563 mt 5885 4535 L
5885  415 mt 5885  442 L
6043 4563 mt 6043 4535 L
6043  415 mt 6043  442 L
6201 4563 mt 6201 4535 L
6201  415 mt 6201  442 L
6359 4563 mt 6359 4535 L
6359  415 mt 6359  442 L
6359 4563 mt 6359 4535 L
6359  415 mt 6359  442 L
6359 4563 mt 6359 4535 L
6359  415 mt 6359  442 L
6359 4563 mt 6359 4535 L
6359  415 mt 6359  442 L
6359 4563 mt 6359 4535 L
6359  415 mt 6359  442 L
6359 4563 mt 6359 4507 L
6359  415 mt 6359  470 L
6259 4764 mt 
(14) s
 829 4563 mt  884 4563 L
6359 4563 mt 6303 4563 L
 694 4629 mt 
(0) s
 829 4444 mt  856 4444 L
6359 4444 mt 6331 4444 L
 829 4325 mt  856 4325 L
6359 4325 mt 6331 4325 L
 829 4207 mt  856 4207 L
6359 4207 mt 6331 4207 L
 829 4088 mt  856 4088 L
6359 4088 mt 6331 4088 L
 829 3970 mt  856 3970 L
6359 3970 mt 6331 3970 L
 829 3970 mt  856 3970 L
6359 3970 mt 6331 3970 L
 829 3970 mt  856 3970 L
6359 3970 mt 6331 3970 L
 829 3970 mt  856 3970 L
6359 3970 mt 6331 3970 L
 829 3970 mt  856 3970 L
6359 3970 mt 6331 3970 L
 829 3970 mt  884 3970 L
6359 3970 mt 6303 3970 L
 544 4036 mt 
(0.2) s
 829 3851 mt  856 3851 L
6359 3851 mt 6331 3851 L
 829 3733 mt  856 3733 L
6359 3733 mt 6331 3733 L
 829 3614 mt  856 3614 L
6359 3614 mt 6331 3614 L
 829 3496 mt  856 3496 L
6359 3496 mt 6331 3496 L
 829 3377 mt  856 3377 L
6359 3377 mt 6331 3377 L
 829 3377 mt  856 3377 L
6359 3377 mt 6331 3377 L
 829 3377 mt  856 3377 L
6359 3377 mt 6331 3377 L
 829 3377 mt  856 3377 L
6359 3377 mt 6331 3377 L
 829 3377 mt  856 3377 L
6359 3377 mt 6331 3377 L
 829 3377 mt  884 3377 L
6359 3377 mt 6303 3377 L
 544 3443 mt 
(0.4) s
 829 3259 mt  856 3259 L
6359 3259 mt 6331 3259 L
 829 3140 mt  856 3140 L
6359 3140 mt 6331 3140 L
 829 3022 mt  856 3022 L
6359 3022 mt 6331 3022 L
 829 2903 mt  856 2903 L
6359 2903 mt 6331 2903 L
 829 2785 mt  856 2785 L
6359 2785 mt 6331 2785 L
 829 2785 mt  856 2785 L
6359 2785 mt 6331 2785 L
 829 2785 mt  856 2785 L
6359 2785 mt 6331 2785 L
 829 2785 mt  856 2785 L
6359 2785 mt 6331 2785 L
 829 2785 mt  856 2785 L
6359 2785 mt 6331 2785 L
 829 2785 mt  884 2785 L
6359 2785 mt 6303 2785 L
 544 2851 mt 
(0.6) s
 829 2666 mt  856 2666 L
6359 2666 mt 6331 2666 L
 829 2548 mt  856 2548 L
6359 2548 mt 6331 2548 L
 829 2429 mt  856 2429 L
6359 2429 mt 6331 2429 L
 829 2311 mt  856 2311 L
6359 2311 mt 6331 2311 L
 829 2192 mt  856 2192 L
6359 2192 mt 6331 2192 L
 829 2192 mt  856 2192 L
6359 2192 mt 6331 2192 L
 829 2192 mt  856 2192 L
6359 2192 mt 6331 2192 L
 829 2192 mt  856 2192 L
6359 2192 mt 6331 2192 L
 829 2192 mt  856 2192 L
6359 2192 mt 6331 2192 L
 829 2192 mt  884 2192 L
6359 2192 mt 6303 2192 L
 544 2258 mt 
(0.8) s
 829 2074 mt  856 2074 L
6359 2074 mt 6331 2074 L
 829 1955 mt  856 1955 L
6359 1955 mt 6331 1955 L
 829 1837 mt  856 1837 L
6359 1837 mt 6331 1837 L
 829 1718 mt  856 1718 L
6359 1718 mt 6331 1718 L
 829 1600 mt  856 1600 L
6359 1600 mt 6331 1600 L
 829 1600 mt  856 1600 L
6359 1600 mt 6331 1600 L
 829 1600 mt  856 1600 L
6359 1600 mt 6331 1600 L
 829 1600 mt  856 1600 L
6359 1600 mt 6331 1600 L
 829 1600 mt  856 1600 L
6359 1600 mt 6331 1600 L
 829 1600 mt  884 1600 L
6359 1600 mt 6303 1600 L
 694 1666 mt 
(1) s
 829 1481 mt  856 1481 L
6359 1481 mt 6331 1481 L
 829 1363 mt  856 1363 L
6359 1363 mt 6331 1363 L
 829 1244 mt  856 1244 L
6359 1244 mt 6331 1244 L
 829 1126 mt  856 1126 L
6359 1126 mt 6331 1126 L
 829 1007 mt  856 1007 L
6359 1007 mt 6331 1007 L
 829 1007 mt  856 1007 L
6359 1007 mt 6331 1007 L
 829 1007 mt  856 1007 L
6359 1007 mt 6331 1007 L
 829 1007 mt  856 1007 L
6359 1007 mt 6331 1007 L
 829 1007 mt  856 1007 L
6359 1007 mt 6331 1007 L
 829 1007 mt  884 1007 L
6359 1007 mt 6303 1007 L
 544 1073 mt 
(1.2) s
 829  889 mt  856  889 L
6359  889 mt 6331  889 L
 829  770 mt  856  770 L
6359  770 mt 6331  770 L
 829  652 mt  856  652 L
6359  652 mt 6331  652 L
 829  533 mt  856  533 L
6359  533 mt 6331  533 L
 829  415 mt  856  415 L
6359  415 mt 6331  415 L
 829  415 mt  856  415 L
6359  415 mt 6331  415 L
 829  415 mt  856  415 L
6359  415 mt 6331  415 L
 829  415 mt  856  415 L
6359  415 mt 6331  415 L
 829  415 mt  856  415 L
6359  415 mt 6331  415 L
 829  415 mt  884  415 L
6359  415 mt 6303  415 L
 544  481 mt 
(1.4) s
 829 4563 mt 6359 4563 L
 829  415 mt 6359  415 L
 829 4563 mt  829  415 L
6359 4563 mt 6359  415 L
gs 829 415 5531 4149 rc
DA
24 w
/c8 { 0.219608 0.380392 0.541176 sr} bdef
c8
395 -779 395 -365 395 3321 395 -1886 395 -937 395 700 395 -724 395 -412 
395 1245 395 -682 395 -519 395 -168 1224 4381 13 MP stroke
gs 1066 840 5057 3700 rc
SO
  66   66 1224 4381 FO
  66   66 1619 4213 FO
  66   66 2014 3694 FO
  66   66 2409 3012 FO
  66   66 2804 4257 FO
  66   66 3199 3845 FO
  66   66 3594 3121 FO
  66   66 3989 3821 FO
  66   66 4384 2884 FO
  66   66 4779  998 FO
  66   66 5174 4319 FO
  66   66 5569 3954 FO
  66   66 5964 3175 FO
DA
gr

/c9 { 0.850980 0.239216 0.243137 sr} bdef
c9
395 -787 395 -399 395 3218 395 -1822 395 -935 395 779 395 -788 395 -403 
395 1246 395 -696 395 -489 395 -205 1224 4402 13 MP stroke
gs 1066 931 5057 3630 rc
SO
0 j
0 -104 -104 0 0 104 104 0 1172 4350 5 MP
DP
0 -104 -104 0 0 104 104 0 1567 4145 5 MP
DP
0 -104 -104 0 0 104 104 0 1962 3656 5 MP
DP
0 -104 -104 0 0 104 104 0 2357 2960 5 MP
DP
0 -104 -104 0 0 104 104 0 2752 4206 5 MP
DP
0 -104 -104 0 0 104 104 0 3147 3803 5 MP
DP
0 -104 -104 0 0 104 104 0 3542 3015 5 MP
DP
0 -104 -104 0 0 104 104 0 3937 3794 5 MP
DP
0 -104 -104 0 0 104 104 0 4332 2859 5 MP
DP
0 -104 -104 0 0 104 104 0 4727 1037 5 MP
DP
0 -104 -104 0 0 104 104 0 5122 4255 5 MP
DP
0 -104 -104 0 0 104 104 0 5517 3856 5 MP
DP
0 -104 -104 0 0 104 104 0 5912 3069 5 MP
DP
DA
gr

/c10 { 0.294118 0.423529 0.137255 sr} bdef
c10
395 -751 395 -368 395 3095 395 -1758 395 -895 395 762 395 -759 395 -394 
395 1330 395 -738 395 -508 395 -203 1224 4393 13 MP stroke
gs 1066 1072 5057 3480 rc
SO
  66   66 1224 4393 FO
  66   66 1619 4190 FO
  66   66 2014 3682 FO
  66   66 2409 2944 FO
  66   66 2804 4274 FO
  66   66 3199 3880 FO
  66   66 3594 3121 FO
  66   66 3989 3883 FO
  66   66 4384 2988 FO
  66   66 4779 1230 FO
  66   66 5174 4325 FO
  66   66 5569 3957 FO
  66   66 5964 3206 FO
DA
gr

/c11 { 0.392157 0.266667 0.458824 sr} bdef
c11
395 -762 395 -374 395 3324 395 -1885 395 -956 395 774 395 -798 395 -393 
395 1296 395 -725 395 -503 395 -208 1224 4396 13 MP stroke
gs 1066 840 5057 3715 rc
SO
0 j
-76 131 -76 -131 152 0 1148 4440 4 MP
DP
-76 131 -76 -131 152 0 1543 4232 4 MP
DP
-76 131 -76 -131 152 0 1938 3729 4 MP
DP
-76 131 -76 -131 152 0 2333 3004 4 MP
DP
-76 131 -76 -131 152 0 2728 4300 4 MP
DP
-76 131 -76 -131 152 0 3123 3907 4 MP
DP
-76 131 -76 -131 152 0 3518 3109 4 MP
DP
-76 131 -76 -131 152 0 3913 3883 4 MP
DP
-76 131 -76 -131 152 0 4308 2927 4 MP
DP
-76 131 -76 -131 152 0 4703 1042 4 MP
DP
-76 131 -76 -131 152 0 5098 4366 4 MP
DP
-76 131 -76 -131 152 0 5493 3992 4 MP
DP
-76 131 -76 -131 152 0 5888 3230 4 MP
DP
DA
gr

/c12 { 0.894118 0.713725 0.188235 sr} bdef
c12
395 -765 395 -378 395 3316 395 -1882 395 -954 395 780 395 -799 395 -396 
395 1321 395 -736 395 -514 395 -211 1224 4393 13 MP stroke
gs 1066 844 5057 3708 rc
SO
0 j
66 87 -66 87 -66 -87 66 -87 1224 4480 5 MP
DP
66 87 -66 87 -66 -87 66 -87 1619 4269 5 MP
DP
66 87 -66 87 -66 -87 66 -87 2014 3755 5 MP
DP
66 87 -66 87 -66 -87 66 -87 2409 3019 5 MP
DP
66 87 -66 87 -66 -87 66 -87 2804 4340 5 MP
DP
66 87 -66 87 -66 -87 66 -87 3199 3944 5 MP
DP
66 87 -66 87 -66 -87 66 -87 3594 3145 5 MP
DP
66 87 -66 87 -66 -87 66 -87 3989 3925 5 MP
DP
66 87 -66 87 -66 -87 66 -87 4384 2971 5 MP
DP
66 87 -66 87 -66 -87 66 -87 4779 1089 5 MP
DP
66 87 -66 87 -66 -87 66 -87 5174 4405 5 MP
DP
66 87 -66 87 -66 -87 66 -87 5569 4027 5 MP
DP
66 87 -66 87 -66 -87 66 -87 5964 3262 5 MP
DP
DA
gr

gr

24 w
c12
DA
0 sg
2943 4951 mt 
(Sample Number) s
 449 3739 mt  -90 rotate
(Sample Concentration \(mg/mL\)) s
90 rotate
%%IncludeResource: font Helvetica
/Helvetica /ISOLatin1Encoding 168 FMSR

 806 4624 mt 
( ) s
6337  475 mt 
( ) s
SO
15.6 w
%%IncludeResource: font Helvetica
/Helvetica /ISOLatin1Encoding 180 FMSR

1526  675 mt 
(expt. values) s
gs 889 476 2279 1117 rc
DA
24 w
c8
490 0 986 611 2 MP stroke
SO
gr

24 w
c8
gs 1073 453 317 317 rc
  66   66 1231  611 FO
gr

gs 889 476 2279 1117 rc
gr

0 sg
1526  887 mt 
(ref: c500_3x167_k010) s
gs 889 476 2279 1117 rc
DA
c9
490 0 986 822 2 MP stroke
SO
gs 1073 664 317 317 rc
0 j
0 -104 -104 0 0 104 104 0 1179 770 5 MP
DP
gr

gr

c9
0 sg
1526 1099 mt 
(ref: c500_3x167_k050) s
gs 889 476 2279 1117 rc
DA
c10
490 0 986 1034 2 MP stroke
SO
gs 1073 876 317 317 rc
  66   66 1231 1034 FO
gr

gr

c10
0 sg
1526 1310 mt 
(ref: c500_3x167_k100) s
gs 889 476 2279 1117 rc
DA
c11
490 0 986 1245 2 MP stroke
SO
gs 1073 1087 317 317 rc
0 j
-76 131 -76 -131 152 0 1155 1289 4 MP
DP
gr

gr

c11
0 sg
1526 1522 mt 
(ref: c500_3x167_k200) s
gs 889 476 2279 1117 rc
DA
c12
490 0 986 1456 2 MP stroke
SO
gr

c12
gs 1073 1298 317 317 rc
0 j
66 87 -66 87 -66 -87 66 -87 1231 1543 5 MP
DP
gr

gs 889 476 2279 1117 rc
15.6 w
gr

15.6 w

end %%Color Dict

eplot
%%EndObject

epage
end

showpage

%%Trailer
%%EOF
