%!PS-Adobe-3.0 EPSF-3.0
%%Creator: MATLAB, The MathWorks, Inc. Version 7.11.0.584 (R2010b). Operating System: Linux 3.13.0-46-generic #79-Ubuntu SMP Tue Mar 10 20:06:50 UTC 2015 x86_64.
%%Title: ./1ZBB_align_angles.eps
%%CreationDate: 04/27/2015  14:01:10
%%DocumentNeededFonts: Times-Roman
%%+ Helvetica
%%DocumentProcessColors: Cyan Magenta Yellow Black
%%LanguageLevel: 2
%%Pages: 1
%%BoundingBox:   142   258   591   616
%%EndComments

%%BeginProlog
% MathWorks dictionary
/MathWorks 160 dict begin
% definition operators
/bdef {bind def} bind def
/ldef {load def} bind def
/xdef {exch def} bdef
/xstore {exch store} bdef
% operator abbreviations
/c  /clip ldef
/cc /concat ldef
/cp /closepath ldef
/gr /grestore ldef
/gs /gsave ldef
/mt /moveto ldef
/np /newpath ldef
/cm /currentmatrix ldef
/sm /setmatrix ldef
/rm /rmoveto ldef
/rl /rlineto ldef
/s {show newpath} bdef
/sc {setcmykcolor} bdef
/sr /setrgbcolor ldef
/sg /setgray ldef
/w /setlinewidth ldef
/j /setlinejoin ldef
/cap /setlinecap ldef
/rc {rectclip} bdef
/rf {rectfill} bdef
% page state control
/pgsv () def
/bpage {/pgsv save def} bdef
/epage {pgsv restore} bdef
/bplot /gsave ldef
/eplot {stroke grestore} bdef
% orientation switch
/portraitMode 0 def /landscapeMode 1 def /rotateMode 2 def
% coordinate system mappings
/dpi2point 0 def
% font control
/FontSize 0 def
/FMS {/FontSize xstore findfont [FontSize 0 0 FontSize neg 0 0]
  makefont setfont} bdef
/reencode {exch dup where {pop load} {pop StandardEncoding} ifelse
  exch dup 3 1 roll findfont dup length dict begin
  { 1 index /FID ne {def}{pop pop} ifelse } forall
  /Encoding exch def currentdict end definefont pop} bdef
/isroman {findfont /CharStrings get /Agrave known} bdef
/FMSR {3 1 roll 1 index dup isroman {reencode} {pop pop} ifelse
  exch FMS} bdef
/csm {1 dpi2point div -1 dpi2point div scale neg translate
 dup landscapeMode eq {pop -90 rotate}
  {rotateMode eq {90 rotate} if} ifelse} bdef
% line types: solid, dotted, dashed, dotdash
/SO { [] 0 setdash } bdef
/DO { [.5 dpi2point mul 4 dpi2point mul] 0 setdash } bdef
/DA { [6 dpi2point mul] 0 setdash } bdef
/DD { [.5 dpi2point mul 4 dpi2point mul 6 dpi2point mul 4
  dpi2point mul] 0 setdash } bdef
% macros for lines and objects
/L {lineto stroke} bdef
/MP {3 1 roll moveto 1 sub {rlineto} repeat} bdef
/AP {{rlineto} repeat} bdef
/PDlw -1 def
/W {/PDlw currentlinewidth def setlinewidth} def
/PP {closepath eofill} bdef
/DP {closepath stroke} bdef
/MR {4 -2 roll moveto dup  0 exch rlineto exch 0 rlineto
  neg 0 exch rlineto closepath} bdef
/FR {MR stroke} bdef
/PR {MR fill} bdef
/L1i {{currentfile picstr readhexstring pop} image} bdef
/tMatrix matrix def
/MakeOval {newpath tMatrix currentmatrix pop translate scale
0 0 1 0 360 arc tMatrix setmatrix} bdef
/FO {MakeOval stroke} bdef
/PO {MakeOval fill} bdef
/PD {currentlinewidth 2 div 0 360 arc fill
   PDlw -1 eq not {PDlw w /PDlw -1 def} if} def
/FA {newpath tMatrix currentmatrix pop translate scale
  0 0 1 5 -2 roll arc tMatrix setmatrix stroke} bdef
/PA {newpath tMatrix currentmatrix pop	translate 0 0 moveto scale
  0 0 1 5 -2 roll arc closepath tMatrix setmatrix fill} bdef
/FAn {newpath tMatrix currentmatrix pop translate scale
  0 0 1 5 -2 roll arcn tMatrix setmatrix stroke} bdef
/PAn {newpath tMatrix currentmatrix pop translate 0 0 moveto scale
  0 0 1 5 -2 roll arcn closepath tMatrix setmatrix fill} bdef
/vradius 0 def /hradius 0 def /lry 0 def
/lrx 0 def /uly 0 def /ulx 0 def /rad 0 def
/MRR {/vradius xdef /hradius xdef /lry xdef /lrx xdef /uly xdef
  /ulx xdef newpath tMatrix currentmatrix pop ulx hradius add uly
  vradius add translate hradius vradius scale 0 0 1 180 270 arc 
  tMatrix setmatrix lrx hradius sub uly vradius add translate
  hradius vradius scale 0 0 1 270 360 arc tMatrix setmatrix
  lrx hradius sub lry vradius sub translate hradius vradius scale
  0 0 1 0 90 arc tMatrix setmatrix ulx hradius add lry vradius sub
  translate hradius vradius scale 0 0 1 90 180 arc tMatrix setmatrix
  closepath} bdef
/FRR {MRR stroke } bdef
/PRR {MRR fill } bdef
/MlrRR {/lry xdef /lrx xdef /uly xdef /ulx xdef /rad lry uly sub 2 div def
  newpath tMatrix currentmatrix pop ulx rad add uly rad add translate
  rad rad scale 0 0 1 90 270 arc tMatrix setmatrix lrx rad sub lry rad
  sub translate rad rad scale 0 0 1 270 90 arc tMatrix setmatrix
  closepath} bdef
/FlrRR {MlrRR stroke } bdef
/PlrRR {MlrRR fill } bdef
/MtbRR {/lry xdef /lrx xdef /uly xdef /ulx xdef /rad lrx ulx sub 2 div def
  newpath tMatrix currentmatrix pop ulx rad add uly rad add translate
  rad rad scale 0 0 1 180 360 arc tMatrix setmatrix lrx rad sub lry rad
  sub translate rad rad scale 0 0 1 0 180 arc tMatrix setmatrix
  closepath} bdef
/FtbRR {MtbRR stroke } bdef
/PtbRR {MtbRR fill } bdef
/stri 6 array def /dtri 6 array def
/smat 6 array def /dmat 6 array def
/tmat1 6 array def /tmat2 6 array def /dif 3 array def
/asub {/ind2 exch def /ind1 exch def dup dup
  ind1 get exch ind2 get sub exch } bdef
/tri_to_matrix {
  2 0 asub 3 1 asub 4 0 asub 5 1 asub
  dup 0 get exch 1 get 7 -1 roll astore } bdef
/compute_transform {
  dmat dtri tri_to_matrix tmat1 invertmatrix 
  smat stri tri_to_matrix tmat2 concatmatrix } bdef
/ds {stri astore pop} bdef
/dt {dtri astore pop} bdef
/db {2 copy /cols xdef /rows xdef mul dup 3 mul string
  currentfile 
  3 index 0 eq {/ASCIIHexDecode filter}
  {/ASCII85Decode filter 3 index 2 eq {/RunLengthDecode filter} if }
  ifelse exch readstring pop
  dup 0 3 index getinterval /rbmap xdef
  dup 2 index dup getinterval /gbmap xdef
  1 index dup 2 mul exch getinterval /bbmap xdef pop pop}bdef
/it {gs np dtri aload pop moveto lineto lineto cp c
  cols rows 8 compute_transform 
  rbmap gbmap bbmap true 3 colorimage gr}bdef
/il {newpath moveto lineto stroke}bdef
currentdict end def
%%EndProlog

%%BeginSetup
MathWorks begin

0 cap

end
%%EndSetup

%%Page: 1 1
%%BeginPageSetup
%%PageBoundingBox:   142   258   591   616
MathWorks begin
bpage
%%EndPageSetup

%%BeginObject: obj1
bplot

/dpi2point 12 def
portraitMode 0216 7344 csm

 1489   -48  5392  4295 rc
93 dict begin %Colortable dictionary
/c0 { 0.000000 0.000000 0.000000 sr} bdef
/c1 { 1.000000 1.000000 1.000000 sr} bdef
/c2 { 0.900000 0.000000 0.000000 sr} bdef
/c3 { 0.000000 0.820000 0.000000 sr} bdef
/c4 { 0.000000 0.000000 0.800000 sr} bdef
/c5 { 0.910000 0.820000 0.320000 sr} bdef
/c6 { 1.000000 0.260000 0.820000 sr} bdef
/c7 { 0.000000 0.820000 0.820000 sr} bdef
c0
1 j
1 sg
   0    0 6913 5186 rf
12 w
0 3776 4814 0 0 -3776 1975 3858 4 MP
PP
-4814 0 0 3776 4814 0 0 -3776 1975 3858 5 MP stroke
8 w
DO
SO
12 w
0 sg
1975 3858 mt 6789 3858 L
1975   82 mt 6789   82 L
1975 3858 mt 1975   82 L
6789 3858 mt 6789   82 L
1975 3858 mt 6789 3858 L
1975 3858 mt 1975   82 L
3138 3858 mt 3138 3833 L
3138   83 mt 3138  107 L
3013 3858 mt 3013 3833 L
3013   83 mt 3013  107 L
2874 3858 mt 2874 3833 L
2874   83 mt 2874  107 L
2716 3858 mt 2716 3833 L
2716   83 mt 2716  107 L
2533 3858 mt 2533 3833 L
2533   83 mt 2533  107 L
2317 3858 mt 2317 3833 L
2317   83 mt 2317  107 L
2053 3858 mt 2053 3833 L
2053   83 mt 2053  107 L
3138 3858 mt 3138 3809 L
3138   83 mt 3138  131 L
%%IncludeResource: font Times-Roman
/Times-Roman /ISOLatin1Encoding 132 FMSR

3026 4050 mt 
(10) s
%%IncludeResource: font Times-Roman
/Times-Roman /ISOLatin1Encoding 88 FMSR

3158 3971 mt 
(-2) s
3959 3858 mt 3959 3833 L
3959   83 mt 3959  107 L
4439 3858 mt 4439 3833 L
4439   83 mt 4439  107 L
4780 3858 mt 4780 3833 L
4780   83 mt 4780  107 L
5044 3858 mt 5044 3833 L
5044   83 mt 5044  107 L
5260 3858 mt 5260 3833 L
5260   83 mt 5260  107 L
5442 3858 mt 5442 3833 L
5442   83 mt 5442  107 L
5601 3858 mt 5601 3833 L
5601   83 mt 5601  107 L
5740 3858 mt 5740 3833 L
5740   83 mt 5740  107 L
5865 3858 mt 5865 3833 L
5865   83 mt 5865  107 L
5865 3858 mt 5865 3809 L
5865   83 mt 5865  131 L
%%IncludeResource: font Times-Roman
/Times-Roman /ISOLatin1Encoding 132 FMSR

5753 4050 mt 
(10) s
%%IncludeResource: font Times-Roman
/Times-Roman /ISOLatin1Encoding 88 FMSR

5885 3971 mt 
(-1) s
6686 3858 mt 6686 3833 L
6686   83 mt 6686  107 L
1975 3520 mt 1999 3520 L
6789 3520 mt 6764 3520 L
1975 3571 mt 1999 3571 L
6789 3571 mt 6764 3571 L
1975 3627 mt 1999 3627 L
6789 3627 mt 6764 3627 L
1975 3690 mt 1999 3690 L
6789 3690 mt 6764 3690 L
1975 3764 mt 1999 3764 L
6789 3764 mt 6764 3764 L
1975 3851 mt 1999 3851 L
6789 3851 mt 6764 3851 L
1975 3520 mt 2023 3520 L
6789 3520 mt 6740 3520 L
%%IncludeResource: font Times-Roman
/Times-Roman /ISOLatin1Encoding 132 FMSR

1715 3567 mt 
(10) s
%%IncludeResource: font Times-Roman
/Times-Roman /ISOLatin1Encoding 88 FMSR

1847 3488 mt 
(-3) s
1975 3190 mt 1999 3190 L
6789 3190 mt 6764 3190 L
1975 2997 mt 1999 2997 L
6789 2997 mt 6764 2997 L
1975 2859 mt 1999 2859 L
6789 2859 mt 6764 2859 L
1975 2753 mt 1999 2753 L
6789 2753 mt 6764 2753 L
1975 2666 mt 1999 2666 L
6789 2666 mt 6764 2666 L
1975 2593 mt 1999 2593 L
6789 2593 mt 6764 2593 L
1975 2529 mt 1999 2529 L
6789 2529 mt 6764 2529 L
1975 2473 mt 1999 2473 L
6789 2473 mt 6764 2473 L
1975 2423 mt 1999 2423 L
6789 2423 mt 6764 2423 L
1975 2423 mt 2023 2423 L
6789 2423 mt 6740 2423 L
%%IncludeResource: font Times-Roman
/Times-Roman /ISOLatin1Encoding 132 FMSR

1715 2470 mt 
(10) s
%%IncludeResource: font Times-Roman
/Times-Roman /ISOLatin1Encoding 88 FMSR

1847 2391 mt 
(-2) s
1975 2092 mt 1999 2092 L
6789 2092 mt 6764 2092 L
1975 1899 mt 1999 1899 L
6789 1899 mt 6764 1899 L
1975 1762 mt 1999 1762 L
6789 1762 mt 6764 1762 L
1975 1655 mt 1999 1655 L
6789 1655 mt 6764 1655 L
1975 1568 mt 1999 1568 L
6789 1568 mt 6764 1568 L
1975 1495 mt 1999 1495 L
6789 1495 mt 6764 1495 L
1975 1431 mt 1999 1431 L
6789 1431 mt 6764 1431 L
1975 1375 mt 1999 1375 L
6789 1375 mt 6764 1375 L
1975 1325 mt 1999 1325 L
6789 1325 mt 6764 1325 L
1975 1325 mt 2023 1325 L
6789 1325 mt 6740 1325 L
%%IncludeResource: font Times-Roman
/Times-Roman /ISOLatin1Encoding 132 FMSR

1715 1372 mt 
(10) s
%%IncludeResource: font Times-Roman
/Times-Roman /ISOLatin1Encoding 88 FMSR

1847 1293 mt 
(-1) s
1975  994 mt 1999  994 L
6789  994 mt 6764  994 L
1975  801 mt 1999  801 L
6789  801 mt 6764  801 L
1975  664 mt 1999  664 L
6789  664 mt 6764  664 L
1975  558 mt 1999  558 L
6789  558 mt 6764  558 L
1975  471 mt 1999  471 L
6789  471 mt 6764  471 L
1975  397 mt 1999  397 L
6789  397 mt 6764  397 L
1975  334 mt 1999  334 L
6789  334 mt 6764  334 L
1975  277 mt 1999  277 L
6789  277 mt 6764  277 L
1975  227 mt 1999  227 L
6789  227 mt 6764  227 L
1975  227 mt 2023  227 L
6789  227 mt 6740  227 L
%%IncludeResource: font Times-Roman
/Times-Roman /ISOLatin1Encoding 132 FMSR

1715  274 mt 
(10) s
%%IncludeResource: font Times-Roman
/Times-Roman /ISOLatin1Encoding 88 FMSR

1847  195 mt 
(0) s
1975 3858 mt 6789 3858 L
1975   82 mt 6789   82 L
1975 3858 mt 1975   82 L
6789 3858 mt 6789   82 L
%%IncludeResource: font Times-Roman
/Times-Roman /ISOLatin1Encoding 132 FMSR

4174 4194 mt 
(Q \(1/A\)) s
1632 2085 mt  -90 rotate
(I\(Q\)) s
90 rotate
%%IncludeResource: font Helvetica
/Helvetica /ISOLatin1Encoding 132 FMSR

1957 3906 mt 
( ) s
6772  130 mt 
( ) s
gs 1975 83 4815 3776 rc
24 w
/c8 { 0.000000 0.000000 1.000000 sr} bdef
c8
24 -44 25 -53 25 -51 25 -35 26 -5 27 24 27 43 28 49 
28 48 30 43 30 36 30 26 32 17 32 12 34 18 34 33 
35 52 37 69 37 83 39 93 40 100 42 100 43 90 45 69 
46 45 49 21 50 8 53 9 55 18 57 21 61 10 64 9 
68 59 72 176 76 266 82 274 88 236 94 188 103 144 113 110 
125 97 140 105 158 128 182 149 216 155 264 143 341 119 480 87 
821 53 2053 139 50 MP stroke
/c9 { 0.000000 0.500000 0.000000 sr} bdef
c9
24 -21 25 -29 25 -28 25 -15 26 5 27 21 27 29 28 26 
28 21 30 15 30 10 30 3 32 -6 32 -10 34 -1 34 25 
35 62 37 89 37 101 39 104 40 104 42 104 43 99 45 86 
46 64 49 40 50 18 53 4 55 -3 57 -8 61 -20 64 -25 
68 24 72 165 76 284 82 301 88 260 94 208 103 162 113 130 
125 116 140 122 158 142 182 158 216 159 264 143 341 119 480 87 
821 53 2053 139 50 MP stroke
/c10 { 1.000000 0.000000 0.000000 sr} bdef
c10
24 -38 25 -47 25 -44 25 -28 26 -2 27 21 27 36 28 41 
28 42 30 39 30 32 30 24 32 16 32 13 34 19 34 34 
35 51 37 67 37 80 39 92 40 101 42 100 43 89 45 69 
46 45 49 25 50 13 53 15 55 19 57 16 61 0 64 -6 
68 50 72 177 76 272 82 278 88 236 94 188 103 143 113 112 
125 99 140 109 158 132 182 151 216 155 264 142 341 117 480 87 
821 52 2053 140 50 MP stroke
12 w
gr

c10
15.6 w
0 sg
%%IncludeResource: font Times-Roman
/Times-Roman /ISOLatin1Encoding 132 FMSR

6128  287 mt 
(aligned) s
gs 5635 143 1097 505 rc
24 w
c8
379 0 5710 241 2 MP stroke
gr

24 w
c8
0 sg
6128  441 mt 
(1ZBB coor) s
gs 5635 143 1097 505 rc
c9
379 0 5710 395 2 MP stroke
gr

c9
0 sg
6128  594 mt 
(manual) s
gs 5635 143 1097 505 rc
c10
379 0 5710 548 2 MP stroke
15.6 w
gr

15.6 w
c10

end %%Color Dict

eplot
%%EndObject

epage
end

showpage

%%Trailer
%%EOF
