%!PS-Adobe-3.0 EPSF-3.0
%%Creator: cairo 1.13.1 (http://cairographics.org)
%%CreationDate: Mon Sep 28 16:00:20 2015
%%Pages: 1
%%DocumentData: Clean7Bit
%%LanguageLevel: 2
%%BoundingBox: 0 -1 170 127
%%EndComments
%%BeginProlog
save
50 dict begin
/q { gsave } bind def
/Q { grestore } bind def
/cm { 6 array astore concat } bind def
/w { setlinewidth } bind def
/J { setlinecap } bind def
/j { setlinejoin } bind def
/M { setmiterlimit } bind def
/d { setdash } bind def
/m { moveto } bind def
/l { lineto } bind def
/c { curveto } bind def
/h { closepath } bind def
/re { exch dup neg 3 1 roll 5 3 roll moveto 0 rlineto
      0 exch rlineto 0 rlineto closepath } bind def
/S { stroke } bind def
/f { fill } bind def
/f* { eofill } bind def
/n { newpath } bind def
/W { clip } bind def
/W* { eoclip } bind def
/BT { } bind def
/ET { } bind def
/pdfmark where { pop globaldict /?pdfmark /exec load put }
    { globaldict begin /?pdfmark /pop load def /pdfmark
    /cleartomark load def end } ifelse
/BDC { mark 3 1 roll /BDC pdfmark } bind def
/EMC { mark /EMC pdfmark } bind def
/cairo_store_point { /cairo_point_y exch def /cairo_point_x exch def } def
/Tj { show currentpoint cairo_store_point } bind def
/TJ {
  {
    dup
    type /stringtype eq
    { show } { -0.001 mul 0 cairo_font_matrix dtransform rmoveto } ifelse
  } forall
  currentpoint cairo_store_point
} bind def
/cairo_selectfont { cairo_font_matrix aload pop pop pop 0 0 6 array astore
    cairo_font exch selectfont cairo_point_x cairo_point_y moveto } bind def
/Tf { pop /cairo_font exch def /cairo_font_matrix where
      { pop cairo_selectfont } if } bind def
/Td { matrix translate cairo_font_matrix matrix concatmatrix dup
      /cairo_font_matrix exch def dup 4 get exch 5 get cairo_store_point
      /cairo_font where { pop cairo_selectfont } if } bind def
/Tm { 2 copy 8 2 roll 6 array astore /cairo_font_matrix exch def
      cairo_store_point /cairo_font where { pop cairo_selectfont } if } bind def
/g { setgray } bind def
/rg { setrgbcolor } bind def
/d1 { setcachedevice } bind def
%%EndProlog
%%BeginSetup
%%EndSetup
%%Page: 1 1
%%BeginPageSetup
%%PageBoundingBox: 0 -1 170 127
%%EndPageSetup
q 0 -1 170 128 rectclip q
Q q
0 126.538 169.918 -126.895 re W n
q
0 126.538 170 -127 re W n
[ 1 0 0 1 0 -0.462013 ] concat
  q
Q q
q
0 127 170 -127 re W n
  q
1 g
0.537 w
0 J
1 j
[] 0.0 d
10 M 22.734 124.484 167.43 -106.316 re S
  Q
Q
0 g
0.537 w
0 J
1 j
[] 0.0 d
10 M 22.734 18.168 m 190.164 18.168 l S
22.734 124.484 m 190.164 124.484 l S
22.734 18.168 m 22.734 124.484 l S
22.734 18.168 m 190.164 18.168 l S
22.734 18.168 m 22.734 124.484 l S
32.609 18.168 m 32.609 19.027 l S
32.609 124.445 m 32.609 123.629 l S
27.949 18.168 m 27.949 19.027 l S
27.949 124.445 m 27.949 123.629 l S
32.609 18.168 m 32.609 19.848 l S
32.609 124.445 m 32.609 122.809 l S
28.137 15.332 m 27.465 15.332 26.605 14.574 26.605 12.863 c 26.605 11.152
 27.465 10.391 28.137 10.391 c 28.809 10.391 29.668 11.152 29.668 12.863
 c 29.668 14.574 28.809 15.332 28.137 15.332 c 28.137 15.117 m 28.91 15.117
 28.98 13.641 28.98 13.098 c 28.98 11.496 28.695 10.605 28.137 10.605 c 
27.391 10.605 27.293 12.09 27.293 12.633 c 27.293 14.234 27.578 15.117 28.137
 15.117 c 30.82 10.391 m 31.035 10.391 31.207 10.566 31.207 10.777 c 31.207
 10.992 31.035 11.164 30.82 11.164 c 30.605 11.164 30.434 10.992 30.434 
10.777 c 30.434 10.566 30.605 10.391 30.82 10.391 c 33.504 15.332 m 32.828
 15.332 31.973 14.574 31.973 12.863 c 31.973 11.152 32.828 10.391 33.504
 10.391 c 34.176 10.391 35.035 11.152 35.035 12.863 c 35.035 14.574 34.176
 15.332 33.504 15.332 c 33.504 15.117 m 34.277 15.117 34.348 13.641 34.348
 13.098 c 34.348 11.496 34.062 10.605 33.504 10.605 c 32.758 10.605 32.656
 12.09 32.656 12.633 c 32.656 14.234 32.945 15.117 33.504 15.117 c 36.129
 14.766 m 36.18 14.656 l 36.301 14.715 36.406 14.766 36.543 14.766 c 36.766
 14.766 36.824 14.586 36.824 14.094 c 36.824 11.242 l 36.824 10.707 36.766
 10.637 36.215 10.621 c 36.215 10.492 l 37.996 10.492 l 37.996 10.621 l 
37.402 10.621 37.402 10.852 37.402 11.43 c 37.402 15.332 l 37.281 15.332
 l 36.129 14.766 l f
63.312 18.168 m 63.312 19.027 l S
63.312 124.445 m 63.312 123.629 l S
63.312 18.168 m 63.312 19.027 l S
63.312 124.445 m 63.312 123.629 l S
63.312 18.168 m 63.312 19.027 l S
63.312 124.445 m 63.312 123.629 l S
63.312 18.168 m 63.312 19.027 l S
63.312 124.445 m 63.312 123.629 l S
63.312 18.168 m 63.312 19.027 l S
63.312 124.445 m 63.312 123.629 l S
63.312 18.168 m 63.312 19.027 l S
63.312 124.445 m 63.312 123.629 l S
63.312 18.168 m 63.312 19.027 l S
63.312 124.445 m 63.312 123.629 l S
63.312 18.168 m 63.312 19.027 l S
63.312 124.445 m 63.312 123.629 l S
63.312 18.168 m 63.312 19.027 l S
63.312 124.445 m 63.312 123.629 l S
63.312 18.168 m 63.312 19.848 l S
63.312 124.445 m 63.312 122.809 l S
58.844 15.332 m 58.172 15.332 57.312 14.574 57.312 12.863 c 57.312 11.152
 58.172 10.391 58.844 10.391 c 59.516 10.391 60.375 11.152 60.375 12.863
 c 60.375 14.574 59.516 15.332 58.844 15.332 c 58.844 15.117 m 59.617 15.117
 59.688 13.641 59.688 13.098 c 59.688 11.496 59.402 10.605 58.844 10.605
 c 58.098 10.605 57.996 12.09 57.996 12.633 c 57.996 14.234 58.285 15.117
 58.844 15.117 c 61.527 10.391 m 61.738 10.391 61.91 10.566 61.91 10.777
 c 61.91 10.992 61.738 11.164 61.527 11.164 c 61.312 11.164 61.141 10.992
 61.141 10.777 c 61.141 10.566 61.312 10.391 61.527 10.391 c 64.211 15.332
 m 63.535 15.332 62.676 14.574 62.676 12.863 c 62.676 11.152 63.535 10.391
 64.211 10.391 c 64.883 10.391 65.738 11.152 65.738 12.863 c 65.738 14.574
 64.883 15.332 64.211 15.332 c 64.211 15.117 m 64.98 15.117 65.055 13.641
 65.055 13.098 c 65.055 11.496 64.77 10.605 64.211 10.605 c 63.465 10.605
 63.363 12.09 63.363 12.633 c 63.363 14.234 63.652 15.117 64.211 15.117 
c 69.273 11.402 m 69.148 11.402 l 68.969 11.023 68.465 11.023 68.375 11.023
 c 66.898 11.023 l 67.949 12.141 l 68.422 12.648 68.988 13.363 68.988 14.086
 c 68.988 14.816 68.34 15.332 67.645 15.332 c 66.82 15.332 66.406 14.742
 66.289 13.992 c 66.418 13.992 l 66.547 14.473 66.969 14.801 67.473 14.801
 c 68.023 14.801 68.383 14.32 68.383 13.766 c 68.383 12.996 67.965 12.41
 66.148 10.621 c 66.148 10.492 l 68.945 10.492 l 69.273 11.402 l f
94.02 18.168 m 94.02 19.027 l S
94.02 124.445 m 94.02 123.629 l S
103.934 18.168 m 103.934 19.027 l S
103.934 124.445 m 103.934 123.629 l S
103.934 18.168 m 103.934 19.027 l S
103.934 124.445 m 103.934 123.629 l S
103.934 18.168 m 103.934 19.027 l S
103.934 124.445 m 103.934 123.629 l S
103.934 18.168 m 103.934 19.027 l S
103.934 124.445 m 103.934 123.629 l S
103.934 18.168 m 103.934 19.027 l S
103.934 124.445 m 103.934 123.629 l S
103.934 18.168 m 103.934 19.027 l S
103.934 124.445 m 103.934 123.629 l S
103.934 18.168 m 103.934 19.027 l S
103.934 124.445 m 103.934 123.629 l S
103.934 18.168 m 103.934 19.027 l S
103.934 124.445 m 103.934 123.629 l S
103.934 18.168 m 103.934 19.848 l S
103.934 124.445 m 103.934 122.809 l S
99.461 15.332 m 98.789 15.332 97.93 14.574 97.93 12.863 c 97.93 11.152 
98.789 10.391 99.461 10.391 c 100.133 10.391 100.992 11.152 100.992 12.863
 c 100.992 14.574 100.133 15.332 99.461 15.332 c 99.461 15.117 m 100.234
 15.117 100.305 13.641 100.305 13.098 c 100.305 11.496 100.02 10.605 99.461
 10.605 c 98.719 10.605 98.617 12.09 98.617 12.633 c 98.617 14.234 98.902
 15.117 99.461 15.117 c 102.145 10.391 m 102.359 10.391 102.531 10.566 102.531
 10.777 c 102.531 10.992 102.359 11.164 102.145 11.164 c 101.93 11.164 101.758
 10.992 101.758 10.777 c 101.758 10.566 101.93 10.391 102.145 10.391 c 104.828
 15.332 m 104.156 15.332 103.297 14.574 103.297 12.863 c 103.297 11.152 
104.156 10.391 104.828 10.391 c 105.5 10.391 106.359 11.152 106.359 12.863
 c 106.359 14.574 105.5 15.332 104.828 15.332 c 104.828 15.117 m 105.602
 15.117 105.672 13.641 105.672 13.098 c 105.672 11.496 105.387 10.605 104.828
 10.605 c 104.082 10.605 103.984 12.09 103.984 12.633 c 103.984 14.234 104.27
 15.117 104.828 15.117 c 109.723 15.23 m 108.027 15.23 l 107.117 13.383 
l 108.371 13.383 109.191 12.711 109.191 11.816 c 109.191 11.242 108.719 
10.766 108.148 10.766 c 107.688 10.766 107.566 11.121 107.238 11.121 c 107.09
 11.121 106.957 11.016 106.957 10.863 c 106.957 10.492 107.488 10.391 107.762
 10.391 c 108.734 10.391 109.645 11.18 109.645 12.184 c 109.645 13.242 108.668
 13.887 107.711 14 c 108.039 14.656 l 109.465 14.656 l 109.723 15.23 l f
134.637 18.168 m 134.637 19.027 l S
134.637 124.445 m 134.637 123.629 l S
134.637 18.168 m 134.637 19.027 l S
134.637 124.445 m 134.637 123.629 l S
134.637 18.168 m 134.637 19.027 l S
134.637 124.445 m 134.637 123.629 l S
134.637 18.168 m 134.637 19.027 l S
134.637 124.445 m 134.637 123.629 l S
134.637 18.168 m 134.637 19.027 l S
134.637 124.445 m 134.637 123.629 l S
134.637 18.168 m 134.637 19.027 l S
134.637 124.445 m 134.637 123.629 l S
134.637 18.168 m 134.637 19.027 l S
134.637 124.445 m 134.637 123.629 l S
134.637 18.168 m 134.637 19.027 l S
134.637 124.445 m 134.637 123.629 l S
134.637 18.168 m 134.637 19.027 l S
134.637 124.445 m 134.637 123.629 l S
134.637 18.168 m 134.637 19.848 l S
134.637 124.445 m 134.637 122.809 l S
131.957 15.332 m 131.281 15.332 130.426 14.574 130.426 12.863 c 130.426
 11.152 131.281 10.391 131.957 10.391 c 132.629 10.391 133.488 11.152 133.488
 12.863 c 133.488 14.574 132.629 15.332 131.957 15.332 c 131.957 15.117 
m 132.73 15.117 132.801 13.641 132.801 13.098 c 132.801 11.496 132.516 10.605
 131.957 10.605 c 131.211 10.605 131.113 12.09 131.113 12.633 c 131.113 
14.234 131.398 15.117 131.957 15.117 c 134.637 10.391 m 134.855 10.391 135.023
 10.566 135.023 10.777 c 135.023 10.992 134.855 11.164 134.637 11.164 c 
134.426 11.164 134.254 10.992 134.254 10.777 c 134.254 10.566 134.426 10.391
 134.637 10.391 c 136.371 14.766 m 136.422 14.656 l 136.543 14.715 136.648
 14.766 136.785 14.766 c 137.008 14.766 137.062 14.586 137.062 14.094 c 
137.062 11.242 l 137.062 10.707 137.008 10.637 136.457 10.621 c 136.457 
10.492 l 138.238 10.492 l 138.238 10.621 l 137.645 10.621 137.645 10.852
 137.645 11.43 c 137.645 15.332 l 137.523 15.332 l 136.371 14.766 l f
165.344 124.445 m 165.344 123.629 l S
165.344 124.445 m 165.344 123.629 l S
165.344 124.445 m 165.344 123.629 l S
165.344 124.445 m 165.344 123.629 l S
165.344 124.445 m 165.344 123.629 l S
165.344 124.445 m 165.344 123.629 l S
165.344 124.445 m 165.344 123.629 l S
165.344 124.445 m 165.344 123.629 l S
165.344 124.445 m 165.344 123.629 l S
165.344 124.445 m 165.344 122.809 l S
162.66 15.332 m 161.988 15.332 161.129 14.574 161.129 12.863 c 161.129 
11.152 161.988 10.391 162.66 10.391 c 163.336 10.391 164.191 11.152 164.191
 12.863 c 164.191 14.574 163.336 15.332 162.66 15.332 c 162.66 15.117 m 
163.434 15.117 163.504 13.641 163.504 13.098 c 163.504 11.496 163.219 10.605
 162.66 10.605 c 161.914 10.605 161.816 12.09 161.816 12.633 c 161.816 14.234
 162.102 15.117 162.66 15.117 c 165.344 10.391 m 165.559 10.391 165.73 10.566
 165.73 10.777 c 165.73 10.992 165.559 11.164 165.344 11.164 c 165.129 11.164
 164.957 10.992 164.957 10.777 c 164.957 10.566 165.129 10.391 165.344 10.391
 c 169.516 11.402 m 169.387 11.402 l 169.207 11.023 168.707 11.023 168.613
 11.023 c 167.141 11.023 l 168.191 12.141 l 168.664 12.648 169.23 13.363
 169.23 14.086 c 169.23 14.816 168.578 15.332 167.883 15.332 c 167.062 15.332
 166.645 14.742 166.531 13.992 c 166.66 13.992 l 166.789 14.473 167.211 
14.801 167.711 14.801 c 168.266 14.801 168.621 14.32 168.621 13.766 c 168.621
 12.996 168.207 12.41 166.387 10.621 c 166.387 10.492 l 169.188 10.492 l
 169.516 11.402 l f
22.734 30.355 m 23.555 30.355 l S
22.734 28.938 m 23.555 28.938 l S
22.734 27.375 m 23.555 27.375 l S
22.734 25.621 m 23.555 25.621 l S
22.734 23.57 m 23.555 23.57 l S
22.734 21.148 m 23.555 21.148 l S
22.734 18.168 m 23.555 18.168 l S
22.734 30.355 m 24.375 30.355 l S
10.043 32.094 m 10.094 31.988 l 10.215 32.043 10.324 32.094 10.457 32.094
 c 10.68 32.094 10.738 31.914 10.738 31.422 c 10.738 28.574 l 10.738 28.035
 10.68 27.965 10.129 27.949 c 10.129 27.82 l 11.91 27.82 l 11.91 27.949 
l 11.316 27.949 11.316 28.18 11.316 28.758 c 11.316 32.66 l 11.195 32.66
 l h
14.574 32.66 m 13.898 32.66 13.039 31.898 13.039 30.188 c 13.039 28.48 
13.898 27.719 14.574 27.719 c 15.246 27.719 16.105 28.48 16.105 30.188 c
 16.105 31.898 15.246 32.66 14.574 32.66 c 14.574 32.445 m 15.348 32.445
 15.418 30.969 15.418 30.426 c 15.418 28.82 15.133 27.934 14.574 27.934 
c 13.828 27.934 13.727 29.418 13.727 29.961 c 13.727 31.562 14.016 32.445
 14.574 32.445 c f
18.961 33.746 m 16.457 33.746 l 16.457 33.559 l 18.961 33.559 l h
21.188 35.293 m 21.09 35.293 l 20.09 35.293 19.258 34.324 19.258 33.312
 c 19.258 32.742 19.574 32 20.262 32 c 20.855 32 21.25 32.566 21.25 33.121
 c 21.25 33.59 20.961 34.062 20.449 34.062 c 20.211 34.062 19.973 33.973
 19.781 33.828 c 19.934 34.5 20.445 35.184 21.188 35.207 c h
20.836 32.891 m 20.836 32.559 20.695 32.145 20.301 32.145 c 19.859 32.145
 19.703 32.836 19.703 33.18 c 19.703 33.379 19.723 33.5 19.746 33.66 c 19.895
 33.762 20.062 33.859 20.23 33.859 c 20.691 33.859 20.836 33.258 20.836 
32.891 c f
22.734 39.559 m 23.555 39.559 l S
22.734 44.926 m 23.555 44.926 l S
22.734 48.762 m 23.555 48.762 l S
22.734 51.707 m 23.555 51.707 l S
22.734 54.129 m 23.555 54.129 l S
22.734 56.18 m 23.555 56.18 l S
22.734 57.969 m 23.555 57.969 l S
22.734 59.531 m 23.555 59.531 l S
22.734 60.91 m 23.555 60.91 l S
22.734 60.91 m 24.375 60.91 l S
10.043 62.648 m 10.094 62.543 l 10.215 62.598 10.324 62.648 10.457 62.648
 c 10.68 62.648 10.738 62.473 10.738 61.977 c 10.738 59.129 l 10.738 58.59
 10.68 58.52 10.129 58.508 c 10.129 58.379 l 11.91 58.379 l 11.91 58.508
 l 11.316 58.508 11.316 58.734 11.316 59.312 c 11.316 63.215 l 11.195 63.215
 l h
14.574 63.215 m 13.898 63.215 13.039 62.457 13.039 60.746 c 13.039 59.035
 13.898 58.277 14.574 58.277 c 15.246 58.277 16.105 59.035 16.105 60.746
 c 16.105 62.457 15.246 63.215 14.574 63.215 c 14.574 63 m 15.348 63 15.418
 61.527 15.418 60.98 c 15.418 59.379 15.133 58.492 14.574 58.492 c 13.828
 58.492 13.727 59.973 13.727 60.516 c 13.727 62.121 14.016 63 14.574 63 
c f
18.961 64.305 m 16.457 64.305 l 16.457 64.113 l 18.961 64.113 l h
21.121 65.781 m 19.992 65.781 l 19.387 64.551 l 20.219 64.551 20.77 64.105
 20.77 63.508 c 20.77 63.125 20.453 62.809 20.07 62.809 c 19.766 62.809 
19.688 63.047 19.469 63.047 c 19.367 63.047 19.281 62.973 19.281 62.871 
c 19.281 62.625 19.633 62.559 19.816 62.559 c 20.465 62.559 21.07 63.082
 21.07 63.75 c 21.07 64.457 20.422 64.887 19.781 64.961 c 20 65.402 l 20.949
 65.402 l 21.121 65.781 l f
22.734 70.113 m 23.555 70.113 l S
22.734 75.48 m 23.555 75.48 l S
22.734 79.32 m 23.555 79.32 l S
22.734 82.262 m 23.555 82.262 l S
22.734 84.684 m 23.555 84.684 l S
22.734 86.734 m 23.555 86.734 l S
22.734 88.523 m 23.555 88.523 l S
22.734 90.086 m 23.555 90.086 l S
22.734 91.465 m 23.555 91.465 l S
22.734 91.465 m 24.375 91.465 l S
10.043 93.207 m 10.094 93.102 l 10.215 93.156 10.324 93.207 10.457 93.207
 c 10.68 93.207 10.738 93.027 10.738 92.535 c 10.738 89.688 l 10.738 89.148
 10.68 89.078 10.129 89.062 c 10.129 88.934 l 11.91 88.934 l 11.91 89.062
 l 11.316 89.062 11.316 89.293 11.316 89.871 c 11.316 93.773 l 11.195 93.773
 l h
14.574 93.773 m 13.898 93.773 13.039 93.016 13.039 91.305 c 13.039 89.594
 13.898 88.832 14.574 88.832 c 15.246 88.832 16.105 89.594 16.105 91.305
 c 16.105 93.016 15.246 93.773 14.574 93.773 c 14.574 93.559 m 15.348 93.559
 15.418 92.082 15.418 91.539 c 15.418 89.938 15.133 89.047 14.574 89.047
 c 13.828 89.047 13.727 90.531 13.727 91.074 c 13.727 92.676 14.016 93.559
 14.574 93.559 c f
18.961 94.859 m 16.457 94.859 l 16.457 94.668 l 18.961 94.668 l h
21.27 94.344 m 20.844 94.344 l 20.844 96.406 l 20.594 96.406 l 19.121 94.312
 l 19.121 94.012 l 20.461 94.012 l 20.461 93.184 l 20.844 93.184 l 20.844
 94.012 l 21.27 94.012 l h
20.461 94.344 m 19.352 94.344 l 20.449 95.898 l 20.461 95.898 l 20.461 
94.344 l f
22.734 100.672 m 23.555 100.672 l S
22.734 106.074 m 23.555 106.074 l S
22.734 109.875 m 23.555 109.875 l S
22.734 112.855 m 23.555 112.855 l S
22.734 115.277 m 23.555 115.277 l S
22.734 117.328 m 23.555 117.328 l S
22.734 119.078 m 23.555 119.078 l S
22.734 120.645 m 23.555 120.645 l S
22.734 122.062 m 23.555 122.062 l S
22.734 122.062 m 24.375 122.062 l S
10.043 123.801 m 10.094 123.691 l 10.215 123.75 10.324 123.801 10.457 123.801
 c 10.68 123.801 10.738 123.621 10.738 123.129 c 10.738 120.277 l 10.738
 119.742 10.68 119.672 10.129 119.656 c 10.129 119.527 l 11.91 119.527 l
 11.91 119.656 l 11.316 119.656 11.316 119.887 11.316 120.465 c 11.316 124.367
 l 11.195 124.367 l h
14.574 124.367 m 13.898 124.367 13.039 123.605 13.039 121.895 c 13.039 
120.188 13.898 119.426 14.574 119.426 c 15.246 119.426 16.105 120.188 16.105
 121.895 c 16.105 123.605 15.246 124.367 14.574 124.367 c 14.574 124.152
 m 15.348 124.152 15.418 122.676 15.418 122.133 c 15.418 120.527 15.133 
119.641 14.574 119.641 c 13.828 119.641 13.727 121.121 13.727 121.668 c 
13.727 123.27 14.016 124.152 14.574 124.152 c f
18.961 125.453 m 16.457 125.453 l 16.457 125.266 l 18.961 125.266 l h
19.777 125.34 m 20.691 125.34 20.691 124.609 20.691 124.566 c 20.691 124.238
 20.461 123.926 20.109 123.926 c 19.781 123.926 19.676 124.137 19.438 124.137
 c 19.332 124.137 19.242 124.066 19.242 123.961 c 19.242 123.738 19.625 
123.711 19.777 123.711 c 20.672 123.711 21.039 124.285 21.039 124.812 c 
21.039 125.219 20.82 125.504 20.449 125.645 c 20.648 125.809 20.883 126.086
 20.883 126.352 c 20.883 126.551 20.723 127 20.141 127 c 19.715 127 19.434
 126.711 19.297 126.332 c 19.367 126.293 l 19.488 126.504 19.711 126.68 
19.965 126.68 c 20.285 126.68 20.496 126.457 20.496 126.141 c 20.496 125.723
 20.156 125.469 19.777 125.41 c 19.777 125.34 l f
22.734 18.168 m 190.164 18.168 l S
22.734 124.484 m 190.164 124.484 l S
22.734 18.168 m 22.734 124.484 l S
0 0.223529 1 rg
0.693 w
43.527 119.863 m 43.527 119.75 l S
44.086 119.863 m 43.004 119.863 l S
44.086 119.75 m 43.004 119.75 l S
50.422 119.34 m 50.422 119.266 l S
50.98 119.34 m 49.863 119.34 l S
50.98 119.266 m 49.863 119.266 l S
56.348 118.746 m 56.348 118.707 l S
56.906 118.746 m 55.785 118.746 l S
56.906 118.707 m 55.785 118.707 l S
61.562 118.074 m 61.562 118.035 l S
62.121 118.074 m 61.039 118.074 l S
62.121 118.035 m 61.039 118.035 l S
66.258 117.328 m 66.258 117.293 l S
66.816 117.328 m 65.699 117.328 l S
66.816 117.293 m 65.699 117.293 l S
70.469 116.473 m 70.469 116.434 l S
71.027 116.473 m 69.91 116.473 l S
71.027 116.434 m 69.91 116.434 l S
74.344 115.578 m 74.344 115.539 l S
74.902 115.578 m 73.785 115.578 l S
74.902 115.543 m 73.785 115.543 l S
77.887 114.535 m 77.887 114.496 l S
78.445 114.535 m 77.324 114.535 l S
78.445 114.496 m 77.324 114.496 l S
81.203 113.453 m 81.203 113.418 l S
81.762 113.453 m 80.645 113.453 l S
81.762 113.418 m 80.645 113.418 l S
84.258 112.301 m 84.258 112.262 l S
84.816 112.301 m 83.699 112.301 l S
84.816 112.262 m 83.699 112.262 l S
87.129 111.07 m 87.129 111.031 l S
87.688 111.07 m 86.57 111.07 l S
87.688 111.031 m 86.57 111.031 l S
89.812 109.727 m 89.812 109.691 l S
90.371 109.727 m 89.254 109.727 l S
90.371 109.691 m 89.254 109.691 l S
92.344 108.352 m 92.344 108.312 l S
92.902 108.352 m 91.785 108.352 l S
92.902 108.312 m 91.785 108.312 l S
94.73 106.898 m 94.73 106.859 l S
95.289 106.898 m 94.172 106.898 l S
95.289 106.859 m 94.172 106.859 l S
97.004 105.332 m 97.004 105.297 l S
97.562 105.332 m 96.445 105.332 l S
97.562 105.297 m 96.445 105.297 l S
99.164 103.656 m 99.164 103.617 l S
99.723 103.656 m 98.605 103.656 l S
99.723 103.617 m 98.605 103.617 l S
101.59 101.98 m 101.59 101.789 101.438 101.633 101.246 101.633 c 101.055
 101.633 100.898 101.789 100.898 101.98 c 100.898 102.172 101.055 102.328
 101.246 102.328 c 101.438 102.328 101.59 102.172 101.59 101.98 c f
101.809 101.977 m 100.691 101.977 l S
101.809 101.977 m 100.691 101.977 l S
103.223 100.188 m 103.223 100.152 l S
103.785 100.188 m 102.664 100.188 l S
103.785 100.152 m 102.664 100.152 l S
105.09 98.438 m 105.09 98.398 l S
105.648 98.438 m 104.527 98.438 l S
105.648 98.398 m 104.527 98.398 l S
106.914 96.535 m 106.914 96.5 l S
107.473 96.535 m 106.355 96.535 l S
107.473 96.5 m 106.355 96.5 l S
108.629 94.602 m 108.629 94.562 l S
109.188 94.602 m 108.105 94.602 l S
109.188 94.562 m 108.105 94.562 l S
110.305 92.625 m 110.305 92.551 l S
110.863 92.625 m 109.785 92.625 l S
110.863 92.551 m 109.785 92.551 l S
111.945 90.574 m 111.945 90.539 l S
112.465 90.574 m 111.387 90.574 l S
112.465 90.539 m 111.387 90.539 l S
113.473 88.527 m 113.473 88.449 l S
114.031 88.527 m 112.949 88.527 l S
114.031 88.449 m 112.949 88.449 l S
115 86.438 m 115 86.402 l S
115.559 86.438 m 114.441 86.438 l S
115.559 86.402 m 114.441 86.402 l S
116.453 84.504 m 116.453 84.426 l S
117.012 84.504 m 115.895 84.504 l S
117.012 84.426 m 115.895 84.426 l S
117.871 82.602 m 117.871 82.488 l S
118.391 82.602 m 117.312 82.602 l S
118.391 82.488 m 117.312 82.488 l S
119.211 80.738 m 119.211 80.625 l S
119.77 80.738 m 118.652 80.738 l S
119.77 80.625 m 118.652 80.625 l S
120.551 78.949 m 120.551 78.836 l S
121.113 78.949 m 119.996 78.949 l S
121.113 78.836 m 119.996 78.836 l S
121.82 77.348 m 121.82 77.234 l S
122.379 77.348 m 121.262 77.348 l S
122.379 77.234 m 121.262 77.234 l S
123.086 76.043 m 123.086 75.93 l S
123.645 76.043 m 122.527 76.043 l S
123.645 75.93 m 122.527 75.93 l S
124.277 74.59 m 124.277 74.477 l S
124.84 74.59 m 123.719 74.59 l S
124.84 74.477 m 123.719 74.477 l S
125.473 73.434 m 125.473 73.32 l S
126.031 73.434 m 124.914 73.434 l S
126.031 73.32 m 124.914 73.32 l S
126.629 72.574 m 126.629 72.426 l S
127.188 72.574 m 126.066 72.574 l S
127.188 72.426 m 126.066 72.426 l S
127.746 71.719 m 127.746 71.57 l S
128.305 71.719 m 127.188 71.719 l S
128.305 71.57 m 127.188 71.57 l S
128.824 70.785 m 128.824 70.637 l S
129.383 70.785 m 128.266 70.785 l S
129.383 70.637 m 128.266 70.637 l S
129.906 70.34 m 129.906 70.191 l S
130.465 70.34 m 129.348 70.34 l S
130.465 70.191 m 129.348 70.191 l S
130.949 69.633 m 130.949 69.445 l S
131.508 69.633 m 130.391 69.633 l S
131.508 69.445 m 130.391 69.445 l S
131.957 69.074 m 131.957 68.887 l S
132.516 69.074 m 131.434 69.074 l S
132.516 68.887 m 131.434 68.887 l S
132.961 68.367 m 132.961 68.18 l S
133.52 68.367 m 132.402 68.367 l S
133.52 68.18 m 132.402 68.18 l S
133.93 67.621 m 133.93 67.434 l S
134.492 67.621 m 133.371 67.621 l S
134.492 67.434 m 133.371 67.434 l S
134.902 66.91 m 134.902 66.727 l S
135.457 66.91 m 134.34 66.91 l S
135.457 66.727 m 134.34 66.727 l S
135.832 66.242 m 135.832 66.055 l S
136.352 66.242 m 135.273 66.242 l S
136.352 66.055 m 135.273 66.055 l S
136.762 65.086 m 136.762 64.863 l S
137.324 65.086 m 136.203 65.086 l S
137.324 64.863 m 136.203 64.863 l S
137.621 63.969 m 137.621 63.742 l S
138.18 63.969 m 137.062 63.969 l S
138.18 63.742 m 137.062 63.742 l S
138.516 62.773 m 138.516 62.516 l S
139.074 62.773 m 137.992 62.773 l S
139.074 62.516 m 137.992 62.516 l S
139.371 61.582 m 139.371 61.32 l S
139.934 61.582 m 138.812 61.582 l S
139.934 61.32 m 138.812 61.32 l S
140.191 60.168 m 140.191 59.906 l S
140.75 60.168 m 139.672 60.168 l S
140.75 59.906 m 139.672 59.906 l S
141.051 58.676 m 141.051 58.34 l S
141.609 58.676 m 140.488 58.676 l S
141.609 58.34 m 140.488 58.34 l S
141.867 57.148 m 141.867 56.777 l S
142.391 57.148 m 141.309 57.148 l S
142.391 56.777 m 141.309 56.777 l S
142.688 55.621 m 142.688 55.211 l S
143.25 55.621 m 142.129 55.621 l S
143.25 55.211 m 142.129 55.211 l S
143.434 53.871 m 143.434 53.387 l S
143.992 53.871 m 142.875 53.871 l S
143.992 53.387 m 142.875 53.387 l S
144.219 52.492 m 144.219 51.934 l S
144.738 52.492 m 143.66 52.492 l S
144.738 51.934 m 143.66 51.934 l S
144.961 50.738 m 144.961 50.145 l S
145.52 50.738 m 144.441 50.738 l S
145.52 50.145 m 144.441 50.145 l S
145.707 49.062 m 145.707 48.391 l S
146.266 49.062 m 145.148 49.062 l S
146.266 48.391 m 145.148 48.391 l S
146.453 48.504 m 146.453 47.758 l S
147.012 48.504 m 145.895 48.504 l S
147.012 47.758 m 145.895 47.758 l S
147.16 47.051 m 147.16 46.27 l S
147.719 47.051 m 146.602 47.051 l S
147.719 46.27 m 146.602 46.27 l S
147.867 46.156 m 147.867 45.301 l S
148.43 46.156 m 147.309 46.156 l S
148.43 45.301 m 147.309 45.301 l S
148.578 46.156 m 148.578 45.301 l S
149.137 46.156 m 148.02 46.156 l S
149.137 45.301 m 148.02 45.301 l S
149.246 46.344 m 149.246 45.449 l S
149.809 46.344 m 148.688 46.344 l S
149.809 45.449 m 148.688 45.449 l S
149.918 45.336 m 149.918 44.406 l S
150.477 45.336 m 149.359 45.336 l S
150.477 44.406 m 149.359 44.406 l S
150.59 46.008 m 150.59 45.113 l S
151.148 46.008 m 150.066 46.008 l S
151.148 45.113 m 150.066 45.113 l S
151.262 46.305 m 151.262 45.449 l S
151.82 46.305 m 150.699 46.305 l S
151.82 45.449 m 150.699 45.449 l S
151.93 47.348 m 151.93 46.527 l S
152.453 47.348 m 151.371 47.348 l S
152.453 46.527 m 151.371 46.527 l S
152.527 47.496 m 152.527 46.715 l S
153.086 47.496 m 152.004 47.496 l S
153.086 46.715 m 152.004 46.715 l S
153.16 48.207 m 153.16 47.461 l S
153.719 48.207 m 152.602 48.207 l S
153.719 47.461 m 152.602 47.461 l S
153.793 48.168 m 153.793 47.387 l S
154.355 48.168 m 153.234 48.168 l S
154.355 47.387 m 153.234 47.387 l S
154.391 48.801 m 154.391 48.059 l S
154.949 48.801 m 153.832 48.801 l S
154.949 48.059 m 153.832 48.059 l S
155.023 49.512 m 155.023 48.801 l S
155.582 49.512 m 154.465 49.512 l S
155.582 48.801 m 154.465 48.801 l S
155.582 49.062 m 155.582 48.355 l S
156.141 49.062 m 155.062 49.062 l S
156.141 48.355 m 155.062 48.355 l S
156.18 49.25 m 156.18 48.543 l S
156.738 49.25 m 155.621 49.25 l S
156.738 48.543 m 155.621 48.543 l S
156.777 49.961 m 156.777 49.289 l S
157.336 49.961 m 156.215 49.961 l S
157.336 49.289 m 156.215 49.289 l S
157.336 49.512 m 157.336 48.805 l S
157.895 49.512 m 156.777 49.512 l S
157.895 48.805 m 156.777 48.805 l S
157.895 49.848 m 157.895 49.176 l S
158.453 49.848 m 157.371 49.848 l S
158.453 49.176 m 157.371 49.176 l S
158.453 49.25 m 158.453 48.504 l S
159.012 49.25 m 157.895 49.25 l S
159.012 48.504 m 157.895 48.504 l S
159.012 48.953 m 159.012 48.207 l S
159.57 48.953 m 158.453 48.953 l S
159.57 48.207 m 158.453 48.207 l S
159.57 48.84 m 159.57 48.133 l S
160.129 48.84 m 159.012 48.84 l S
160.129 48.133 m 159.012 48.133 l S
160.094 47.762 m 160.094 46.941 l S
160.652 47.762 m 159.531 47.762 l S
160.652 46.941 m 159.531 46.941 l S
160.613 47.836 m 160.613 46.941 l S
161.172 47.836 m 160.094 47.836 l S
161.172 46.941 m 160.094 46.941 l S
161.137 47.055 m 161.137 46.082 l S
161.695 47.055 m 160.578 47.055 l S
161.695 46.082 m 160.578 46.082 l S
161.656 46.309 m 161.656 45.414 l S
162.219 46.309 m 161.098 46.309 l S
162.219 45.414 m 161.098 45.414 l S
162.18 45.711 m 162.18 44.742 l S
162.738 45.711 m 161.621 45.711 l S
162.738 44.742 m 161.621 44.742 l S
162.664 44.633 m 162.664 43.551 l S
163.223 44.633 m 162.141 44.633 l S
163.223 43.551 m 162.141 43.551 l S
163.184 44.363 m 163.184 43.285 l S
163.703 44.363 m 162.621 44.363 l S
163.703 43.285 m 162.621 43.285 l S
163.668 44.328 m 163.668 43.246 l S
164.227 44.328 m 163.109 44.328 l S
164.227 43.246 m 163.109 43.246 l S
164.152 43.695 m 164.152 42.539 l S
164.711 43.695 m 163.594 43.695 l S
164.711 42.539 m 163.594 42.539 l S
164.637 42.574 m 164.637 41.348 l S
165.195 42.574 m 164.113 42.574 l S
165.195 41.348 m 164.113 41.348 l S
165.121 41.457 m 165.121 40.117 l S
165.68 41.457 m 164.562 41.457 l S
165.68 40.117 m 164.562 40.117 l S
165.605 42.723 m 165.605 41.457 l S
166.125 42.723 m 165.043 42.723 l S
166.125 41.457 m 165.043 41.457 l S
166.09 42.312 m 166.09 41.047 l S
166.609 42.312 m 165.531 42.312 l S
166.609 41.047 m 165.531 41.047 l S
167.094 41.531 m 165.977 41.531 l S
167.094 40.188 m 165.977 40.188 l S
0 j
42.109 121.203 2.832 -2.832 re S
49.004 120.719 2.832 -2.832 re S
54.93 120.16 2.832 -2.832 re S
60.148 119.488 2.832 -2.828 re S
64.844 118.707 2.832 -2.832 re S
69.055 117.852 2.832 -2.832 re S
72.93 116.957 2.832 -2.832 re S
76.469 115.914 2.832 -2.832 re S
79.785 114.832 2.832 -2.832 re S
82.844 113.715 2.828 -2.832 re S
85.711 112.449 2.832 -2.832 re S
88.395 111.145 2.832 -2.832 re S
90.93 109.766 2.832 -2.832 re S
93.312 108.273 2.832 -2.832 re S
95.586 106.746 2.832 -2.832 re S
97.746 105.07 2.832 -2.832 re S
99.836 103.395 2.832 -2.832 re S
101.809 101.605 2.832 -2.832 re S
103.672 99.816 2.832 -2.832 re S
105.5 97.953 2.832 -2.832 re S
107.211 96.016 2.832 -2.832 re S
108.891 94.004 2.832 -2.832 re S
110.531 91.992 2.828 -2.832 re S
112.059 89.902 2.832 -2.832 re S
113.586 87.855 2.832 -2.832 re S
115.039 85.879 2.832 -2.832 re S
116.453 83.98 2.832 -2.832 re S
117.797 82.117 2.832 -2.832 re S
119.137 80.289 2.832 -2.832 re S
120.406 78.688 2.832 -2.832 re S
121.672 77.383 2.832 -2.832 re S
122.863 75.93 2.832 -2.832 re S
124.059 74.812 2.828 -2.832 re S
125.211 73.918 2.832 -2.832 re S
126.328 73.062 2.832 -2.832 re S
127.41 72.129 2.832 -2.832 re S
128.492 71.684 2.832 -2.836 re S
129.535 70.938 2.832 -2.836 re S
130.539 70.379 2.832 -2.832 re S
131.547 69.707 2.832 -2.832 re S
132.516 68.926 2.832 -2.832 re S
133.484 68.254 2.832 -2.832 re S
134.418 67.547 2.832 -2.832 re S
135.348 66.391 2.832 -2.832 re S
136.207 65.273 2.832 -2.832 re S
137.098 64.078 2.836 -2.832 re S
137.957 62.887 2.832 -2.832 re S
138.777 61.473 2.832 -2.832 re S
139.633 59.945 2.832 -2.832 re S
140.453 58.379 2.832 -2.832 re S
141.273 56.852 2.832 -2.832 re S
142.02 55.062 2.832 -2.832 re S
142.801 53.648 2.832 -2.832 re S
143.547 51.859 2.832 -2.832 re S
144.293 50.145 2.832 -2.832 re S
145.035 49.547 2.832 -2.832 re S
145.746 48.094 2.832 -2.832 re S
146.453 47.164 2.832 -2.832 re S
147.16 47.164 2.832 -2.832 re S
147.832 47.312 2.832 -2.832 re S
148.504 46.305 2.832 -2.832 re S
149.172 46.977 2.832 -2.832 re S
149.844 47.312 2.832 -2.832 re S
150.516 48.355 2.832 -2.832 re S
151.109 48.543 2.832 -2.832 re S
151.746 49.25 2.832 -2.832 re S
152.379 49.215 2.832 -2.832 re S
152.973 49.848 2.832 -2.832 re S
153.605 50.555 2.836 -2.832 re S
154.168 50.145 2.832 -2.832 re S
154.762 50.332 2.832 -2.832 re S
155.359 51.039 2.832 -2.832 re S
155.918 50.594 2.832 -2.832 re S
156.477 50.93 2.832 -2.832 re S
157.035 50.293 2.832 -2.832 re S
157.594 49.996 2.832 -2.832 re S
158.152 49.883 2.832 -2.832 re S
158.676 48.766 2.832 -2.832 re S
159.199 48.84 2.832 -2.832 re S
159.719 47.984 2.832 -2.832 re S
160.242 47.277 2.832 -2.832 re S
160.762 46.641 2.832 -2.832 re S
161.246 45.523 2.832 -2.832 re S
161.77 45.266 2.832 -2.836 re S
162.254 45.227 2.832 -2.832 re S
162.738 44.555 2.832 -2.832 re S
163.223 43.402 2.832 -2.832 re S
163.707 42.207 2.832 -2.828 re S
Q q
22.734 124.445 147.266 -106.312 re W n
q
22 125 148 -107 re W n
  q
1 0 0 rg
0.693 w
0 J
0 j
[] 0.0 d
10 M 22.734 120.422 m 28.398 120.309 l 41.145 119.789 l 51.02 119.156 l 59.105
 118.336 l 65.922 117.367 l 71.848 116.285 l 77.066 115.02 l 81.723 113.602
 l 85.934 112 l 89.809 110.25 l 93.352 108.348 l 96.629 106.223 l 99.684
 103.988 l 102.555 101.527 l 105.238 98.957 l 107.77 96.199 l 110.156 93.332
 l 112.43 90.348 l 114.59 87.367 l 116.676 84.461 l 118.652 81.668 l 120.516
 79.133 l 122.34 76.973 l 124.055 75.223 l 125.73 73.879 l 127.336 72.871
 l 128.898 72.055 l 130.43 71.344 l 131.844 70.602 l 133.262 69.781 l 134.637
 68.812 l 135.941 67.582 l 137.246 66.129 l 138.477 64.379 l 139.707 62.363
 l 140.898 60.055 l 142.016 57.445 l 143.172 54.613 l 144.254 51.633 l 145.332
 48.688 l 146.379 46.043 l 147.383 43.992 l 148.391 42.836 l 149.359 42.688
 l 150.289 43.32 l 151.223 44.402 l 152.152 45.672 l 153.047 46.898 l 153.906
 47.941 l 154.801 48.762 l 155.617 49.32 l 156.438 49.582 l 157.258 49.582
 l 158.078 49.359 l 158.859 48.875 l 159.605 48.164 l 160.387 47.309 l 161.133
 46.305 l 161.84 45.223 l 162.586 44.066 l 163.293 42.949 l 163.965 41.906
 l 164.676 40.977 l 165.344 40.191 l 166.016 39.633 l 166.688 39.223 l 167.32
 39.035 l 167.953 38.926 l 168.586 38.887 l 169.219 38.887 l 169.816 38.852
 l 170.414 38.777 l 171.008 38.629 l 171.605 38.402 l 172.164 38.031 l 172.762
 37.582 l 173.32 37.062 l 173.879 36.43 l 174.438 35.723 l 174.961 34.977
 l 175.52 34.191 l 176.562 32.703 l 177.082 31.992 l 177.605 31.359 l 178.09
 30.801 l 178.609 30.316 l 179.094 29.871 l 179.578 29.461 l 180.547 28.715
 l 181.031 28.305 l 181.48 27.859 l 181.965 27.336 l 182.41 26.703 l 182.859
 25.957 l 183.305 25.137 l S
  Q
Q
Q q
q
0 127 170 -127 re W n
  q
0 g
98.062 2.234 m 98.906 2.613 99.516 3.527 99.516 4.609 c 99.516 6.07 98.434
 7.23 97.133 7.23 c 95.852 7.23 94.758 6.086 94.758 4.609 c 94.758 3.164
 95.836 2.023 97.141 2.023 c 97.359 2.023 97.613 2.066 97.82 2.133 c 97.926
 1.453 98.027 0.793 98.691 0.793 c 99.422 0.793 99.559 1.746 99.559 2.109
 c 99.559 2.184 99.559 2.262 99.48 2.262 c 99.414 2.262 99.41 2.203 99.402
 2.133 c 99.359 1.746 99.059 1.531 98.75 1.531 c 98.414 1.531 98.234 1.773
 98.062 2.234 c 96.66 2.297 m 96.273 2.441 95.473 2.961 95.473 4.609 c 95.473
 6.469 96.477 7.051 97.133 7.051 c 97.828 7.051 98.801 6.434 98.801 4.609
 c 98.801 4.051 98.715 3.043 97.957 2.484 c 97.797 2.883 97.57 3.242 97.148
 3.242 c 96.781 3.242 96.559 2.934 96.559 2.641 c 96.559 2.445 96.652 2.312
 96.66 2.297 c 97.77 2.367 m 97.527 2.234 97.297 2.203 97.141 2.203 c 96.773
 2.203 96.719 2.531 96.719 2.641 c 96.719 2.848 96.867 3.086 97.148 3.086
 c 97.535 3.086 97.691 2.781 97.77 2.367 c 104.812 0.465 m 104.812 0.484
 104.812 0.5 104.691 0.621 c 103.797 1.523 103.566 2.875 103.566 3.973 c
 103.566 5.219 103.84 6.461 104.719 7.359 c 104.812 7.441 104.812 7.457 
104.812 7.48 c 104.812 7.531 104.785 7.551 104.742 7.551 c 104.668 7.551
 104.023 7.062 103.602 6.156 c 103.238 5.367 103.152 4.574 103.152 3.973
 c 103.152 3.414 103.23 2.547 103.625 1.738 c 104.055 0.859 104.668 0.395
 104.742 0.395 c 104.785 0.395 104.812 0.414 104.812 0.465 c f
  Q
Q
0 g
108.637 7.914 m 108.637 8.242 108.344 8.539 107.957 8.539 c 107.551 8.539
 107.27 8.23 107.27 7.914 c 107.27 7.559 107.586 7.285 107.949 7.285 c 108.344
 7.285 108.637 7.57 108.637 7.914 c 107.957 7.441 m 107.648 7.441 107.449
 7.578 107.449 7.906 c 107.449 8.234 107.645 8.379 107.949 8.379 c 108.258
 8.379 108.461 8.242 108.461 7.914 c 108.461 7.586 108.266 7.441 107.957
 7.441 c f
108.121 7.164 m 108.086 7.258 108.074 7.309 107.957 7.309 c 107.844 7.309
 107.82 7.266 107.785 7.164 c 106.305 2.883 l 106.176 2.52 105.891 2.41 
105.504 2.402 c 105.504 2.184 l 105.668 2.191 105.977 2.203 106.234 2.203
 c 106.453 2.203 106.828 2.191 107.055 2.184 c 107.055 2.402 l 106.699 2.402
 106.52 2.586 106.52 2.77 c 106.531 2.875 l 106.863 3.812 l 108.629 3.812
 l 109.008 2.719 l 109.031 2.621 l 109.031 2.402 108.629 2.402 108.438 2.402
 c 108.438 2.184 l 108.695 2.203 109.195 2.203 109.469 2.203 c 109.777 2.203
 110.105 2.195 110.406 2.184 c 110.406 2.402 l 110.277 2.402 l 109.848 2.402
 109.746 2.453 109.668 2.691 c h
107.742 6.363 m 108.551 4.035 l 106.941 4.035 l 107.742 6.363 l f
112.547 6 m 111.074 6 l 111.074 5.66 l 112.547 5.66 l h
114.441 7.938 m 114.441 8.074 114.434 8.078 114.293 8.078 c 113.973 7.762
 113.516 7.758 113.309 7.758 c 113.309 7.578 l 113.43 7.578 113.762 7.578
 114.035 7.719 c 114.035 5.164 l 114.035 5 114.035 4.934 113.535 4.934 c
 113.344 4.934 l 113.344 4.754 l 113.438 4.758 114.051 4.773 114.238 4.773
 c 114.391 4.773 115.023 4.758 115.133 4.754 c 115.133 4.934 l 114.941 4.934
 l 114.441 4.934 114.441 5 114.441 5.164 c 114.441 7.938 l f
q
0 127 170 -127 re W n
  q
0 g
118.188 3.973 m 118.188 4.531 118.109 5.395 117.715 6.203 c 117.285 7.086
 116.668 7.551 116.598 7.551 c 116.555 7.551 116.527 7.523 116.527 7.48 
c 116.527 7.457 116.527 7.441 116.664 7.312 c 117.363 6.605 117.773 5.469
 117.773 3.973 c 117.773 2.746 117.508 1.488 116.621 0.586 c 116.527 0.5
 116.527 0.488 116.527 0.465 c 116.527 0.422 116.555 0.395 116.598 0.395
 c 116.668 0.395 117.312 0.879 117.734 1.789 c 118.102 2.578 118.188 3.371
 118.188 3.973 c f
1.035 66.062 m 0.781 66.062 0.699 66.082 0.699 66.648 c 0.699 66.836 l 
0.48 66.836 l 0.5 66.586 0.5 66.02 0.5 65.746 c 0.5 65.465 0.5 64.902 0.48
 64.652 c 0.699 64.652 l 0.699 64.836 l 0.699 65.402 0.781 65.426 1.035 
65.426 c 4.809 65.426 l 5.066 65.426 5.145 65.402 5.145 64.836 c 5.145 64.652
 l 5.367 64.652 l 5.348 64.902 5.348 65.465 5.348 65.738 c 5.348 66.02 5.348
 66.586 5.367 66.836 c 5.145 66.836 l 5.145 66.648 l 5.145 66.082 5.066 
66.062 4.809 66.062 c h
7.086 69.613 m 7.062 69.613 7.051 69.613 6.93 69.492 c 6.027 68.598 4.672
 68.367 3.578 68.367 c 2.332 68.367 1.086 68.641 0.191 69.52 c 0.105 69.613
 0.094 69.613 0.07 69.613 c 0.02 69.613 0 69.586 0 69.543 c 0 69.469 0.488
 68.824 1.395 68.402 c 2.184 68.039 2.977 67.953 3.578 67.953 c 4.137 67.953
 5.004 68.031 5.812 68.426 c 6.691 68.855 7.156 69.469 7.156 69.543 c 7.156
 69.586 7.137 69.613 7.086 69.613 c 5.316 73.785 m 4.938 74.629 4.023 75.238
 2.941 75.238 c 1.48 75.238 0.32 74.156 0.32 72.855 c 0.32 71.574 1.469 
70.477 2.941 70.477 c 4.387 70.477 5.523 71.559 5.523 72.859 c 5.523 73.082
 5.48 73.336 5.418 73.539 c 6.098 73.648 6.758 73.746 6.758 74.414 c 6.758
 75.145 5.805 75.281 5.438 75.281 c 5.367 75.281 5.289 75.281 5.289 75.203
 c 5.289 75.137 5.348 75.129 5.418 75.121 c 5.805 75.078 6.02 74.781 6.02
 74.473 c 6.02 74.137 5.777 73.957 5.316 73.785 c 5.254 72.383 m 5.109 71.996
 4.59 71.195 2.941 71.195 c 1.078 71.195 0.5 72.195 0.5 72.855 c 0.5 73.551
 1.117 74.523 2.941 74.523 c 3.5 74.523 4.508 74.438 5.066 73.676 c 4.664
 73.52 4.309 73.289 4.309 72.867 c 4.309 72.504 4.617 72.281 4.91 72.281
 c 5.102 72.281 5.238 72.375 5.254 72.383 c 5.184 73.492 m 5.316 73.246 
5.348 73.02 5.348 72.859 c 5.348 72.496 5.016 72.438 4.91 72.438 c 4.703
 72.438 4.465 72.59 4.465 72.867 c 4.465 73.254 4.766 73.414 5.184 73.492
 c 3.578 77.848 m 3.02 77.848 2.152 77.77 1.344 77.375 c 0.465 76.945 0 
76.332 0 76.262 c 0 76.219 0.027 76.188 0.07 76.188 c 0.094 76.188 0.105
 76.188 0.234 76.324 c 0.945 77.027 2.082 77.434 3.578 77.434 c 4.801 77.434
 6.062 77.168 6.965 76.281 c 7.051 76.188 7.062 76.188 7.086 76.188 c 7.129
 76.188 7.156 76.219 7.156 76.262 c 7.156 76.332 6.672 76.977 5.762 77.398
 c 4.973 77.762 4.18 77.848 3.578 77.848 c f
  Q
Q
0 g
138.477 116.898 m 138.477 117.672 137.988 118.207 137.254 118.207 c 136.234
 118.207 135.77 117.375 135.77 116.453 c 135.77 115.473 136.387 114.809 
137.168 114.809 c 137.891 114.809 138.355 115.414 138.477 116.074 c 138.367
 116.145 l 138.203 115.68 137.926 115.379 137.41 115.379 c 136.629 115.379
 136.258 116.18 136.258 116.898 c h
136.266 117.113 m 136.293 117.527 136.594 117.949 137.016 117.949 c 137.523
 117.949 137.746 117.555 137.746 117.113 c h
140.156 116.523 m 139.543 115.711 l 139.387 115.5 139.098 115.051 138.824
 115.035 c 138.824 114.906 l 139.871 114.906 l 139.871 115.035 l 139.758
 115.035 139.559 115.078 139.559 115.223 c 139.559 115.371 139.758 115.602
 139.844 115.711 c 140.301 116.324 l 140.723 115.711 l 140.801 115.594 140.996
 115.344 140.996 115.199 c 140.996 115.051 140.801 115.035 140.688 115.035
 c 140.688 114.906 l 142.195 114.906 l 142.195 115.035 l 141.883 115.035
 141.789 115.148 141.402 115.711 c 140.652 116.781 l 141.102 117.383 l 141.359
 117.727 141.555 117.977 141.852 117.977 c 141.852 118.105 l 140.773 118.105
 l 140.773 117.977 l 140.887 117.977 141.023 117.941 141.023 117.805 c 141.023
 117.676 140.723 117.297 140.645 117.191 c 140.508 117.004 l 140.387 117.203
 l 140.32 117.297 140.043 117.699 140.043 117.801 c 140.043 117.957 140.188
 117.977 140.309 117.977 c 140.309 118.105 l 138.797 118.105 l 138.797 117.977
 l 139.18 117.977 139.344 117.719 139.605 117.336 c h
142.805 113.992 m 142.805 113.57 142.676 113.52 142.254 113.512 c 142.254
 113.383 l 143.934 113.383 l 143.934 113.512 l 143.512 113.52 143.383 113.57
 143.383 113.992 c 143.383 115.094 l 143.586 114.887 143.844 114.809 144.129
 114.809 c 145.125 114.809 145.602 115.742 145.602 116.633 c 145.602 117.355
 145.23 118.207 144.398 118.207 c 143.922 118.207 143.605 117.828 143.398
 117.469 c 143.383 117.469 l 143.383 118.207 l 143.227 118.207 l 142.262
 117.812 l 142.309 117.691 l 142.383 117.719 142.477 117.75 142.555 117.75
 c 142.652 117.75 142.805 117.75 142.805 117.262 c h
143.383 117.234 m 143.586 117.461 143.793 117.707 144.121 117.707 c 144.789
 117.707 144.996 116.832 144.996 116.316 c 144.996 115.781 144.809 115.023
 144.141 115.023 c 143.941 115.023 143.742 115.078 143.598 115.223 c 143.391
 115.414 143.383 115.637 143.383 115.902 c h
146.996 118.105 m 146.996 119.16 l 146.891 119.16 l 146.625 118.5 146.309
 118.156 145.914 117.992 c 145.914 117.848 l 146.418 117.848 l 146.418 115.629
 l 146.418 115.016 146.797 114.863 147.023 114.863 c 147.426 114.863 147.723
 115.199 147.848 115.551 c 147.707 115.551 l 147.656 115.402 147.492 115.266
 147.336 115.266 c 146.996 115.266 146.996 115.586 146.996 115.879 c 146.996
 117.848 l 147.75 117.848 l 147.75 118.105 l h
148.742 114.809 m 148.957 114.809 149.133 114.98 149.133 115.191 c 149.133
 115.406 148.957 115.578 148.742 115.578 c 148.527 115.578 148.355 115.406
 148.355 115.191 c 148.355 114.98 148.527 114.809 148.742 114.809 c 152.949
 118.734 m 152.949 119.336 152.949 119.516 153.621 119.516 c 153.621 119.645
 l 151.605 119.645 l 151.605 119.516 l 152.277 119.516 152.277 119.336 152.277
 118.734 c 152.277 115.816 l 152.277 115.215 152.277 115.035 151.605 115.035
 c 151.605 114.906 l 153.621 114.906 l 153.621 115.035 l 152.949 115.035
 152.949 115.215 152.949 115.816 c h
156.035 119.875 m 154.789 119.211 154.102 118.02 154.102 116.617 c 154.102
 115.215 154.789 114.027 156.035 113.359 c 156.035 113.512 l 154.98 114.086
 154.773 115.438 154.773 116.617 c 154.773 117.801 154.98 119.152 156.035
 119.723 c h
161.062 113.617 m 160.277 113.66 159.715 114.199 159.352 114.855 c 160.441
 115.172 161.094 116.16 161.094 117.277 c 161.094 118.602 160.184 119.754
 158.773 119.754 c 157.363 119.754 156.457 118.602 156.457 117.277 c 156.457
 116.109 157.051 115.25 158.152 114.855 c 158.926 114.086 159.965 113.539
 161.062 113.488 c h
158.773 115.035 m 157.602 115.035 157.258 116.23 157.258 117.277 c 157.258
 118.344 157.602 119.496 158.773 119.496 c 159.949 119.496 160.293 118.344
 160.293 117.277 c 160.293 116.23 159.949 115.035 158.773 115.035 c 161.516
 113.359 m 162.762 114.027 163.445 115.215 163.445 116.617 c 163.445 118.02
 162.762 119.211 161.516 119.875 c 161.516 119.723 l 162.566 119.152 162.773
 117.801 162.773 116.617 c 162.773 115.438 162.566 114.086 161.516 113.512
 c 161.516 113.359 l f
0 0.223529 1 rg
0.693 w
0 J
0 j
[] 0.0 d
10 M 126.285 118.82 2.832 -2.832 re S
0 g
137.012 108.742 m 137.273 108.684 137.539 108.633 137.805 108.633 c 139.07
 108.633 139.277 109.562 139.277 109.938 c 139.277 110.637 138.715 111.262
 137.598 111.262 c 135.664 111.262 l 135.664 111.133 l 136.336 111.133 136.336
 110.953 136.336 110.352 c 136.336 107.43 l 136.336 106.828 136.336 106.652
 135.664 106.652 c 135.664 106.523 l 137.684 106.523 l 137.684 106.652 l
 137.012 106.652 137.012 106.828 137.012 107.43 c h
137.012 110.91 m 137.168 110.953 137.332 110.973 137.496 110.973 c 138.113
 110.973 138.477 110.488 138.477 109.898 c 138.477 109.387 138.152 108.879
 137.688 108.879 c 137.473 108.879 137.211 108.906 137.012 108.949 c h
140.312 107.43 m 140.312 106.828 140.312 106.652 139.641 106.652 c 139.641
 106.523 l 141.848 106.523 l 143.562 106.523 144.41 107.617 144.41 108.91
 c 144.41 109.68 144.109 110.43 143.457 110.867 c 142.898 111.238 142.125
 111.262 141.473 111.262 c 139.641 111.262 l 139.641 111.133 l 140.312 111.133
 140.312 110.953 140.312 110.352 c h
140.988 110.902 m 141.219 110.969 141.461 111.004 141.703 111.004 c 142.949
 111.004 143.605 110.066 143.605 108.891 c 143.605 107.746 142.957 106.781
 141.73 106.781 c 141.48 106.781 141.23 106.816 140.988 106.871 c h
145.48 107.43 m 145.48 106.828 145.48 106.652 144.809 106.652 c 144.809
 106.523 l 147.234 106.523 l 148.824 106.523 149.059 107.418 149.059 107.84
 c 149.059 108.449 148.551 108.863 148 108.934 c 148 108.949 l 148.465 109.086
 148.836 109.465 148.836 109.984 c 148.836 110.652 148.336 111.262 146.996
 111.262 c 144.809 111.262 l 144.809 111.133 l 145.48 111.133 145.48 110.953
 145.48 110.352 c h
146.152 110.945 m 146.352 111.004 146.559 111.023 146.77 111.023 c 147.406
 111.023 148.109 110.754 148.109 110.016 c 148.109 109.734 147.973 109.078
 146.941 109.078 c 146.59 109.078 146.367 109.086 146.152 109.129 c h
146.152 108.805 m 146.348 108.84 146.555 108.84 146.754 108.84 c 147.465
 108.84 148.258 108.598 148.258 107.762 c 148.258 107.051 147.57 106.781
 146.965 106.781 c 146.684 106.781 146.41 106.809 146.152 106.871 c h
152.758 110.352 m 152.758 110.953 152.758 111.133 153.43 111.133 c 153.43
 111.262 l 151.41 111.262 l 151.41 111.133 l 152.086 111.133 152.086 110.953
 152.086 110.352 c 152.086 107.43 l 152.086 106.828 152.086 106.652 151.41
 106.652 c 151.41 106.523 l 153.43 106.523 l 153.43 106.652 l 152.758 106.652
 152.758 106.828 152.758 107.43 c h
155.844 111.488 m 154.598 110.824 153.91 109.637 153.91 108.234 c 153.91
 106.828 154.598 105.641 155.844 104.977 c 155.844 105.125 l 154.789 105.699
 154.582 107.051 154.582 108.234 c 154.582 109.414 154.789 110.766 155.844
 111.34 c h
160.871 105.234 m 160.086 105.277 159.52 105.812 159.16 106.473 c 160.25
 106.785 160.898 107.773 160.898 108.891 c 160.898 110.215 159.992 111.367
 158.582 111.367 c 157.172 111.367 156.262 110.215 156.262 108.891 c 156.262
 107.723 156.855 106.867 157.961 106.473 c 158.73 105.699 159.77 105.156
 160.871 105.105 c h
158.582 106.652 m 157.406 106.652 157.062 107.848 157.062 108.891 c 157.062
 109.957 157.406 111.109 158.582 111.109 c 159.758 111.109 160.098 109.957
 160.098 108.891 c 160.098 107.848 159.758 106.652 158.582 106.652 c 161.32
 104.977 m 162.566 105.641 163.254 106.828 163.254 108.234 c 163.254 109.637
 162.566 110.824 161.32 111.488 c 161.32 111.34 l 162.371 110.766 162.582
 109.414 162.582 108.234 c 162.582 107.051 162.371 105.699 161.32 105.125
 c 161.32 104.977 l f
1 0 0 rg
121.18 109.02 m 134.184 109.02 l S
1 g
43.34 85.766 66.965 -46.355 re f
0.537 w
43.34 85.766 66.965 -46.355 re S
0 g
43.34 39.41 m 110.305 39.41 l S
43.34 85.766 m 110.305 85.766 l S
43.34 39.41 m 43.34 85.766 l S
110.305 39.41 m 110.305 85.766 l S
43.34 39.41 m 110.305 39.41 l S
43.34 39.41 m 43.34 85.766 l S
43.34 39.41 m 43.34 40.078 l S
43.34 85.766 m 43.34 85.133 l S
43.34 36.57 m 42.668 36.57 41.809 35.812 41.809 34.102 c 41.809 32.391 
42.668 31.633 43.34 31.633 c 44.016 31.633 44.871 32.391 44.871 34.102 c
 44.871 35.812 44.016 36.57 43.34 36.57 c 43.34 36.355 m 44.113 36.355 44.188
 34.883 44.188 34.34 c 44.188 32.734 43.898 31.848 43.34 31.848 c 42.598
 31.848 42.496 33.328 42.496 33.871 c 42.496 35.477 42.781 36.355 43.34 
36.355 c f
45.316 39.41 m 45.316 39.746 l S
45.316 85.766 m 45.316 85.469 l S
47.289 39.41 m 47.289 39.746 l S
47.289 85.766 m 47.289 85.469 l S
49.305 39.41 m 49.305 39.746 l S
49.305 85.766 m 49.305 85.469 l S
51.277 39.41 m 51.277 39.746 l S
51.277 85.766 m 51.277 85.469 l S
53.289 39.41 m 53.289 39.746 l S
53.289 85.766 m 53.289 85.469 l S
55.266 39.41 m 55.266 39.746 l S
55.266 85.766 m 55.266 85.469 l S
57.277 39.41 m 57.277 39.746 l S
57.277 85.766 m 57.277 85.469 l S
59.254 39.41 m 59.254 39.746 l S
59.254 85.766 m 59.254 85.469 l S
61.266 39.41 m 61.266 39.746 l S
61.266 85.766 m 61.266 85.469 l S
63.238 39.41 m 63.238 40.078 l S
63.238 85.766 m 63.238 85.133 l S
60.559 36.57 m 59.883 36.57 59.027 35.812 59.027 34.102 c 59.027 32.391
 59.883 31.633 60.559 31.633 c 61.23 31.633 62.09 32.391 62.09 34.102 c 
62.09 35.812 61.23 36.57 60.559 36.57 c 60.559 36.355 m 61.328 36.355 61.402
 34.883 61.402 34.34 c 61.402 32.734 61.117 31.848 60.559 31.848 c 59.812
 31.848 59.715 33.328 59.715 33.871 c 59.715 35.477 60 36.355 60.559 36.355
 c 63.238 31.633 m 63.453 31.633 63.629 31.805 63.629 32.02 c 63.629 32.234
 63.453 32.406 63.238 32.406 c 63.023 32.406 62.852 32.234 62.852 32.02 
c 62.852 31.805 63.023 31.633 63.238 31.633 c 67.242 36.473 m 65.543 36.473
 l 64.637 34.625 l 65.887 34.625 66.711 33.953 66.711 33.059 c 66.711 32.484
 66.238 32.004 65.664 32.004 c 65.207 32.004 65.086 32.363 64.758 32.363
 c 64.605 32.363 64.477 32.254 64.477 32.105 c 64.477 31.734 65.008 31.633
 65.277 31.633 c 66.254 31.633 67.16 32.422 67.16 33.422 c 67.16 34.48 66.188
 35.125 65.23 35.238 c 65.559 35.898 l 66.984 35.898 l 67.242 36.473 l f
65.215 39.41 m 65.215 39.746 l S
65.215 85.766 m 65.215 85.469 l S
67.227 39.41 m 67.227 39.746 l S
67.227 85.766 m 67.227 85.469 l S
69.203 39.41 m 69.203 39.746 l S
69.203 85.766 m 69.203 85.469 l S
71.215 39.41 m 71.215 39.746 l S
71.215 85.766 m 71.215 85.469 l S
73.191 39.41 m 73.191 39.746 l S
73.191 85.766 m 73.191 85.469 l S
75.203 39.41 m 75.203 39.746 l S
75.203 85.766 m 75.203 85.469 l S
77.176 39.41 m 77.176 39.746 l S
77.176 85.766 m 77.176 85.469 l S
79.188 39.41 m 79.188 39.746 l S
79.188 85.766 m 79.188 85.469 l S
81.164 39.41 m 81.164 39.746 l S
81.164 85.766 m 81.164 85.469 l S
83.176 39.41 m 83.176 40.078 l S
83.176 85.766 m 83.176 85.133 l S
82.223 36.008 m 82.273 35.898 l 82.395 35.957 82.504 36.008 82.641 36.008
 c 82.863 36.008 82.918 35.828 82.918 35.332 c 82.918 32.484 l 82.918 31.949
 82.863 31.875 82.309 31.859 c 82.309 31.734 l 84.094 31.734 l 84.094 31.859
 l 83.496 31.859 83.496 32.09 83.496 32.672 c 83.496 36.57 l 83.379 36.57
 l 82.223 36.008 l f
85.152 39.41 m 85.152 39.746 l S
85.152 85.766 m 85.152 85.469 l S
87.125 39.41 m 87.125 39.746 l S
87.125 85.766 m 87.125 85.469 l S
89.137 39.41 m 89.137 39.746 l S
89.137 85.766 m 89.137 85.469 l S
91.113 39.41 m 91.113 39.746 l S
91.113 85.766 m 91.113 85.469 l S
93.125 39.41 m 93.125 39.746 l S
93.125 85.766 m 93.125 85.469 l S
95.102 39.41 m 95.102 39.746 l S
95.102 85.766 m 95.102 85.469 l S
97.113 39.41 m 97.113 39.746 l S
97.113 85.766 m 97.113 85.469 l S
99.086 39.41 m 99.086 39.746 l S
99.086 85.766 m 99.086 85.469 l S
101.102 39.41 m 101.102 39.746 l S
101.102 85.766 m 101.102 85.469 l S
103.074 39.41 m 103.074 40.078 l S
103.074 85.766 m 103.074 85.133 l S
99.441 36.008 m 99.492 35.898 l 99.613 35.957 99.719 36.008 99.855 36.008
 c 100.078 36.008 100.137 35.828 100.137 35.332 c 100.137 32.484 l 100.137
 31.949 100.078 31.875 99.527 31.859 c 99.527 31.734 l 101.309 31.734 l 
101.309 31.859 l 100.715 31.859 100.715 32.09 100.715 32.672 c 100.715 36.57
 l 100.594 36.57 l h
103.074 31.633 m 103.289 31.633 103.461 31.805 103.461 32.02 c 103.461 
32.234 103.289 32.406 103.074 32.406 c 102.859 32.406 102.691 32.234 102.691
 32.02 c 102.691 31.805 102.859 31.633 103.074 31.633 c 107.078 36.473 m
 105.379 36.473 l 104.469 34.625 l 105.723 34.625 106.547 33.949 106.547
 33.059 c 106.547 32.484 106.074 32.004 105.5 32.004 c 105.043 32.004 104.922
 32.363 104.594 32.363 c 104.441 32.363 104.312 32.254 104.312 32.105 c 
104.312 31.734 104.844 31.633 105.117 31.633 c 106.09 31.633 106.996 32.422
 106.996 33.422 c 106.996 34.48 106.023 35.125 105.066 35.238 c 105.395 
35.898 l 106.82 35.898 l 107.078 36.473 l f
105.051 39.41 m 105.051 39.746 l S
105.051 85.766 m 105.051 85.469 l S
107.062 39.41 m 107.062 39.746 l S
107.062 85.766 m 107.062 85.469 l S
109.039 39.41 m 109.039 39.746 l S
109.039 85.766 m 109.039 85.469 l S
43.34 42.316 m 43.641 42.316 l S
110.305 42.316 m 109.969 42.316 l S
43.34 39.41 m 43.641 39.41 l S
110.305 39.41 m 109.969 39.41 l S
43.34 45.223 m 43.977 45.223 l S
110.305 45.223 m 109.633 45.223 l S
38.336 45.207 m 34.578 45.207 l 34.578 44.922 l 38.336 44.922 l h
39.844 45.078 m 39.398 44.766 38.898 44.336 38.898 43.746 c 38.898 43.441
 39.18 42.59 40.258 42.59 c 40.98 42.59 41.633 43.055 41.633 43.82 c 41.633
 44.5 41.039 44.93 40.551 45.316 c 40.973 45.574 41.531 45.945 41.531 46.496
 c 41.531 46.996 41.074 47.527 40.238 47.527 c 39.594 47.527 38.965 47.109
 38.965 46.41 c 38.965 45.785 39.406 45.445 39.844 45.078 c 40.387 45.445
 m 40.023 45.773 39.465 46.082 39.465 46.641 c 39.465 47.055 39.863 47.312
 40.254 47.312 c 40.738 47.312 41.031 47.031 41.031 46.547 c 41.031 46.016
 40.754 45.773 40.387 45.445 c 40.004 44.941 m 40.848 44.266 41.133 43.914
 41.133 43.512 c 41.133 43.062 40.738 42.805 40.316 42.805 c 39.742 42.805
 39.438 43.246 39.438 43.789 c 39.438 44.234 39.648 44.672 40.004 44.941
 c f
43.34 48.129 m 43.637 48.129 l S
110.305 48.129 m 109.969 48.129 l S
43.34 50.996 m 43.637 50.996 l S
110.305 50.996 m 109.969 50.996 l S
43.34 53.906 m 43.637 53.906 l S
110.305 53.906 m 109.969 53.906 l S
43.34 56.812 m 43.637 56.812 l S
110.305 56.812 m 109.969 56.812 l S
43.34 59.719 m 43.637 59.719 l S
110.305 59.719 m 109.969 59.719 l S
43.34 62.586 m 43.637 62.586 l S
110.305 62.586 m 109.969 62.586 l S
43.34 65.492 m 43.637 65.492 l S
110.305 65.492 m 109.969 65.492 l S
43.34 68.398 m 43.637 68.398 l S
110.305 68.398 m 109.969 68.398 l S
43.34 71.309 m 43.637 71.309 l S
110.305 71.309 m 109.969 71.309 l S
43.34 74.176 m 43.973 74.176 l S
110.305 74.176 m 109.633 74.176 l S
38.336 74.16 m 34.578 74.16 l 34.578 73.875 l 38.336 73.875 l h
39.188 76.383 m 38.734 75.258 l 38.836 75.223 l 39.094 75.664 39.352 75.809
 39.828 75.809 c 41.176 75.809 l 39.758 71.543 l 40.152 71.543 l 41.727 
76.254 l 41.727 76.383 l 39.188 76.383 l f
43.34 77.082 m 43.637 77.082 l S
110.305 77.082 m 109.969 77.082 l S
43.34 79.988 m 43.637 79.988 l S
110.305 79.988 m 109.969 79.988 l S
43.34 82.898 m 43.637 82.898 l S
110.305 82.898 m 109.969 82.898 l S
43.34 85.766 m 43.637 85.766 l S
110.305 85.766 m 109.969 85.766 l S
43.34 39.41 m 110.305 39.41 l S
43.34 85.766 m 110.305 85.766 l S
43.34 39.41 m 43.34 85.766 l S
110.305 39.41 m 110.305 85.766 l S
0 0.223529 1 rg
0.693 w
47.066 73.988 2.832 -2.832 re S
48.445 73.355 2.832 -2.832 re S
49.973 72.723 2.832 -2.832 re S
51.688 71.977 2.832 -2.832 re S
53.551 71.047 2.832 -2.832 re S
55.562 70.074 2.832 -2.832 re S
57.762 69.031 2.832 -2.828 re S
60.109 67.914 2.832 -2.832 re S
62.605 66.609 2.832 -2.832 re S
65.289 65.418 2.832 -2.832 re S
68.121 64.113 2.832 -2.832 re S
71.102 62.586 2.832 -2.832 re S
74.27 61.059 2.832 -2.832 re S
77.625 59.457 2.832 -2.832 re S
81.09 57.855 2.832 -2.832 re S
84.742 56.102 2.832 -2.832 re S
88.543 54.277 2.832 -2.832 re S
92.527 52.34 2.836 -2.832 re S
96.664 50.328 2.832 -2.832 re S
100.953 48.352 2.828 -2.832 re S
105.422 46.227 2.832 -2.832 re S
47.961 72.387 m 49.004 72.387 l S
48.484 72.387 m 48.484 72.723 l S
47.961 72.723 m 49.004 72.723 l S
49.488 71.828 m 50.195 71.828 l S
49.859 71.828 m 49.859 72.051 l S
49.488 72.051 m 50.195 72.051 l S
51.129 71.23 m 51.652 71.23 l S
51.391 71.23 m 51.391 71.379 l S
51.129 71.379 m 51.652 71.379 l S
52.883 70.484 m 53.289 70.484 l S
53.105 70.484 m 53.105 70.598 l S
52.883 70.598 m 53.289 70.598 l S
54.781 69.59 m 55.117 69.59 l S
54.969 69.59 m 54.969 69.703 l S
54.781 69.703 m 55.117 69.703 l S
56.828 68.621 m 57.129 68.621 l S
56.98 68.621 m 56.98 68.695 l S
56.828 68.695 m 57.129 68.695 l S
59.027 67.543 m 59.289 67.543 l S
59.18 67.543 m 59.18 67.652 l S
59.027 67.652 m 59.289 67.652 l S
61.379 66.461 m 61.637 66.461 l S
61.527 66.461 m 61.527 66.535 l S
61.379 66.535 m 61.637 66.535 l S
63.871 65.156 m 64.172 65.156 l S
64.023 65.156 m 64.023 65.27 l S
63.871 65.27 m 64.172 65.27 l S
66.555 63.965 m 66.816 63.965 l S
66.703 63.965 m 66.703 64.039 l S
66.555 64.039 m 66.816 64.039 l S
69.426 62.66 m 69.648 62.66 l S
69.539 62.66 m 69.539 62.734 l S
69.426 62.734 m 69.648 62.734 l S
72.406 61.133 m 72.668 61.133 l S
72.52 61.133 m 72.52 61.207 l S
72.406 61.207 m 72.668 61.207 l S
75.613 59.641 m 75.801 59.641 l S
75.688 59.641 m 75.688 59.68 l S
75.613 59.68 m 75.801 59.68 l S
78.93 58.039 m 79.113 58.039 l S
79.039 58.039 m 79.039 58.074 l S
78.93 58.074 m 79.113 58.074 l S
82.395 56.398 m 82.582 56.398 l S
82.508 56.398 m 82.508 56.473 l S
82.395 56.473 m 82.582 56.473 l S
86.047 54.648 m 86.234 54.648 l S
86.16 54.648 m 86.16 54.723 l S
86.047 54.723 m 86.234 54.723 l S
89.887 52.824 m 90.07 52.824 l S
89.961 52.824 m 89.961 52.895 l S
89.887 52.895 m 90.07 52.895 l S
93.871 50.883 m 94.059 50.883 l S
93.949 50.883 m 93.949 50.961 l S
93.871 50.961 m 94.059 50.961 l S
97.973 48.91 m 98.156 48.91 l S
98.082 48.91 m 98.082 48.945 l S
97.973 48.945 m 98.156 48.945 l S
102.258 46.898 m 102.48 46.898 l S
102.371 46.898 m 102.371 46.973 l S
102.258 46.973 m 102.48 46.973 l S
106.73 44.773 m 106.953 44.773 l S
106.84 44.773 m 106.84 44.848 l S
106.73 44.848 m 106.953 44.848 l S
Q q
43.34 85.766 67 -46.395 re W n
q
43 86 68 -47 re W n
  q
0 0.992157 0 rg
0.693 w
0 J
0 j
[] 0.0 d
10 M 43.34 75.219 m 47.254 73.32 l 47.848 73.02 l 48.484 72.723 l 49.152 72.426
 l 49.859 72.09 l 50.605 71.719 l 51.391 71.344 l 52.211 70.934 l 53.102
 70.523 l 53.996 70.078 l 54.965 69.629 l 55.938 69.145 l 56.98 68.66 l 
58.059 68.141 l 59.18 67.617 l 60.332 67.023 l 61.527 66.465 l 62.754 65.867
 l 64.023 65.27 l 65.324 64.637 l 68.086 63.297 l 69.535 62.625 l 71.027
 61.918 l 72.52 61.172 l 74.082 60.426 l 75.688 59.645 l 77.324 58.859 l
 79.039 58.043 l S
  Q
Q
0 g
48.859 80.895 m 49.992 80.895 l 49.992 80.184 l 49.902 80.105 49.457 79.785
 48.871 79.785 c 48.496 79.785 48.082 79.914 47.809 80.215 c 47.543 80.516
 47.461 80.922 47.461 81.328 c 47.461 81.707 47.562 82.863 48.859 82.863
 c 49.734 82.863 49.902 82.273 49.973 82.031 c 50.426 82.16 l 50.355 82.434
 50.145 83.297 48.859 83.297 c 47.301 83.297 46.934 82.055 46.934 81.297
 c 46.934 80.086 47.734 79.328 48.898 79.328 c 49.73 79.328 50.281 79.766
 50.484 79.93 c 50.484 81.352 l 48.859 81.352 l h
53.02 79.395 m 53.441 79.395 l 53.441 82.172 l 52.973 82.172 l 52.973 80.688
 l 52.973 80.488 52.961 80.301 52.875 80.105 c 52.773 79.883 52.492 79.738
 52.23 79.738 c 51.996 79.738 51.766 79.855 51.699 80.082 c 51.656 80.227
 51.656 80.344 51.656 80.633 c 51.656 82.172 l 51.184 82.172 l 51.184 80.449
 l 51.184 80.199 51.191 79.969 51.312 79.738 c 51.465 79.461 51.836 79.328
 52.133 79.328 c 52.277 79.328 52.703 79.348 53.008 79.801 c 53.02 79.801
 l h
54.176 79.395 m 54.645 79.395 l 54.645 82.172 l 54.176 82.172 l h
54.176 82.699 m 54.645 82.699 l 54.645 83.234 l 54.176 83.234 l h
55.371 79.395 m 55.844 79.395 l 55.844 80.91 l 55.844 81.078 55.848 81.281
 55.941 81.48 c 56.039 81.691 56.316 81.828 56.582 81.828 c 57.16 81.828
 57.16 81.324 57.16 81.086 c 57.16 79.395 l 57.633 79.395 l 57.633 81.105
 l 57.633 81.398 57.633 81.598 57.512 81.828 c 57.352 82.129 56.969 82.234
 56.68 82.234 c 56.492 82.234 56.078 82.199 55.805 81.781 c 55.797 81.781
 l 55.797 82.172 l 55.371 82.172 l h
58.348 79.395 m 58.82 79.395 l 58.82 82.172 l 58.348 82.172 l h
58.348 82.699 m 58.82 82.699 l 58.82 83.234 l 58.348 83.234 l h
61.453 80.289 m 61.395 80.129 61.25 79.715 60.719 79.715 c 60.301 79.715
 59.91 80 59.871 80.664 c 61.953 80.664 l 61.996 82.164 60.93 82.234 60.691
 82.234 c 59.848 82.234 59.391 81.609 59.391 80.762 c 59.391 79.902 59.855
 79.328 60.719 79.328 c 61.406 79.328 61.797 79.703 61.938 80.23 c h
59.898 81.051 m 59.926 81.414 60.168 81.852 60.691 81.852 c 61.031 81.852
 61.301 81.641 61.395 81.406 c 61.449 81.27 61.461 81.152 61.473 81.051 
c h
62.508 79.395 m 62.98 79.395 l 62.98 80.852 l 62.98 81.137 63.027 81.754
 63.516 81.754 c 63.641 81.754 63.758 81.711 63.859 81.652 c 64.02 82.086
 l 63.941 82.133 63.777 82.234 63.539 82.234 c 63.199 82.234 63.055 81.969
 62.949 81.754 c 62.938 81.754 l 62.938 82.172 l 62.508 82.172 l h
65.902 79.395 m 66.375 79.395 l 66.375 81.809 l 66.914 81.809 l 66.914 
82.172 l 66.375 82.172 l 66.375 82.434 l 66.375 82.66 66.391 82.863 66.762
 82.863 c 66.863 82.863 66.957 82.852 67.043 82.836 c 67.109 83.25 l 67.004
 83.27 66.871 83.297 66.672 83.297 c 65.902 83.297 65.902 82.742 65.902 
82.473 c 65.902 82.172 l 65.484 82.172 l 65.484 81.809 l 65.902 81.809 l
 h
67.293 79.395 m 67.766 79.395 l 67.766 82.172 l 67.293 82.172 l h
67.293 82.699 m 67.766 82.699 l 67.766 83.234 l 67.293 83.234 l h
69.504 79.816 m 69.449 79.809 69.375 79.797 69.297 79.797 c 69.031 79.797
 69.031 79.957 69.031 80.184 c 69.031 81.809 l 69.504 81.809 l 69.504 82.172
 l 69.031 82.172 l 69.031 83.148 l 68.562 82.863 l 68.562 82.172 l 68.219
 82.172 l 68.219 81.809 l 68.562 81.809 l 68.562 80.211 l 68.562 79.746 
68.562 79.355 69.215 79.355 c 69.371 79.355 69.488 79.383 69.57 79.398 c
 h
70.102 79.395 m 70.363 79.395 l 70.359 79.168 70.32 78.949 70.066 78.836
 c 70.195 78.637 l 70.637 78.824 70.637 79.211 70.637 79.395 c 70.637 79.93
 l 70.102 79.93 l h
73.031 79.395 m 73.539 79.395 l 73.539 81.09 l 74.125 81.09 l 74.547 81.09
 74.727 81.051 75.273 80.188 c 75.777 79.395 l 76.414 79.395 l 75.742 80.441
 l 75.445 80.906 75.215 81.047 75.02 81.137 c 75.02 81.148 l 75.676 81.234
 76.098 81.566 76.098 82.184 c 76.098 82.586 75.891 82.98 75.496 83.133 
c 75.246 83.227 75 83.234 74.73 83.234 c 73.031 83.234 l h
73.539 82.812 m 74.754 82.812 l 74.949 82.812 75.117 82.789 75.277 82.703
 c 75.438 82.617 75.574 82.426 75.574 82.184 c 75.574 81.953 75.438 81.723
 75.238 81.637 c 75.031 81.543 74.859 81.543 74.629 81.543 c 73.539 81.543
 l 73.539 82.812 l f
76.68 76.539 m 76.66 75.941 77.242 75.867 77.504 75.867 c 77.809 75.867
 78.145 75.957 78.316 76.242 c 78.438 76.445 78.445 76.82 78.445 76.992 
c 78.445 78.797 l 78.117 78.797 l 78.117 78.547 l 78.109 78.547 l 77.891
 78.832 77.629 78.844 77.512 78.844 c 76.859 78.844 76.605 78.277 76.605
 77.77 c 76.605 77.207 76.926 76.711 77.508 76.711 c 77.672 76.711 77.891
 76.75 78.086 76.984 c 78.086 76.57 78.09 76.156 77.5 76.156 c 77.086 76.156
 77.035 76.375 77.02 76.484 c h
76.969 77.789 m 76.969 78.293 77.223 78.555 77.535 78.555 c 77.781 78.555
 78.117 78.379 78.117 77.781 c 78.117 77.59 78.094 77.391 77.984 77.234 
c 77.891 77.105 77.738 77 77.539 77 c 77.359 77 77.199 77.094 77.098 77.238
 c 76.969 77.426 76.969 77.734 76.969 77.789 c f
81.539 82.094 m 79 82.094 l 79 81.652 l 81.539 81.652 l h
81.539 80.922 m 79 80.922 l 79 80.484 l 81.539 80.484 l h
83.582 79.395 m 84.055 79.395 l 84.055 80.312 l 84.574 80.312 l 84.574 
80.746 l 84.055 80.746 l 84.055 83.234 l 83.668 83.234 l 81.918 80.746 l
 81.918 80.312 l 83.582 80.312 l h
82.379 80.746 m 83.57 82.477 l 83.582 82.477 l 83.582 80.746 l h
86.562 79.395 m 87.035 79.395 l 87.035 80.312 l 87.559 80.312 l 87.559 
80.746 l 87.035 80.746 l 87.035 83.234 l 86.648 83.234 l 84.902 80.746 l
 84.902 80.312 l 86.562 80.312 l h
85.363 80.746 m 86.555 82.477 l 86.562 82.477 l 86.562 80.746 l h
88.281 79.395 m 88.816 79.395 l 88.816 79.93 l 88.281 79.93 l h
91.039 79.395 m 91.512 79.395 l 91.512 80.312 l 92.031 80.312 l 92.031 
80.746 l 91.512 80.746 l 91.512 83.234 l 91.125 83.234 l 89.379 80.746 l
 89.379 80.312 l 91.039 80.312 l h
89.84 80.746 m 91.027 82.477 l 91.039 82.477 l 91.039 80.746 l h
93.535 83.301 m 93.48 83.23 93.387 83.102 93.246 82.867 c 92.82 82.184 
92.602 81.555 92.602 80.781 c 92.602 79.523 93.324 78.531 93.535 78.27 c
 93.871 78.27 l 93.305 79.18 93.09 80.023 93.09 80.789 c 93.09 81.953 93.516
 82.684 93.84 83.246 c 93.871 83.301 l h
94.305 80.406 m 94.355 79.871 94.746 79.328 95.527 79.328 c 96.18 79.328
 96.816 79.773 96.816 80.527 c 96.816 80.758 96.742 80.996 96.594 81.188
 c 96.422 81.398 96.223 81.441 96.102 81.469 c 96.102 81.48 l 96.555 81.684
 96.625 82.055 96.625 82.254 c 96.625 82.812 96.152 83.25 95.504 83.25 c
 95.105 83.25 94.496 83.074 94.352 82.254 c 94.824 82.168 l 94.879 82.547
 95.086 82.863 95.516 82.863 c 95.816 82.863 96.145 82.672 96.145 82.262
 c 96.145 81.707 95.555 81.598 95.285 81.625 c 95.23 81.211 l 95.32 81.234
 95.43 81.262 95.562 81.262 c 96.016 81.262 96.312 80.938 96.312 80.516 
c 96.312 80.066 95.965 79.715 95.527 79.715 c 94.926 79.715 94.812 80.285
 94.773 80.473 c h
97.582 78.27 m 97.637 78.34 97.73 78.465 97.871 78.695 c 98.297 79.383 
98.516 80.012 98.516 80.781 c 98.516 82.043 97.789 83.035 97.582 83.301 
c 97.242 83.301 l 97.812 82.387 98.027 81.547 98.027 80.777 c 98.027 79.613
 97.609 78.879 97.277 78.32 c 97.242 78.27 l h
100.324 79.395 m 100.859 79.395 l 101.285 80.562 l 102.887 80.562 l 103.336
 79.395 l 103.91 79.395 l 102.344 83.234 l 101.797 83.234 l h
101.852 82.098 m 101.941 82.34 102.008 82.578 102.055 82.832 c 102.066 
82.832 l 102.148 82.52 102.234 82.285 102.328 82.031 c 102.73 80.965 l 101.43
 80.965 l h
102.113 84.34 m 101.852 84.34 101.648 84.125 101.648 83.863 c 101.648 83.598
 101.852 83.383 102.113 83.383 c 102.379 83.383 102.594 83.598 102.594 83.863
 c 102.594 84.125 102.379 84.34 102.113 84.34 c 101.84 83.867 m 101.84 84.008
 101.957 84.145 102.121 84.145 c 102.281 84.145 102.398 84.012 102.398 83.863
 c 102.398 83.707 102.273 83.578 102.121 83.578 c 101.977 83.578 101.84 
83.695 101.84 83.867 c f
77.473 56.812 m 78.109 54.055 l 77.473 54.055 l 77.473 48.129 l 77.473 
54.055 l 76.84 54.055 l 77.473 56.812 l f*
0.224 w
0 J
0 j
[] 0.0 d
10 M 77.473 56.812 m 78.109 54.055 l 77.473 54.055 l 77.473 48.129 l 77.473 
54.055 l 76.84 54.055 l 77.473 56.812 l S
71.957 44.328 m 71.957 48.184 l 71.652 48.184 l 71.461 47.793 70.992 47.43
 70.543 47.219 c 70.543 46.762 l 70.715 46.828 71.188 47.043 71.484 47.332
 c 71.484 44.328 l h
73.406 44.328 m 73.945 44.328 l 73.945 44.863 l 73.406 44.863 l h
74.656 45.344 m 74.711 44.805 75.102 44.266 75.883 44.266 c 76.535 44.266
 77.172 44.711 77.172 45.461 c 77.172 45.688 77.098 45.934 76.949 46.117
 c 76.777 46.336 76.578 46.379 76.453 46.402 c 76.453 46.414 l 76.91 46.617
 76.98 46.988 76.98 47.188 c 76.98 47.742 76.508 48.184 75.859 48.184 c 
75.461 48.184 74.852 48.008 74.707 47.188 c 75.18 47.102 l 75.23 47.48 75.441
 47.797 75.871 47.797 c 76.172 47.797 76.496 47.605 76.496 47.195 c 76.496
 46.641 75.906 46.531 75.641 46.559 c 75.586 46.145 l 75.676 46.168 75.785
 46.195 75.918 46.195 c 76.367 46.195 76.668 45.871 76.668 45.449 c 76.668
 44.996 76.32 44.648 75.883 44.648 c 75.281 44.648 75.168 45.219 75.129 
45.406 c h
77.406 44.199 m 77.785 44.199 l 78.898 48.168 l 78.516 48.168 l h
79.328 44.328 m 79.836 44.328 l 79.836 46.023 l 80.422 46.023 l 80.844 
46.023 81.02 45.984 81.566 45.121 c 82.074 44.328 l 82.711 44.328 l 82.039
 45.375 l 81.738 45.84 81.508 45.98 81.316 46.07 c 81.316 46.082 l 81.973
 46.168 82.395 46.5 82.395 47.117 c 82.395 47.52 82.184 47.918 81.793 48.066
 c 81.539 48.16 81.297 48.168 81.027 48.168 c 79.328 48.168 l h
79.836 47.742 m 81.047 47.742 l 81.246 47.742 81.414 47.723 81.574 47.637
 c 81.734 47.551 81.867 47.359 81.867 47.117 c 81.867 46.887 81.734 46.656
 81.535 46.57 c 81.328 46.477 81.156 46.477 80.926 46.477 c 79.836 46.477
 l 79.836 47.742 l f
82.977 41.473 m 82.957 40.875 83.539 40.801 83.801 40.801 c 84.105 40.801
 84.441 40.895 84.613 41.18 c 84.734 41.379 84.742 41.754 84.742 41.926 
c 84.742 43.73 l 84.414 43.73 l 84.414 43.48 l 84.406 43.48 l 84.188 43.766
 83.926 43.777 83.809 43.777 c 83.156 43.777 82.902 43.211 82.902 42.703
 c 82.902 42.141 83.223 41.645 83.805 41.645 c 83.969 41.645 84.188 41.688
 84.383 41.918 c 84.383 41.504 84.387 41.09 83.797 41.09 c 83.383 41.09 
83.332 41.312 83.316 41.422 c h
83.266 42.727 m 83.266 43.227 83.52 43.488 83.832 43.488 c 84.078 43.488
 84.41 43.312 84.41 42.715 c 84.41 42.523 84.391 42.324 84.277 42.168 c 
84.188 42.039 84.035 41.934 83.836 41.934 c 83.656 41.934 83.492 42.027 
83.395 42.172 c 83.266 42.359 83.266 42.668 83.266 42.727 c f
Q q
0 g
67.555 22.137 m 66.766 22.176 66.203 22.715 65.844 23.375 c 66.934 23.688
 67.582 24.676 67.582 25.793 c 67.582 27.117 66.676 28.27 65.266 28.27 c
 63.855 28.27 62.945 27.117 62.945 25.793 c 62.945 24.625 63.539 23.766 
64.641 23.375 c 65.414 22.602 66.453 22.055 67.555 22.008 c h
65.266 23.551 m 64.09 23.551 63.746 24.746 63.746 25.793 c 63.746 26.859
 64.09 28.012 65.266 28.012 c 66.438 28.012 66.781 26.859 66.781 25.793 
c 66.781 24.746 66.438 23.551 65.266 23.551 c f
70.281 27.684 m 70.184 27.684 l 70.051 27.398 69.672 27.398 69.605 27.398
 c 68.5 27.398 l 69.285 28.234 l 69.641 28.613 70.066 29.152 70.066 29.691
 c 70.066 30.238 69.578 30.625 69.059 30.625 c 68.441 30.625 68.129 30.188
 68.043 29.621 c 68.141 29.621 l 68.238 29.984 68.555 30.23 68.93 30.23 
c 69.34 30.23 69.609 29.871 69.609 29.453 c 69.609 28.879 69.297 28.438 
67.938 27.098 c 67.938 27 l 70.031 27 l 70.281 27.684 l f
76.109 26.91 m 75.844 27.172 l 74.262 25.586 l 72.684 27.172 l 72.418 26.91
 l 73.992 25.328 l 72.418 23.746 l 72.684 23.48 l 74.262 25.07 l 75.844 
23.48 l 76.109 23.746 l 74.535 25.328 l 76.109 26.91 l f
78.836 27.695 m 78.883 27.59 l 79.008 27.645 79.113 27.695 79.25 27.695
 c 79.473 27.695 79.527 27.516 79.527 27.023 c 79.527 24.172 l 79.527 23.637
 79.473 23.566 78.922 23.551 c 78.922 23.422 l 80.703 23.422 l 80.703 23.551
 l 80.109 23.551 80.109 23.781 80.109 24.359 c 80.109 28.262 l 79.984 28.262
 l h
83.363 28.262 m 82.691 28.262 81.832 27.504 81.832 25.789 c 81.832 24.082
 82.691 23.32 83.363 23.32 c 84.035 23.32 84.895 24.082 84.895 25.789 c 
84.895 27.504 84.035 28.262 83.363 28.262 c 83.363 28.047 m 84.137 28.047
 84.207 26.57 84.207 26.027 c 84.207 24.426 83.922 23.535 83.363 23.535 
c 82.617 23.535 82.52 25.02 82.52 25.562 c 82.52 27.164 82.805 28.047 83.363
 28.047 c f
88.074 28.887 m 85.258 28.887 l 85.258 28.676 l 88.074 28.676 l h
88.992 28.762 m 90.023 28.762 90.023 27.938 90.023 27.891 c 90.023 27.52
 89.758 27.168 89.367 27.168 c 88.996 27.168 88.879 27.406 88.609 27.406
 c 88.492 27.406 88.391 27.328 88.391 27.211 c 88.391 26.957 88.82 26.926
 88.992 26.926 c 90 26.926 90.414 27.574 90.414 28.164 c 90.414 28.621 90.164
 28.941 89.746 29.102 c 89.973 29.285 90.234 29.598 90.234 29.898 c 90.234
 30.121 90.055 30.625 89.398 30.625 c 88.922 30.625 88.605 30.301 88.449
 29.875 c 88.531 29.832 l 88.672 30.066 88.918 30.266 89.199 30.266 c 89.566
 30.266 89.801 30.016 89.801 29.66 c 89.801 29.188 89.422 28.906 88.992 
28.84 c 88.992 28.762 l f
25.891 52.539 m 25.891 52.383 l 26.281 51.414 l 26.406 51.465 l 26.375 
51.535 26.348 51.629 26.348 51.711 c 26.348 51.809 26.348 51.961 26.836 
51.961 c 30.246 51.961 l 30.672 51.961 30.719 51.797 30.727 51.465 c 30.855
 51.465 l 30.855 53.031 l 30.727 53.031 l 30.719 52.703 30.672 52.539 30.246
 52.539 c h
27.559 54.371 m 27.559 54.215 l 27.949 53.246 l 28.074 53.297 l 28.043 
53.367 28.016 53.461 28.016 53.543 c 28.016 53.641 28.016 53.793 28.504 
53.793 c 30.246 53.793 l 30.672 53.793 30.719 53.625 30.727 53.297 c 30.855
 53.297 l 30.855 54.863 l 30.727 54.863 l 30.719 54.535 30.672 54.371 30.246
 54.371 c 28.445 54.371 l 28.199 54.605 27.988 54.852 27.988 55.18 c 27.988
 55.395 28.059 55.688 28.766 55.688 c 30.246 55.688 l 30.672 55.688 30.719
 55.523 30.727 55.191 c 30.855 55.191 l 30.855 56.762 l 30.727 56.762 l 
30.719 56.434 30.672 56.266 30.246 56.266 c 28.637 56.266 l 28.102 56.266
 27.559 56.039 27.559 55.461 c 27.559 55.051 27.785 54.77 28.23 54.371 c
 h
25.891 59.016 m 26.555 57.77 27.742 57.082 29.145 57.082 c 30.551 57.082
 31.738 57.77 32.402 59.016 c 32.254 59.016 l 31.68 57.965 30.328 57.754
 29.145 57.754 c 27.965 57.754 26.613 57.965 26.039 59.016 c h
27.027 60.695 m 26.426 60.695 26.246 60.695 26.246 61.367 c 26.117 61.367
 l 26.117 59.348 l 26.246 59.348 l 26.246 60.023 26.426 60.023 27.027 60.023
 c 29.949 60.023 l 30.551 60.023 30.727 60.023 30.727 59.348 c 30.855 59.348
 l 30.855 61.367 l 30.727 61.367 l 30.727 60.695 30.551 60.695 29.949 60.695
 c h
25.891 63.777 m 26.555 62.535 27.742 61.848 29.145 61.848 c 30.551 61.848
 31.738 62.535 32.402 63.777 c 32.254 63.777 l 31.68 62.727 30.328 62.52
 29.145 62.52 c 27.965 62.52 26.613 62.727 26.039 63.777 c h
32.145 68.809 m 32.102 68.023 31.566 67.457 30.906 67.098 c 30.594 68.188
 29.605 68.84 28.488 68.84 c 27.164 68.84 26.012 67.93 26.012 66.52 c 26.012
 65.109 27.164 64.199 28.488 64.199 c 29.652 64.199 30.512 64.793 30.906
 65.895 c 31.68 66.672 32.223 67.707 32.273 68.809 c h
30.727 66.52 m 30.727 65.348 29.531 65.004 28.488 65.004 c 27.422 65.004
 26.27 65.348 26.27 66.52 c 26.27 67.695 27.422 68.035 28.488 68.035 c 29.531
 68.035 30.727 67.695 30.727 66.52 c 32.402 69.258 m 31.738 70.504 30.551
 71.191 29.145 71.191 c 27.742 71.191 26.555 70.504 25.891 69.258 c 26.039
 69.258 l 26.613 70.312 27.965 70.52 29.145 70.52 c 30.328 70.52 31.68 70.312
 32.254 69.258 c h
32.402 71.641 m 31.738 72.887 30.551 73.574 29.145 73.574 c 27.742 73.574
 26.555 72.887 25.891 71.641 c 26.039 71.641 l 26.613 72.695 27.965 72.902
 29.145 72.902 c 30.328 72.902 31.68 72.695 32.254 71.641 c 32.402 71.641
 l f
1 g
167.332 123.648 1.391 -105.746 re f
3.498532 w
1 J
0 j
[] 0.0 d
3.7 M 167.332 123.648 1.391 -105.746 re S
Q q
0 127 165.582 -126.539 re W n
q
0 127 166 -127 re W n
  q
0 g
0.537 w
0 J
1 j
[] 0.0 d
10 M 165.371 18.168 m 165.371 124.484 l S
  Q
Q
Q q
0 g
0.537 w
0 J
1 j
[] 0.0 d
10 M 165.371 30.355 m 164.512 30.355 l S
165.371 28.938 m 164.512 28.938 l S
165.371 27.375 m 164.512 27.375 l S
165.371 25.621 m 164.512 25.621 l S
165.371 23.57 m 164.512 23.57 l S
165.371 21.148 m 164.512 21.148 l S
165.371 18.168 m 164.512 18.168 l S
165.371 30.355 m 163.691 30.355 l S
165.371 39.559 m 164.512 39.559 l S
165.371 44.926 m 164.512 44.926 l S
165.371 48.762 m 164.512 48.762 l S
165.371 51.707 m 164.512 51.707 l S
165.371 54.129 m 164.512 54.129 l S
165.371 56.18 m 164.512 56.18 l S
165.371 57.969 m 164.512 57.969 l S
165.371 59.531 m 164.512 59.531 l S
165.371 60.91 m 164.512 60.91 l S
165.371 60.91 m 163.691 60.91 l S
165.371 70.113 m 164.512 70.113 l S
165.371 75.48 m 164.512 75.48 l S
165.371 79.32 m 164.512 79.32 l S
165.371 82.262 m 164.512 82.262 l S
165.371 84.684 m 164.512 84.684 l S
165.371 86.734 m 164.512 86.734 l S
165.371 88.523 m 164.512 88.523 l S
165.371 90.086 m 164.512 90.086 l S
165.371 91.465 m 164.512 91.465 l S
165.371 91.465 m 163.691 91.465 l S
165.371 100.672 m 164.512 100.672 l S
165.371 106.074 m 164.512 106.074 l S
165.371 109.875 m 164.512 109.875 l S
165.371 112.855 m 164.512 112.855 l S
165.371 115.277 m 164.512 115.277 l S
165.371 117.328 m 164.512 117.328 l S
165.371 119.078 m 164.512 119.078 l S
165.371 120.645 m 164.512 120.645 l S
165.371 122.062 m 164.512 122.062 l S
165.371 122.062 m 163.691 122.062 l S
Q q
0 127 165.582 -126.539 re W n
q
0 127 166 -127 re W n
  q
0 g
0.537 w
0 J
1 j
[] 0.0 d
10 M 165.371 18.168 m 165.371 124.484 l S
  Q
Q
  Q
Q
Q Q
showpage
%%Trailer
end restore
%%EOF
