%!PS-Adobe-3.0 EPSF-3.0
%%Creator: cairo 1.13.1 (http://cairographics.org)
%%CreationDate: Mon Sep 28 16:33:33 2015
%%Pages: 1
%%DocumentData: Clean7Bit
%%LanguageLevel: 2
%%BoundingBox: 0 -1 374 286
%%EndComments
%%BeginProlog
save
50 dict begin
/q { gsave } bind def
/Q { grestore } bind def
/cm { 6 array astore concat } bind def
/w { setlinewidth } bind def
/J { setlinecap } bind def
/j { setlinejoin } bind def
/M { setmiterlimit } bind def
/d { setdash } bind def
/m { moveto } bind def
/l { lineto } bind def
/c { curveto } bind def
/h { closepath } bind def
/re { exch dup neg 3 1 roll 5 3 roll moveto 0 rlineto
      0 exch rlineto 0 rlineto closepath } bind def
/S { stroke } bind def
/f { fill } bind def
/f* { eofill } bind def
/n { newpath } bind def
/W { clip } bind def
/W* { eoclip } bind def
/BT { } bind def
/ET { } bind def
/pdfmark where { pop globaldict /?pdfmark /exec load put }
    { globaldict begin /?pdfmark /pop load def /pdfmark
    /cleartomark load def end } ifelse
/BDC { mark 3 1 roll /BDC pdfmark } bind def
/EMC { mark /EMC pdfmark } bind def
/cairo_store_point { /cairo_point_y exch def /cairo_point_x exch def } def
/Tj { show currentpoint cairo_store_point } bind def
/TJ {
  {
    dup
    type /stringtype eq
    { show } { -0.001 mul 0 cairo_font_matrix dtransform rmoveto } ifelse
  } forall
  currentpoint cairo_store_point
} bind def
/cairo_selectfont { cairo_font_matrix aload pop pop pop 0 0 6 array astore
    cairo_font exch selectfont cairo_point_x cairo_point_y moveto } bind def
/Tf { pop /cairo_font exch def /cairo_font_matrix where
      { pop cairo_selectfont } if } bind def
/Td { matrix translate cairo_font_matrix matrix concatmatrix dup
      /cairo_font_matrix exch def dup 4 get exch 5 get cairo_store_point
      /cairo_font where { pop cairo_selectfont } if } bind def
/Tm { 2 copy 8 2 roll 6 array astore /cairo_font_matrix exch def
      cairo_store_point /cairo_font where { pop cairo_selectfont } if } bind def
/g { setgray } bind def
/rg { setrgbcolor } bind def
/d1 { setcachedevice } bind def
%%EndProlog
%%BeginSetup
%%EndSetup
%%Page: 1 1
%%BeginPageSetup
%%PageBoundingBox: 0 -1 374 286
%%EndPageSetup
q 0 -1 374 287 rectclip q
Q q
0 285.695 373.477 -285.695 re W n
q
0 285.695 374 -286 re W n
[ 1 0 0 1 0 -0.305176 ] concat
  q
1 g
59.012 283.543 338.422 -230.766 re f
59.016 51.918 m 59.016 52.793 l 58.145 52.793 l 58.145 283.555 l 58.266
 283.93 l 58.391 284.18 l 58.641 284.305 l 59.016 284.43 l 397.438 284.43
 l 397.812 284.305 l 398.062 284.18 l 398.184 283.93 l 398.309 283.555 l
 398.309 52.793 l 398.184 52.418 l 398.062 52.168 l 397.812 52.043 l 397.438
 51.918 l h
59.887 53.664 m 396.566 53.664 l 396.566 282.684 l 59.887 282.684 l h
59.887 53.664 m f
0 g
59.012 53.648 338.422 -1.742 re f
59.012 284.414 338.422 -1.746 re f
58.141 283.543 1.742 -230.766 re f
59.012 53.648 338.422 -1.742 re f
58.141 283.543 1.742 -230.766 re f
130.035 54.645 1.746 -1.867 re f
130.035 283.543 1.746 -1.621 re f
121.938 54.645 1.742 -1.867 re f
121.938 283.543 1.742 -1.621 re f
112.965 54.645 1.746 -1.867 re f
112.965 283.543 1.746 -1.621 re f
102.746 54.645 1.746 -1.867 re f
102.746 283.543 1.746 -1.621 re f
90.785 54.645 1.746 -1.867 re f
90.785 283.543 1.746 -1.621 re f
76.832 54.645 1.742 -1.867 re f
76.832 283.543 1.742 -1.621 re f
59.637 54.645 1.742 -1.867 re f
59.637 283.543 1.742 -1.621 re f
130.035 56.266 1.746 -3.488 re f
130.035 283.543 1.746 -3.363 re f
117.082 31.109 m 115.961 31.855 l 115.086 32.855 l 114.465 34.348 l 113.965
 35.969 l 113.84 37.84 l 113.965 39.707 l 114.465 41.328 l 115.086 42.699
 l 115.961 43.82 l 117.082 44.441 l 118.453 44.691 l 119.824 44.441 l 120.945
 43.82 l 121.816 42.699 l 122.562 41.328 l 122.938 39.707 l 123.062 37.84
 l 122.938 35.969 l 122.562 34.348 l 121.816 32.98 l 120.945 31.855 l 119.824
 31.109 l 118.453 30.984 l h
117.457 43.82 m 116.707 43.07 l 116.211 41.824 l 115.836 40.082 l 115.711
 37.715 l 115.836 35.473 l 116.211 33.852 l 116.707 32.605 l 117.457 31.855
 l 118.453 31.609 l 119.449 31.855 l 120.195 32.605 l 120.695 33.852 l 121.07
 35.594 l 121.191 37.84 l 121.07 40.082 l 120.695 41.824 l 120.195 43.07
 l 119.449 43.82 l 118.453 44.07 l h
117.457 43.82 m f
126.055 30.984 m 125.68 30.984 l 125.305 31.234 l 125.055 31.609 l 124.93
 31.98 l 125.055 32.48 l 125.305 32.855 l 125.43 33.102 l 125.805 33.227
 l 126.426 33.227 l 126.676 33.102 l 126.926 32.855 l 127.176 32.355 l 127.176
 31.609 l 126.926 31.234 l 126.551 30.984 l h
126.055 30.984 m f
132.16 31.109 m 131.039 31.855 l 130.164 32.855 l 129.418 34.348 l 129.043
 35.969 l 128.918 37.84 l 129.043 39.707 l 129.418 41.328 l 130.039 42.699
 l 131.039 43.82 l 132.16 44.441 l 133.406 44.691 l 134.777 44.441 l 136.02
 43.82 l 136.895 42.699 l 137.516 41.328 l 137.891 39.707 l 138.141 37.84
 l 137.891 35.969 l 137.516 34.348 l 136.895 32.98 l 135.898 31.855 l 134.777
 31.109 l 133.531 30.984 l h
132.531 43.82 m 131.785 43.07 l 131.16 41.824 l 130.914 40.082 l 130.789
 37.715 l 130.914 35.473 l 131.16 33.852 l 131.785 32.605 l 132.531 31.855
 l 133.531 31.609 l 134.527 31.855 l 135.273 32.605 l 135.773 33.852 l 136.145
 35.594 l 136.145 40.082 l 135.773 41.824 l 135.273 43.07 l 134.527 43.82
 l 133.531 44.07 l h
132.531 43.82 m f
140.758 31.109 m 140.758 31.359 l 141.504 31.359 l 142.004 31.484 l 142.25
 31.734 l 142.5 31.98 l 142.625 32.355 l 142.625 42.699 l 142.5 42.824 l
 142.25 42.945 l 142.004 43.07 l 141.754 42.945 l 141.504 42.945 l 141.129
 42.824 l 140.633 42.574 l 140.633 42.824 l 144.121 44.691 l 144.371 44.566
 l 144.371 32.105 l 144.496 31.855 l 144.621 31.609 l 144.867 31.484 l 145.242
 31.359 l 146.238 31.359 l 146.238 31.109 l h
140.758 31.109 m f
183.367 54.645 1.742 -1.867 re f
183.367 283.543 1.742 -1.621 re f
183.367 54.648 1.742 -1.871 re f
183.367 283.543 1.742 -1.621 re f
183.367 54.648 1.742 -1.871 re f
183.367 283.543 1.742 -1.621 re f
183.367 54.648 1.742 -1.871 re f
183.367 283.543 1.742 -1.621 re f
183.367 54.648 1.742 -1.871 re f
183.367 283.543 1.742 -1.621 re f
183.367 54.648 1.742 -1.871 re f
183.367 283.543 1.742 -1.621 re f
183.367 54.648 1.742 -1.871 re f
183.367 283.543 1.742 -1.621 re f
183.367 54.648 1.742 -1.871 re f
183.367 283.543 1.742 -1.621 re f
183.367 54.648 1.742 -1.871 re f
183.367 283.543 1.742 -1.621 re f
183.367 56.266 1.742 -3.488 re f
183.367 283.543 1.742 -3.363 re f
170.414 31.109 m 169.293 31.859 l 168.418 32.855 l 167.672 34.352 l 167.297
 35.969 l 167.172 37.84 l 167.297 39.707 l 167.672 41.328 l 168.418 42.699
 l 169.293 43.82 l 170.414 44.441 l 171.785 44.691 l 173.152 44.441 l 174.277
 43.82 l 175.148 42.699 l 175.77 41.328 l 176.27 39.707 l 176.395 37.84 
l 176.27 35.969 l 175.77 34.352 l 175.148 32.98 l 174.277 31.859 l 173.152
 31.109 l 171.785 30.984 l h
170.785 43.82 m 170.039 43.074 l 169.539 41.828 l 169.168 40.082 l 169.043
 37.715 l 169.168 35.473 l 169.539 33.852 l 170.039 32.605 l 170.785 31.859
 l 171.785 31.609 l 172.781 31.859 l 173.527 32.605 l 174.027 33.852 l 174.398
 35.598 l 174.523 37.84 l 174.398 40.082 l 174.027 41.828 l 173.527 43.074
 l 172.781 43.82 l 171.785 44.07 l h
170.785 43.82 m f
179.383 30.984 m 178.887 30.984 l 178.512 31.234 l 178.262 31.609 l 178.262
 32.48 l 178.512 32.855 l 178.762 33.105 l 179.012 33.23 l 179.633 33.23
 l 180.008 33.105 l 180.258 32.855 l 180.508 32.355 l 180.508 32.105 l 180.383
 31.609 l 180.133 31.234 l 179.758 30.984 l h
179.383 30.984 m f
185.488 31.109 m 184.367 31.859 l 183.371 32.855 l 182.75 34.352 l 182.375
 35.969 l 182.25 37.84 l 182.375 39.707 l 182.75 41.328 l 183.371 42.699
 l 184.246 43.82 l 185.367 44.441 l 186.734 44.691 l 188.105 44.441 l 189.227
 43.82 l 190.227 42.699 l 190.848 41.328 l 191.223 39.707 l 191.348 37.84
 l 191.223 35.969 l 190.848 34.352 l 190.102 32.98 l 189.227 31.859 l 188.105
 31.109 l 186.734 30.984 l h
185.863 43.82 m 184.992 43.074 l 184.492 41.828 l 184.246 40.082 l 184.121
 37.715 l 184.246 35.473 l 184.492 33.852 l 184.992 32.605 l 185.863 31.859
 l 186.734 31.609 l 187.734 31.859 l 188.48 32.605 l 189.105 33.852 l 189.352
 35.598 l 189.477 37.84 l 189.352 40.082 l 189.105 41.828 l 188.48 43.074
 l 187.734 43.82 l 186.734 44.07 l h
185.863 43.82 m f
192.469 31.109 m 192.469 31.359 l 195.957 35.223 l 197.453 36.969 l 198.324
 38.711 l 198.699 40.332 l 198.449 41.578 l 197.949 42.449 l 196.953 43.074
 l 195.707 43.195 l 195.086 43.195 l 194.586 42.949 l 194.09 42.574 l 193.34
 41.703 l 192.844 40.582 l 192.469 40.703 l 192.965 42.324 l 193.84 43.57
 l 195.086 44.441 l 196.703 44.691 l 198.074 44.441 l 199.32 43.695 l 200.07
 42.449 l 200.316 41.078 l 200.07 39.461 l 199.07 37.84 l 197.453 35.969
 l 194.336 32.605 l 199.695 32.605 l 200.07 32.73 l 200.316 32.98 l 200.816
 33.352 l 201.191 34.102 l 201.438 33.852 l 200.316 31.109 l h
192.469 31.109 m f
236.695 54.648 1.746 -1.871 re f
236.695 283.543 1.746 -1.621 re f
253.766 54.648 1.746 -1.871 re f
253.766 283.543 1.746 -1.621 re f
253.766 54.648 1.746 -1.871 re f
253.766 283.543 1.746 -1.621 re f
253.766 54.648 1.746 -1.871 re f
253.766 283.543 1.746 -1.621 re f
253.766 54.648 1.746 -1.871 re f
253.766 283.543 1.746 -1.617 re f
253.766 54.648 1.746 -1.871 re f
253.766 283.543 1.746 -1.617 re f
253.766 54.648 1.746 -1.871 re f
253.766 283.543 1.746 -1.617 re f
253.766 54.648 1.746 -1.871 re f
253.766 283.543 1.746 -1.617 re f
253.766 54.648 1.746 -1.871 re f
253.766 283.543 1.746 -1.617 re f
253.766 56.27 1.746 -3.492 re f
253.766 283.543 1.746 -3.363 re f
240.816 31.109 m 239.695 31.859 l 238.82 32.855 l 238.199 34.352 l 237.699
 35.973 l 237.574 37.84 l 237.699 39.707 l 238.074 41.328 l 238.82 42.699
 l 239.695 43.82 l 240.816 44.445 l 242.188 44.691 l 243.555 44.445 l 244.68
 43.82 l 245.551 42.699 l 246.297 41.328 l 246.672 39.707 l 246.797 37.84
 l 246.672 35.973 l 246.297 34.352 l 245.551 32.98 l 244.68 31.859 l 243.555
 31.109 l 242.188 30.988 l h
241.188 43.82 m 240.441 43.074 l 239.941 41.828 l 239.57 40.082 l 239.445
 37.715 l 239.57 35.473 l 239.941 33.852 l 240.441 32.605 l 241.188 31.859
 l 242.188 31.609 l 243.184 31.859 l 243.93 32.605 l 244.43 33.852 l 244.801
 35.598 l 244.926 37.84 l 244.801 40.082 l 244.43 41.828 l 243.93 43.074
 l 243.184 43.82 l 242.188 44.07 l h
241.188 43.82 m f
249.785 30.988 m 249.414 30.988 l 249.039 31.234 l 248.789 31.609 l 248.664
 31.984 l 248.789 32.48 l 248.914 32.855 l 249.164 33.105 l 249.414 33.23
 l 250.16 33.23 l 250.41 33.105 l 250.66 32.855 l 250.91 32.355 l 250.91
 31.609 l 250.66 31.234 l 250.285 30.988 l h
249.785 30.988 m f
255.891 31.109 m 254.77 31.859 l 253.773 32.855 l 253.152 34.352 l 252.777
 35.973 l 252.652 37.84 l 252.777 39.707 l 253.152 41.328 l 253.773 42.699
 l 254.77 43.82 l 255.891 44.445 l 257.137 44.691 l 258.508 44.445 l 259.629
 43.82 l 260.629 42.699 l 261.25 41.328 l 261.625 39.707 l 261.75 37.84 
l 261.625 35.973 l 261.25 34.352 l 260.629 32.98 l 259.629 31.859 l 258.508
 31.109 l 257.262 30.988 l h
256.266 43.82 m 255.52 43.074 l 254.895 41.828 l 254.645 40.082 l 254.523
 37.715 l 254.645 35.473 l 254.895 33.852 l 255.52 32.605 l 256.266 31.859
 l 257.262 31.609 l 258.137 31.859 l 259.008 32.605 l 259.508 33.852 l 259.754
 35.598 l 259.879 37.84 l 259.754 40.082 l 259.508 41.828 l 259.008 43.074
 l 258.137 43.82 l 257.262 44.07 l h
256.266 43.82 m f
263.992 31.113 m 263.121 31.484 l 262.871 32.109 l 262.871 32.355 l 262.996
 32.605 l 263.367 32.73 l 263.617 32.855 l 264.367 32.605 l 265.113 32.355
 l 265.859 31.984 l 266.234 31.859 l 266.484 31.734 l 267.105 31.859 l 267.605
 31.984 l 267.98 32.234 l 268.477 32.73 l 269.102 33.852 l 269.352 35.348
 l 269.102 36.469 l 268.602 37.465 l 267.73 38.34 l 265.859 39.211 l 263.867
 39.461 l 263.617 39.461 l 263.492 39.586 l 263.492 39.832 l 263.617 39.957
 l 263.867 40.707 l 265.613 44.445 l 269.598 44.445 l 270.098 44.57 l 270.348
 44.57 l 270.598 44.691 l 270.844 44.941 l 270.969 44.816 l 270.223 43.199
 l 270.098 43.074 l 265.734 43.074 l 264.863 41.203 l 267.105 40.707 l 269.102
 39.707 l 269.973 38.711 l 270.598 37.34 l 270.719 35.723 l 270.598 34.352
 l 270.098 33.23 l 269.227 32.355 l 268.105 31.484 l 266.859 31.113 l 265.363
 30.988 l h
263.992 31.113 m f
307.098 54.648 1.742 -1.871 re f
307.098 283.543 1.742 -1.617 re f
307.098 54.648 1.742 -1.871 re f
307.098 283.543 1.742 -1.617 re f
307.098 54.648 1.742 -1.871 re f
307.098 283.543 1.742 -1.617 re f
307.098 54.648 1.742 -1.871 re f
307.098 283.543 1.742 -1.617 re f
307.098 54.648 1.742 -1.871 re f
307.098 283.543 1.742 -1.617 re f
307.098 54.648 1.742 -1.871 re f
307.098 283.543 1.742 -1.617 re f
307.098 54.648 1.742 -1.871 re f
307.098 283.543 1.742 -1.617 re f
307.098 54.648 1.742 -1.871 re f
307.098 283.543 1.742 -1.617 re f
307.098 54.648 1.742 -1.871 re f
307.098 283.543 1.742 -1.617 re f
307.098 56.27 1.742 -3.488 re f
307.098 283.543 1.742 -3.363 re f
299.129 31.113 m 298.008 31.859 l 297.137 32.855 l 296.391 34.352 l 296.016
 35.973 l 295.891 37.84 l 296.016 39.711 l 296.391 41.328 l 297.137 42.699
 l 298.008 43.82 l 299.129 44.445 l 300.5 44.695 l 301.871 44.445 l 302.992
 43.82 l 303.867 42.699 l 304.488 41.328 l 304.988 39.711 l 305.113 37.84
 l 304.988 35.973 l 304.488 34.352 l 303.867 32.98 l 302.992 31.859 l 301.871
 31.113 l 300.5 30.988 l h
299.504 43.82 m 298.758 43.074 l 298.258 41.828 l 297.887 40.082 l 297.762
 37.715 l 297.887 35.473 l 298.258 33.852 l 298.758 32.605 l 299.504 31.859
 l 300.5 31.609 l 301.5 31.859 l 302.246 32.605 l 302.746 33.852 l 303.117
 35.598 l 303.242 37.84 l 303.117 40.082 l 302.746 41.828 l 302.246 43.074
 l 301.5 43.82 l 300.5 44.07 l h
299.504 43.82 m f
308.102 30.988 m 307.605 30.988 l 307.23 31.238 l 306.98 31.609 l 306.98
 32.484 l 307.23 32.855 l 307.48 33.105 l 307.73 33.23 l 308.352 33.23 l
 308.727 33.105 l 308.973 32.855 l 309.098 32.605 l 309.223 32.359 l 309.223
 31.609 l 308.852 31.238 l 308.477 30.988 l h
308.102 30.988 m f
312.836 31.113 m 312.836 31.359 l 313.461 31.359 l 313.957 31.484 l 314.332
 31.734 l 314.457 31.984 l 314.582 32.359 l 314.707 32.98 l 314.707 42.449
 l 314.582 42.699 l 314.332 42.949 l 313.957 43.074 l 313.711 42.949 l 313.461
 42.949 l 313.086 42.824 l 312.59 42.574 l 312.59 42.824 l 316.078 44.695
 l 316.328 44.57 l 316.328 32.109 l 316.449 31.859 l 316.699 31.609 l 317.199
 31.359 l 318.195 31.359 l 318.195 31.113 l h
312.836 31.113 m f
360.305 283.543 1.742 -1.617 re f
360.305 283.547 1.742 -1.621 re f
360.305 283.547 1.742 -1.621 re f
360.305 283.547 1.742 -1.621 re f
360.305 283.547 1.742 -1.621 re f
360.305 283.547 1.742 -1.621 re f
360.305 283.547 1.742 -1.621 re f
360.305 283.547 1.742 -1.621 re f
360.305 283.547 1.742 -1.621 re f
360.305 283.547 1.742 -3.367 re f
352.461 31.113 m 351.34 31.859 l 350.344 32.855 l 349.723 34.352 l 349.348
 35.973 l 349.223 37.84 l 349.348 39.711 l 349.723 41.328 l 350.344 42.699
 l 351.34 43.82 l 352.461 44.445 l 353.707 44.695 l 355.078 44.445 l 356.199
 43.82 l 357.195 42.699 l 357.82 41.328 l 358.195 39.711 l 358.32 37.84 
l 358.195 35.973 l 357.82 34.352 l 357.195 32.98 l 356.199 31.859 l 355.078
 31.113 l 353.832 30.988 l h
352.836 43.82 m 352.09 43.074 l 351.465 41.828 l 351.215 40.086 l 351.09
 37.715 l 351.215 35.473 l 351.465 33.855 l 352.09 32.609 l 352.836 31.859
 l 353.832 31.609 l 354.703 31.859 l 355.578 32.609 l 356.074 33.855 l 356.324
 35.598 l 356.449 37.84 l 356.324 40.086 l 356.074 41.828 l 355.578 43.074
 l 354.703 43.82 l 353.832 44.07 l h
352.836 43.82 m f
361.309 30.988 m 360.934 30.988 l 360.562 31.238 l 360.312 31.609 l 360.188
 31.984 l 360.312 32.484 l 360.562 32.855 l 360.812 33.105 l 361.059 33.23
 l 361.684 33.23 l 361.934 33.105 l 362.18 32.855 l 362.43 32.609 l 362.555
 32.359 l 362.555 32.109 l 362.43 31.609 l 362.18 31.238 l 361.809 30.988
 l h
361.309 30.988 m f
364.426 31.113 m 364.426 31.363 l 368.039 35.227 l 369.531 36.969 l 370.406
 38.715 l 370.656 40.332 l 370.531 41.578 l 369.906 42.453 l 369.035 43.074
 l 367.789 43.199 l 367.164 43.199 l 366.543 42.949 l 366.043 42.578 l 365.422
 41.703 l 364.797 40.582 l 364.426 40.707 l 364.922 42.328 l 365.797 43.574
 l 367.164 44.445 l 368.785 44.695 l 370.156 44.445 l 371.277 43.699 l 372.023
 42.453 l 372.398 41.082 l 372.023 39.461 l 371.027 37.84 l 369.531 35.973
 l 366.293 32.609 l 371.652 32.609 l 372.023 32.734 l 372.398 32.98 l 372.773
 33.355 l 373.148 34.102 l 373.395 33.855 l 372.273 31.113 l h
364.426 31.113 m f
59.012 63.996 1.746 -1.746 re f
59.012 61.004 1.746 -1.742 re f
59.012 57.641 1.746 -1.746 re f
59.012 53.652 1.746 -1.742 re f
59.012 63.996 3.363 -1.746 re f
30.73 56.035 m 30.73 56.285 l 31.477 56.285 l 31.977 56.41 l 32.473 56.906
 l 32.598 57.281 l 32.598 67.625 l 32.473 67.75 l 32.227 67.871 l 31.977
 67.996 l 31.727 67.871 l 31.477 67.871 l 31.102 67.75 l 30.605 67.5 l 30.605
 67.75 l 34.094 69.617 l 34.344 69.492 l 34.344 57.031 l 34.469 56.785 l
 34.594 56.535 l 34.84 56.41 l 35.215 56.285 l 36.211 56.285 l 36.211 56.035
 l h
30.73 56.035 m f
42.191 56.035 m 41.07 56.785 l 40.074 57.781 l 39.453 59.277 l 39.078 60.895
 l 38.953 62.766 l 39.078 64.633 l 39.453 66.254 l 40.074 67.625 l 40.945
 68.746 l 42.07 69.367 l 43.438 69.617 l 44.809 69.367 l 45.93 68.746 l 
46.93 67.625 l 47.551 66.254 l 47.926 64.633 l 48.051 62.766 l 47.926 60.895
 l 47.551 59.277 l 46.805 57.906 l 45.93 56.785 l 44.809 56.035 l 43.438
 55.91 l h
42.566 68.746 m 41.695 67.996 l 41.195 66.75 l 40.824 65.008 l 40.824 60.398
 l 41.195 58.777 l 41.695 57.531 l 42.566 56.785 l 43.438 56.535 l 44.438
 56.785 l 45.184 57.531 l 45.805 58.777 l 46.055 60.52 l 46.18 62.766 l 
46.055 65.008 l 45.805 66.75 l 45.184 67.996 l 44.438 68.746 l 43.438 68.996
 l h
42.566 68.746 m f
50.668 68.121 m 49.668 68.996 l 49.047 70.242 l 48.922 71.859 l 49.047 
73.23 l 49.668 74.477 l 50.418 75.598 l 51.664 76.348 l 52.91 76.969 l 54.281
 77.094 l 54.281 76.844 l 52.91 76.473 l 51.789 75.598 l 50.914 74.602 l
 50.418 73.23 l 50.914 73.48 l 51.414 73.73 l 51.789 73.73 l 52.16 73.855
 l 52.785 73.73 l 53.16 73.605 l 53.656 73.355 l 53.906 72.98 l 54.406 72.109
 l 54.652 70.988 l 54.406 69.742 l 53.906 68.746 l 53.035 68 l 51.914 67.875
 l h
50.914 73.105 m 50.543 72.98 l 50.418 72.734 l 50.168 71.984 l 50.168 71.488
 l 50.293 70.242 l 50.668 69.246 l 50.914 68.746 l 51.164 68.496 l 51.539
 68.246 l 51.914 68.246 l 52.785 68.496 l 53.16 69.246 l 53.406 70.492 l
 53.281 71.363 l 53.16 71.984 l 52.91 72.484 l 52.66 72.859 l 52.41 73.105
 l 52.035 73.23 l 51.164 73.23 l h
50.914 73.105 m f
59.012 84.18 1.746 -1.742 re f
59.012 96.02 1.746 -1.746 re f
59.012 104.367 1.746 -1.746 re f
59.012 110.723 1.746 -1.746 re f
59.012 115.957 1.746 -1.746 re f
59.012 120.566 1.746 -1.746 re f
59.012 124.305 1.746 -1.746 re f
59.012 127.793 1.746 -1.746 re f
59.012 130.906 1.746 -1.742 re f
59.012 130.906 3.363 -1.742 re f
30.73 122.953 m 30.73 123.074 l 31.477 123.199 l 31.977 123.324 l 32.227
 123.449 l 32.473 123.699 l 32.598 124.199 l 32.598 134.414 l 32.473 134.664
 l 32.227 134.789 l 31.727 134.789 l 31.477 134.664 l 31.102 134.539 l 30.605
 134.414 l 30.605 134.664 l 34.094 136.535 l 34.344 136.41 l 34.344 123.949
 l 34.469 123.574 l 34.594 123.449 l 34.84 123.324 l 35.215 123.199 l 35.59
 123.199 l 36.211 123.074 l 36.211 122.953 l h
30.73 122.953 m f
42.191 122.953 m 41.07 123.574 l 40.074 124.695 l 39.453 126.066 l 39.078
 127.812 l 38.953 129.555 l 39.078 131.426 l 39.453 133.043 l 40.074 134.539
 l 40.945 135.66 l 42.07 136.285 l 43.438 136.535 l 44.809 136.285 l 45.93
 135.66 l 46.93 134.539 l 47.551 133.043 l 47.926 131.426 l 48.051 129.555
 l 47.926 127.812 l 47.551 126.191 l 46.805 124.695 l 45.93 123.574 l 44.809
 122.953 l 43.438 122.703 l h
42.566 135.66 m 41.695 134.914 l 41.195 133.543 l 40.824 131.797 l 40.824
 127.312 l 41.195 125.566 l 41.695 124.32 l 42.566 123.574 l 43.438 123.324
 l 44.438 123.574 l 45.184 124.32 l 45.805 125.566 l 46.055 127.312 l 46.18
 129.555 l 46.055 131.797 l 45.805 133.668 l 45.184 134.914 l 44.438 135.66
 l 43.438 135.91 l h
42.566 135.66 m f
50.914 134.664 m 53.406 142.766 l 50.168 142.766 l 49.668 142.516 l 49.422
 142.141 l 49.047 141.645 l 48.797 141.766 l 49.047 142.266 l 49.297 143.012
 l 49.547 143.762 l 54.527 143.762 l 54.527 143.512 l 51.664 134.664 l h
50.914 134.664 m f
59.012 150.969 1.746 -1.742 re f
59.012 162.684 1.746 -1.746 re f
59.012 171.031 1.746 -1.746 re f
59.012 177.512 1.746 -1.746 re f
59.012 182.867 1.746 -1.742 re f
59.012 187.355 1.746 -1.746 re f
59.012 191.215 1.746 -1.742 re f
59.012 194.582 1.746 -1.746 re f
59.012 197.695 1.746 -1.742 re f
59.012 197.695 3.363 -1.742 re f
30.73 189.742 m 30.73 189.867 l 31.477 189.992 l 31.977 190.117 l 32.227
 190.242 l 32.473 190.492 l 32.598 190.863 l 32.598 201.207 l 32.473 201.332
 l 32.227 201.582 l 31.727 201.582 l 31.477 201.457 l 31.102 201.332 l 30.605
 201.207 l 30.605 201.332 l 34.094 203.199 l 34.344 203.074 l 34.344 190.738
 l 34.469 190.367 l 34.594 190.117 l 34.84 189.992 l 35.215 189.992 l 35.59
 189.867 l 36.211 189.867 l 36.211 189.742 l h
30.73 189.742 m f
42.191 189.742 m 41.07 190.367 l 40.074 191.488 l 39.453 192.859 l 39.078
 194.477 l 38.953 196.348 l 39.078 198.215 l 39.453 199.836 l 40.074 201.332
 l 40.945 202.328 l 42.07 203.074 l 43.438 203.199 l 44.809 203.074 l 45.93
 202.328 l 46.93 201.332 l 47.551 199.836 l 47.926 198.215 l 48.051 196.348
 l 47.926 194.477 l 47.551 192.859 l 46.805 191.488 l 45.93 190.367 l 44.809
 189.742 l 43.438 189.492 l h
42.566 202.328 m 41.695 201.582 l 41.195 200.336 l 40.824 198.59 l 40.824
 194.105 l 41.195 192.359 l 41.695 191.113 l 42.566 190.367 l 43.438 190.117
 l 44.438 190.367 l 45.184 191.113 l 45.805 192.359 l 46.055 194.105 l 46.18
 196.348 l 46.055 198.59 l 45.805 200.336 l 45.184 201.582 l 44.438 202.328
 l 43.438 202.578 l h
42.566 202.328 m f
51.664 201.457 m 51.039 201.457 l 50.418 201.707 l 49.918 202.078 l 49.547
 202.453 l 49.297 202.953 l 49.172 203.574 l 49.297 204.074 l 49.422 204.445
 l 49.547 204.82 l 49.918 205.195 l 50.293 205.566 l 50.914 206.066 l 50.418
 206.441 l 50.043 206.812 l 49.793 207.188 l 49.547 207.438 l 49.422 208.059
 l 49.297 208.559 l 49.422 209.059 l 49.668 209.555 l 50.043 210.055 l 50.543
 210.305 l 51.164 210.551 l 51.789 210.676 l 52.41 210.551 l 52.91 210.426
 l 53.406 210.055 l 53.781 209.68 l 54.031 209.305 l 54.031 208.309 l 53.906
 207.934 l 53.656 207.562 l 53.281 207.188 l 52.785 206.938 l 52.285 206.566
 l 52.91 206.066 l 53.406 205.691 l 53.656 205.32 l 54.156 204.57 l 54.281
 204.074 l 54.281 203.074 l 54.031 202.578 l 53.656 202.078 l 53.281 201.828
 l 52.785 201.582 l 52.285 201.457 l h
50.418 204.82 m 50.168 203.699 l 50.168 203.199 l 50.418 202.828 l 50.668
 202.453 l 50.914 202.078 l 51.914 201.828 l 52.285 201.953 l 52.66 202.078
 l 53.16 202.578 l 53.281 202.953 l 53.406 203.324 l 53.281 203.699 l 53.16
 204.074 l 52.91 204.445 l 52.66 204.695 l 52.285 204.945 l 51.914 205.32
 l 51.289 205.816 l h
50.914 210.055 m 50.668 209.805 l 50.418 209.555 l 50.293 209.305 l 50.293
 208.934 l 50.668 207.812 l 51.914 206.812 l 52.285 207.188 l 52.66 207.438
 l 52.91 207.812 l 53.035 208.184 l 53.035 209.18 l 52.91 209.555 l 52.41
 210.055 l 52.039 210.18 l 51.289 210.18 l h
50.914 210.055 m f
59.012 217.633 1.746 -1.746 re f
59.012 229.469 1.746 -1.742 re f
59.012 237.82 1.746 -1.746 re f
59.012 244.297 1.746 -1.742 re f
59.012 249.656 1.746 -1.746 re f
59.012 254.016 1.746 -1.742 re f
59.012 258.004 1.746 -1.742 re f
59.012 261.246 1.746 -1.746 re f
59.012 264.359 1.746 -1.746 re f
59.012 264.359 3.363 -1.742 re f
30.73 256.41 m 30.73 256.66 l 31.477 256.66 l 31.977 256.785 l 32.227 257.031
 l 32.473 257.281 l 32.598 257.656 l 32.598 267.996 l 32.473 268.121 l 32.227
 268.246 l 31.977 268.371 l 31.727 268.246 l 31.477 268.246 l 31.102 268.121
 l 30.605 267.871 l 30.605 268.121 l 34.094 269.992 l 34.344 269.867 l 34.344
 257.406 l 34.594 256.906 l 34.84 256.785 l 35.215 256.66 l 36.211 256.66
 l 36.211 256.41 l h
30.73 256.41 m f
42.191 256.41 m 41.07 257.156 l 40.074 258.152 l 39.453 259.648 l 39.078
 261.27 l 38.953 263.137 l 39.078 265.008 l 39.453 266.629 l 40.074 267.996
 l 40.945 269.117 l 42.07 269.742 l 43.438 269.992 l 44.809 269.742 l 45.93
 269.117 l 46.93 267.996 l 47.551 266.629 l 47.926 265.008 l 48.051 263.137
 l 47.926 261.27 l 47.551 259.648 l 46.805 258.277 l 45.93 257.156 l 44.809
 256.41 l 43.438 256.285 l h
42.566 269.117 m 41.695 268.371 l 41.195 267.125 l 40.824 265.383 l 40.824
 260.77 l 41.195 259.152 l 41.695 257.906 l 42.566 257.156 l 43.438 256.906
 l 44.438 257.156 l 45.184 257.906 l 45.805 259.152 l 46.055 260.895 l 46.18
 263.137 l 46.055 265.383 l 45.805 267.125 l 45.184 268.371 l 44.438 269.117
 l 43.438 269.367 l h
42.566 269.117 m f
49.172 268.121 m 49.172 268 l h
49.172 268.246 m 49.172 268.371 l 50.668 268.746 l 51.914 269.492 l 52.785
 270.738 l 53.406 272.109 l 52.41 271.613 l 51.289 271.363 l 50.793 271.488
 l 50.293 271.613 l 49.918 271.859 l 49.547 272.234 l 49.172 272.734 l 49.047
 273.355 l 48.922 274.105 l 49.047 275.352 l 49.668 276.348 l 50.543 277.094
 l 51.664 277.344 l 52.785 277.094 l 53.781 276.348 l 54.406 275.227 l 54.652
 273.605 l 54.406 272.234 l 53.906 270.863 l 53.16 269.742 l 52.035 268.871
 l 50.793 268.371 l 49.172 268.121 l h
50.793 276.719 m 50.293 275.848 l 50.168 274.602 l 50.168 273.855 l 50.293
 273.23 l 50.543 272.734 l 50.793 272.359 l 51.164 272.109 l 51.539 271.984
 l 52.285 271.984 l 53.035 272.359 l 53.281 272.609 l 53.406 272.734 l 53.406
 273.23 l 53.281 274.977 l 52.91 276.098 l 52.66 276.473 l 52.41 276.719
 l 52.035 276.969 l 51.539 276.969 l h
50.793 276.719 m f
59.012 284.422 1.746 -1.746 re f
59.012 53.656 338.422 -1.746 re f
59.012 284.422 338.422 -1.746 re f
58.141 283.551 1.742 -230.766 re f
205.676 3.953 m 205.055 4.574 l 204.555 5.445 l 204.305 6.445 l 204.18 
7.566 l 203.559 7.316 l 202.934 7.316 l 202.312 7.191 l 200.195 7.566 l 
198.324 8.562 l 196.828 10.18 l 195.957 12.176 l 195.582 14.418 l 195.957
 16.785 l 196.828 18.777 l 198.324 20.398 l 200.195 21.395 l 202.188 21.77
 l 204.305 21.395 l 206.176 20.398 l 207.547 18.777 l 208.543 16.785 l 208.914
 14.418 l 208.543 12.301 l 207.793 10.43 l 206.422 8.812 l 204.805 7.812
 l 205.055 7.191 l 205.301 6.691 l 205.676 6.32 l 205.926 6.07 l 206.301
 5.945 l 206.797 5.82 l 207.547 6.07 l 207.918 6.32 l 208.293 6.566 l 208.543
 7.566 l 208.668 7.688 l 208.668 7.812 l 208.793 7.938 l 208.914 7.812 l
 209.039 7.812 l 209.039 6.816 l 208.793 6.07 l 208.543 5.199 l 208.168 
4.449 l 207.547 3.953 l 206.547 3.828 l h
201.812 10.059 m 201.562 9.934 l 201.316 9.684 l 201.066 9.309 l 201.066
 8.562 l 201.316 8.062 l 201.562 7.938 l 201.812 7.812 l 202.312 7.688 l
 202.809 7.812 l 203.309 7.938 l 204.055 8.188 l 203.684 9.184 l 203.184
 9.934 l 202.312 10.18 l h
200.941 7.938 m 200.816 8.062 l 200.816 8.312 l 200.691 8.562 l 200.691
 9.309 l 200.816 9.809 l 201.066 10.059 l 201.441 10.43 l 201.812 10.555
 l 202.312 10.68 l 203.059 10.43 l 203.684 9.934 l 204.18 9.309 l 204.555
 8.562 l 205.551 9.559 l 206.301 10.805 l 206.672 12.176 l 206.797 13.422
 l 206.922 14.418 l 206.797 16.41 l 206.301 18.031 l 205.676 19.277 l 204.93
 20.148 l 204.055 20.773 l 203.059 21.145 l 202.188 21.27 l 201.441 21.145
 l 200.441 20.898 l 199.57 20.273 l 198.824 19.277 l 198.199 18.031 l 197.703
 16.41 l 197.578 14.418 l 197.703 12.426 l 198.199 10.805 l 198.824 9.684
 l 199.57 8.812 l 200.316 8.312 l h
200.941 7.938 m f
223.621 2.707 m 223.246 2.828 l 222 4.074 l 221.254 5.074 l 220.504 6.445
 l 219.633 8.688 l 219.258 10.805 l 219.133 12.672 l 219.258 14.543 l 219.633
 16.535 l 220.379 18.777 l 221.129 20.148 l 222 21.27 l 222.746 22.02 l 
223.246 22.516 l 223.621 22.641 l 223.742 22.641 l 223.742 22.395 l 223.621
 22.27 l 223.496 22.145 l 222.25 20.523 l 221.375 18.777 l 220.754 16.785
 l 220.379 14.793 l 220.254 12.672 l 220.379 10.805 l 220.629 8.812 l 221.254
 6.816 l 222.125 4.949 l 223.496 3.328 l 223.621 3.078 l 223.742 2.953 l
 223.742 2.707 l h
223.621 2.707 m f
231.594 22.02 m 231.098 22.145 l 230.723 22.52 l 230.473 22.766 l 230.223
 23.266 l 230.223 24.137 l 230.723 24.887 l 231.098 25.258 l 231.594 25.383
 l 232.094 25.508 l 232.59 25.383 l 233.09 25.258 l 233.465 24.887 l 233.711
 24.512 l 233.961 24.137 l 234.086 23.766 l 233.961 23.266 l 233.711 22.766
 l 233.09 22.145 l 232.59 22.02 l 232.094 21.895 l h
231.344 24.887 m 231.098 24.762 l 230.848 24.387 l 230.723 24.137 l 230.723
 23.266 l 230.848 22.891 l 231.098 22.645 l 231.344 22.52 l 231.719 22.395
 l 232.465 22.395 l 232.84 22.52 l 233.09 22.766 l 233.34 23.016 l 233.465
 23.266 l 233.465 24.137 l 233.34 24.512 l 233.09 24.762 l 232.84 24.887
 l 232.465 25.012 l 231.719 25.012 l h
231.344 24.887 m f
236.328 7.691 m 233.465 7.691 l 233.465 8.312 l 234.336 8.312 l 234.836
 8.562 l 235.082 8.688 l 235.082 9.184 l 233.961 12.176 l 229.102 12.176
 l 228.105 9.559 l 228.105 9.059 l 228.355 8.688 l 228.605 8.438 l 229.102
 8.312 l 229.602 8.312 l 229.602 7.691 l 225.238 7.691 l 225.238 8.312 l
 226.238 8.438 l 226.984 8.812 l 227.484 9.684 l 231.594 21.645 l 231.969
 22.02 l 232.344 22.02 l 232.465 21.895 l 232.465 21.77 l 232.59 21.645 
l 236.953 9.059 l 237.078 8.812 l 237.203 8.562 l 237.449 8.438 l 237.699
 8.312 l 238.945 8.312 l 238.945 7.691 l h
229.227 12.797 m 233.836 12.797 l 231.469 19.402 l h
229.227 12.797 m f
239.812 18.395 4.109 -1 re f
250.785 14.918 m 246.547 14.918 l 246.547 15.414 l 247.918 15.414 l 248.168
 15.539 l 248.293 15.539 l 248.418 15.664 l 248.418 23.141 l 247.293 22.891
 l 246.422 22.766 l 246.422 23.266 l 247.172 23.391 l 248.168 23.641 l 249.164
 24.262 l 249.414 24.137 l 249.539 24.137 l 249.539 15.664 l 249.664 15.539
 l 249.785 15.539 l 250.035 15.414 l 251.531 15.414 l 251.531 14.918 l h
250.785 14.918 m f
255.145 2.707 m 255.145 2.953 l 255.395 3.203 l 256.641 4.824 l 257.637
 6.691 l 258.137 8.562 l 258.508 10.555 l 258.633 12.672 l 258.383 15.664
 l 257.762 18.156 l 256.766 20.273 l 255.52 22.02 l 255.27 22.27 l 255.145
 22.27 l 255.145 22.641 l 255.27 22.641 l 255.645 22.516 l 256.891 21.27
 l 257.637 20.273 l 258.508 18.902 l 259.258 16.66 l 259.629 14.543 l 259.754
 12.672 l 259.629 10.805 l 259.258 8.812 l 258.508 6.566 l 257.762 5.199
 l 256.891 4.074 l 256.141 3.328 l 255.645 2.828 l 255.27 2.707 l h
255.145 2.707 m f
16.773 149.496 m 16.773 149.992 l 16.648 150.617 l 16.648 151.113 l 16.523
 151.363 l 16.273 151.613 l 16.027 151.738 l 4.938 151.738 l 4.688 151.613
 l 4.438 151.363 l 4.312 151.113 l 4.312 149.496 l 3.691 149.496 l 3.691
 155.602 l 4.312 155.602 l 4.312 154.105 l 4.562 153.605 l 4.688 153.484
 l 16.273 153.484 l 16.398 153.605 l 16.648 154.105 l 16.648 154.48 l 16.773
 155.102 l 16.773 155.602 l 17.398 155.602 l 17.273 154.727 l 17.273 150.492
 l 17.398 149.496 l h
16.773 149.496 m f
10.543 158.469 m 8.426 158.84 l 6.184 159.715 l 4.812 160.461 l 3.816 161.207
 l 2.941 161.957 l 2.445 162.578 l 2.32 162.828 l 2.32 162.953 l 2.57 163.078
 l 2.691 162.953 l 2.816 162.828 l 4.438 161.457 l 6.309 160.586 l 8.176
 159.961 l 10.293 159.715 l 12.289 159.59 l 14.281 159.59 l 16.273 159.961
 l 18.145 160.461 l 20.012 161.457 l 21.758 162.703 l 21.883 162.953 l 22.008
 162.953 l 22.133 163.078 l 22.258 162.953 l 22.379 162.828 l 22.258 162.578
 l 21.758 161.957 l 21.012 161.332 l 19.887 160.461 l 18.641 159.715 l 16.273
 158.84 l 14.156 158.469 l 12.289 158.344 l h
10.543 158.469 m f
8.176 165.32 m 6.184 166.316 l 4.562 167.812 l 3.566 169.559 l 3.191 171.676
 l 3.566 173.793 l 4.688 175.539 l 6.184 177.035 l 8.176 178.031 l 10.543
 178.281 l 12.66 178.031 l 14.656 177.156 l 16.152 175.91 l 17.148 174.293
 l 17.77 174.543 l 18.27 174.789 l 18.641 175.039 l 19.141 175.789 l 19.141
 176.535 l 19.016 177.035 l 18.766 177.406 l 18.395 177.656 l 18.02 177.906
 l 17.52 178.031 l 17.148 178.031 l 17.148 178.281 l 17.273 178.402 l 18.145
 178.402 l 18.891 178.281 l 19.766 178.031 l 20.512 177.531 l 21.012 176.91
 l 21.258 176.035 l 21.012 175.039 l 20.512 174.418 l 19.641 174.043 l 18.641
 173.793 l 17.52 173.543 l 17.645 172.922 l 17.77 172.297 l 17.77 171.676
 l 17.395 169.559 l 16.398 167.688 l 14.902 166.316 l 12.91 165.32 l 10.543
 164.945 l h
8.551 176.16 m 6.93 175.664 l 5.684 175.039 l 4.812 174.293 l 4.188 173.418
 l 3.816 172.547 l 3.691 171.676 l 3.816 170.805 l 4.188 169.93 l 4.812 
169.059 l 5.684 168.188 l 6.93 167.562 l 8.551 167.191 l 10.543 166.941 
l 12.66 167.191 l 14.156 167.562 l 15.402 168.312 l 16.152 168.934 l 16.773
 169.68 l 17.023 170.305 l 16.898 170.305 l 16.773 170.18 l 16.398 170.055
 l 15.652 170.055 l 15.277 170.18 l 14.902 170.43 l 14.656 170.805 l 14.406
 171.176 l 14.406 171.676 l 14.531 172.422 l 15.027 173.047 l 15.652 173.543
 l 16.523 173.918 l 15.402 175.039 l 14.156 175.664 l 12.91 176.035 l 11.664
 176.285 l 10.543 176.285 l h
15.777 173.172 m 15.027 172.547 l 14.781 171.676 l 14.902 171.301 l 15.027
 170.93 l 15.402 170.68 l 15.652 170.555 l 16.027 170.43 l 16.273 170.555
 l 16.398 170.555 l 17.148 170.93 l 17.273 171.301 l 17.273 172.172 l 17.148
 172.797 l 16.773 173.418 l h
15.777 173.172 m f
22.008 181.02 m 22.008 181.145 l 21.758 181.27 l 20.137 182.641 l 18.395
 183.512 l 16.398 184.137 l 14.406 184.387 l 12.289 184.512 l 9.422 184.262
 l 6.805 183.762 l 4.688 182.766 l 2.941 181.395 l 2.816 181.27 l 2.695 
181.145 l 2.57 181.02 l 2.32 181.145 l 2.32 181.27 l 2.445 181.52 l 2.941
 182.02 l 3.691 182.766 l 4.812 183.637 l 6.059 184.387 l 8.426 185.133 
l 10.543 185.633 l 14.156 185.633 l 16.273 185.258 l 18.395 184.387 l 19.891
 183.637 l 20.887 182.891 l 21.758 182.145 l 22.133 181.52 l 22.383 181.27
 l 22.133 181.02 l h
22.008 181.02 m f
0 0 1 rg
396.199 61.77 m 395.328 64.387 l 394.328 66.879 l 393.332 68.871 l 392.336
 70.742 l 391.34 72.113 l 390.344 73.359 l 389.469 74.23 l 388.598 74.855
 l 387.477 75.477 l 386.48 75.852 l 386.23 75.977 l 385.359 76.473 l 384.238
 76.973 l 384.113 77.098 l 382.992 78.094 l 381.746 79.215 l 381.621 79.215
 l 380.5 80.586 l 380.5 80.711 l 379.379 82.328 l 378.258 84.324 l 377.012
 86.191 l 375.766 87.812 l 374.395 89.559 l 373.148 90.926 l 372.152 91.926
 l 370.906 92.672 l 369.66 93.172 l 368.289 93.418 l 367.043 93.543 l 367.043
 93.418 l 365.547 93.418 l 365.547 93.543 l 364.176 93.668 l 364.051 93.668
 l 362.555 94.168 l 362.309 94.293 l 360.812 95.414 l 360.688 95.414 l 359.191
 96.91 l 359.191 97.031 l 357.57 99.152 l 356.078 101.645 l 352.836 106.504
 l 351.094 108.621 l 349.598 110.117 l 347.852 110.863 l 346.605 110.988
 l 344.988 110.242 l 342.992 108.371 l 341 105.879 l 341.125 105.879 l 339.254
 102.516 l 339.129 102.516 l 337.012 99.152 l 337.012 99.027 l 334.895 96.785
 l 334.395 96.66 l 334.27 96.66 l 332.152 97.031 l 331.777 97.156 l 331.777
 97.281 l 329.535 101.02 l 329.535 101.145 l 327.293 107.75 l 327.168 107.75
 l 324.801 115.848 l 322.309 124.195 l 319.816 132.172 l 319.941 132.172
 l 317.324 139.023 l 314.707 144.758 l 311.844 149.863 l 308.852 153.727
 l 305.863 156.844 l 302.871 159.461 l 299.633 161.828 l 296.266 164.32 
l 292.652 167.309 l 292.527 167.309 l 288.789 171.422 l 288.789 171.547 
l 284.805 176.902 l 280.691 183.383 l 276.332 190.984 l 271.594 198.832 
l 266.613 206.934 l 261.379 214.785 l 255.645 222.137 l 249.539 228.988 
l 242.938 235.344 l 235.586 241.074 l 227.609 246.184 l 218.641 250.793 
l 208.297 254.781 l 196.586 258.27 l 182.504 261.137 l 165.559 263.504 l
 143.379 265.246 l 143.379 265.121 l 112.227 266.492 l 59.023 267.242 l 
59.023 268.613 l 112.227 267.863 l 143.379 266.492 l 143.504 266.492 l 165.684
 264.75 l 182.754 262.383 l 196.832 259.516 l 196.957 259.516 l 208.797 
256.027 l 208.797 255.902 l 219.137 251.914 l 219.262 251.914 l 228.234 
247.305 l 236.332 242.07 l 243.684 236.34 l 243.809 236.34 l 250.539 229.984
 l 250.539 229.859 l 256.645 223.008 l 262.375 215.531 l 267.609 207.68 
l 267.734 207.555 l 272.719 199.457 l 277.453 191.605 l 281.812 184.008 
l 285.801 177.652 l 289.789 172.293 l 293.527 168.305 l 297.141 165.316 
l 300.379 162.824 l 303.617 160.457 l 303.742 160.457 l 306.859 157.84 l
 306.859 157.715 l 309.848 154.602 l 312.84 150.613 l 312.965 150.488 l 
315.828 145.379 l 318.445 139.523 l 321.062 132.668 l 321.062 132.547 l 
323.555 124.57 l 326.047 116.223 l 328.414 108.121 l 330.656 101.645 l 332.652
 98.277 l 334.145 97.906 l 336.016 99.898 l 338.133 103.262 l 340.004 106.504
 l 340.004 106.629 l 341.996 109.246 l 342.121 109.367 l 344.113 111.238
 l 344.238 111.238 l 346.109 112.109 l 346.359 112.234 l 346.48 112.234 
l 348.227 112.109 l 348.352 111.984 l 350.094 111.238 l 350.344 111.238 
l 352.09 109.617 l 352.09 109.492 l 353.832 107.375 l 357.074 102.391 l 
357.199 102.266 l 358.691 99.773 l 360.188 97.906 l 361.684 96.41 l 363.055
 95.289 l 364.301 94.789 l 364.301 94.914 l 365.672 94.789 l 367.168 94.789
 l 368.535 94.664 l 369.906 94.418 l 370.031 94.293 l 371.402 93.793 l 371.527
 93.793 l 372.773 93.047 l 372.898 93.047 l 374.145 91.926 l 374.145 91.801
 l 375.391 90.43 l 376.762 88.684 l 378.008 86.941 l 379.254 85.07 l 379.379
 84.945 l 380.5 82.953 l 381.496 81.457 l 382.617 80.211 l 383.863 79.09
 l 384.984 78.094 l 384.859 77.969 l 385.855 77.594 l 385.98 77.594 l 386.977
 76.973 l 387.977 76.598 l 388.102 76.598 l 389.223 75.977 l 390.219 75.227
 l 390.344 75.227 l 391.34 74.355 l 391.34 74.23 l 392.336 72.984 l 393.332
 71.488 l 393.457 71.363 l 394.453 69.496 l 395.453 67.379 l 396.449 64.887
 l 396.449 64.762 l 397.32 62.27 l 397.445 61.77 l 397.445 60.152 l 396.945
 59.902 l h
396.199 61.77 m f
0 0.501961 0 rg
396.199 59.777 m 396.074 59.777 l 395.203 62.641 l 395.328 62.641 l 394.328
 65.012 l 393.332 67.129 l 392.336 68.871 l 391.34 70.367 l 390.344 71.613
 l 389.344 72.609 l 388.598 73.234 l 387.477 73.855 l 387.352 73.98 l 386.23
 74.73 l 385.234 75.477 l 384.113 76.473 l 383.988 76.473 l 382.867 77.719
 l 381.621 79.09 l 381.621 79.215 l 380.5 81.082 l 378.258 85.07 l 377.012
 86.941 l 375.766 88.559 l 374.395 90.18 l 373.148 91.551 l 372.152 92.297
 l 370.906 92.797 l 369.66 93.047 l 368.535 93.172 l 367.168 93.047 l 367.043
 93.047 l 365.547 93.172 l 365.422 93.172 l 364.051 93.543 l 363.926 93.543
 l 362.43 94.293 l 362.309 94.418 l 360.812 95.785 l 360.688 95.785 l 359.191
 97.656 l 359.191 97.781 l 357.57 100.148 l 356.078 102.766 l 352.836 107.625
 l 351.094 109.492 l 349.598 110.738 l 347.977 111.238 l 346.73 111.113 
l 344.863 109.992 l 342.992 108.121 l 341 105.383 l 341.125 105.383 l 339.254
 102.141 l 339.129 102.141 l 337.012 99.152 l 336.887 99.027 l 334.77 97.531
 l 334.395 97.406 l 334.145 97.406 l 332.027 98.402 l 331.777 98.652 l 329.535
 102.766 l 329.535 102.891 l 327.293 109.492 l 327.168 109.492 l 324.801
 117.094 l 322.309 125.07 l 322.434 125.07 l 319.941 132.297 l 317.324 138.652
 l 314.707 144.008 l 311.844 148.371 l 308.852 151.984 l 305.863 154.973
 l 302.871 157.34 l 299.633 159.707 l 296.266 162.199 l 292.652 165.566 
l 292.527 165.566 l 288.789 170.176 l 288.789 170.301 l 284.805 176.031 
l 280.691 183.133 l 276.332 190.734 l 271.594 198.832 l 266.613 206.934 
l 261.379 214.781 l 255.645 222.012 l 249.539 228.738 l 242.938 234.969 
l 235.711 240.574 l 227.609 245.559 l 218.641 250.172 l 208.422 254.031 
l 196.586 257.398 l 182.504 260.141 l 165.559 262.508 l 143.379 264.25 l
 143.379 264.125 l 112.227 265.371 l 59.023 266.121 l 59.023 267.492 l 112.227
 266.742 l 143.379 265.496 l 143.504 265.496 l 165.684 263.754 l 182.754
 261.383 l 196.832 258.645 l 196.957 258.645 l 208.797 255.277 l 208.797
 255.156 l 219.137 251.293 l 219.262 251.293 l 228.234 246.68 l 236.332 
241.699 l 243.684 235.965 l 243.809 235.965 l 250.539 229.734 l 250.539 
229.609 l 256.645 222.883 l 262.375 215.531 l 267.609 207.68 l 267.734 207.555
 l 272.719 199.457 l 277.453 191.359 l 281.812 183.758 l 285.926 176.656
 l 289.789 171.047 l 293.527 166.562 l 297.141 163.199 l 300.379 160.707
 l 303.617 158.34 l 306.734 155.969 l 306.859 155.969 l 309.848 152.98 l
 309.848 152.855 l 312.84 149.242 l 315.707 144.758 l 315.828 144.633 l 
318.445 139.148 l 321.062 132.793 l 321.062 132.668 l 323.555 125.441 l 
326.047 117.469 l 328.414 109.867 l 330.656 103.387 l 332.902 99.402 l 334.27
 98.652 l 336.016 100.023 l 338.133 102.891 l 340.004 106.004 l 340.004 
106.129 l 341.996 108.996 l 341.996 109.121 l 343.988 111.113 l 344.238 
111.113 l 346.109 112.234 l 346.359 112.359 l 348.102 112.484 l 348.352 
112.484 l 350.094 111.984 l 350.344 111.859 l 352.09 110.488 l 352.09 110.367
 l 353.832 108.496 l 357.074 103.512 l 357.199 103.387 l 358.691 100.77 
l 360.188 98.527 l 361.684 96.785 l 363.18 95.414 l 364.426 94.789 l 365.797
 94.418 l 367.043 94.293 l 368.414 94.418 l 368.535 94.418 l 369.906 94.293
 l 371.277 94.043 l 371.402 93.918 l 372.648 93.418 l 372.773 93.418 l 374.02
 92.547 l 374.145 92.422 l 375.391 91.051 l 376.762 89.434 l 378.008 87.688
 l 379.254 85.82 l 379.379 85.695 l 381.621 81.707 l 382.742 79.836 l 383.863
 78.59 l 384.984 77.469 l 386.105 76.473 l 386.977 75.727 l 388.102 74.977
 l 389.223 74.355 l 390.219 73.609 l 390.344 73.609 l 391.34 72.609 l 391.34
 72.484 l 392.336 71.238 l 392.461 71.117 l 393.457 69.496 l 394.453 67.75
 l 395.453 65.508 l 396.449 63.141 l 396.449 63.016 l 397.32 60.152 l 397.445
 59.652 l 397.445 57.906 l 396.945 57.781 l h
396.199 59.777 m f
1 0 0 rg
396.199 60.648 m 395.328 63.141 l 394.328 65.508 l 393.332 67.504 l 392.336
 69.371 l 391.34 70.867 l 390.344 71.988 l 389.344 72.984 l 388.473 73.855
 l 387.477 74.48 l 386.355 74.977 l 386.23 75.102 l 385.234 75.977 l 384.113
 76.723 l 382.992 77.719 l 382.867 77.719 l 381.621 79.09 l 381.621 79.215
 l 380.5 80.711 l 379.379 82.328 l 378.258 84.199 l 377.012 86.066 l 375.766
 87.688 l 374.395 89.309 l 373.148 90.555 l 372.152 91.426 l 370.906 92.172
 l 369.66 92.547 l 368.414 92.672 l 368.414 92.547 l 365.547 92.547 l 365.422
 92.672 l 364.051 92.922 l 363.926 92.922 l 362.43 93.543 l 362.309 93.668
 l 360.812 94.664 l 360.688 94.664 l 359.191 96.41 l 359.191 96.535 l 357.57
 98.652 l 356.078 101.02 l 354.457 103.637 l 352.836 106.004 l 351.094 108
 l 349.598 109.367 l 348.102 109.992 l 346.359 109.992 l 344.988 109.367
 l 342.992 107.625 l 341 105.133 l 339.129 102.141 l 337.012 99.027 l 337.012
 98.902 l 334.895 96.785 l 334.395 96.66 l 334.27 96.66 l 332.152 97.281
 l 331.777 97.406 l 331.777 97.531 l 329.535 101.27 l 329.535 101.395 l 
327.293 108 l 327.168 108 l 324.801 115.973 l 322.309 124.07 l 319.816 131.797
 l 319.941 131.797 l 317.324 138.652 l 314.707 144.383 l 311.844 149.117
 l 308.852 152.98 l 305.863 156.094 l 302.871 158.836 l 299.633 161.203 
l 296.266 163.695 l 292.652 166.812 l 292.527 166.812 l 288.789 171.047 
l 288.789 171.172 l 284.805 176.777 l 280.691 183.383 l 276.332 190.984 
l 271.594 198.957 l 266.613 207.059 l 261.379 214.906 l 255.645 222.133 
l 249.539 228.988 l 242.938 235.344 l 235.586 241.074 l 227.609 246.184 
l 218.641 250.668 l 208.297 254.656 l 196.586 258.145 l 182.504 260.887 
l 165.559 263.254 l 143.379 265.121 l 143.379 265 l 112.227 266.246 l 59.023
 266.992 l 59.023 268.363 l 112.227 267.613 l 143.379 266.367 l 143.504 
266.367 l 165.684 264.5 l 182.754 262.133 l 196.832 259.391 l 196.957 259.391
 l 208.797 255.902 l 208.797 255.777 l 219.137 251.789 l 219.262 251.789
 l 228.234 247.305 l 236.332 242.07 l 243.684 236.34 l 243.809 236.34 l 
250.539 229.984 l 250.539 229.859 l 256.645 223.008 l 262.375 215.656 l 
267.609 207.805 l 267.734 207.68 l 272.719 199.582 l 277.453 191.605 l 281.812
 184.008 l 285.801 177.527 l 289.789 171.918 l 293.527 167.809 l 297.141
 164.691 l 300.379 162.199 l 303.617 159.832 l 303.742 159.832 l 306.859
 157.094 l 306.859 156.969 l 309.848 153.852 l 312.84 149.863 l 312.965 
149.742 l 315.828 145.004 l 318.445 139.148 l 321.062 132.297 l 321.062 
132.172 l 323.555 124.445 l 326.047 116.348 l 328.414 108.371 l 330.656 
101.891 l 332.652 98.527 l 334.145 98.031 l 336.016 99.898 l 338.133 102.891
 l 340.004 105.879 l 340.004 106.004 l 341.996 108.496 l 342.121 108.621
 l 344.113 110.367 l 344.238 110.367 l 346.109 111.238 l 346.359 111.363
 l 348.102 111.363 l 348.352 111.238 l 350.094 110.492 l 350.344 110.492
 l 352.09 108.996 l 352.09 108.871 l 353.832 106.875 l 355.453 104.383 l
 355.578 104.262 l 357.199 101.645 l 358.57 99.402 l 360.188 97.281 l 361.559
 95.664 l 363.055 94.664 l 364.301 94.043 l 364.301 94.168 l 365.672 93.918
 l 368.535 93.918 l 369.906 93.793 l 370.031 93.793 l 371.402 93.418 l 371.527
 93.293 l 372.773 92.547 l 372.898 92.547 l 374.145 91.551 l 375.391 90.305
 l 375.391 90.18 l 376.762 88.559 l 378.008 86.816 l 379.254 84.945 l 379.379
 84.82 l 380.5 82.953 l 381.496 81.457 l 382.617 79.961 l 383.863 78.715
 l 384.984 77.719 l 385.98 76.973 l 386.105 76.973 l 387.102 76.102 l 386.977
 75.977 l 387.977 75.602 l 388.098 75.602 l 389.223 74.855 l 389.344 74.855
 l 390.344 73.98 l 391.34 72.984 l 391.34 72.859 l 392.336 71.738 l 392.461
 71.613 l 393.457 69.992 l 394.453 68.125 l 395.453 66.008 l 396.449 63.641
 l 396.449 63.516 l 397.32 61.148 l 397.445 60.648 l 397.445 59.027 l 396.945
 58.781 l h
396.199 60.648 m f
0 g
128.047 112.859 m 127.922 112.859 l 127.672 113.359 l 127.547 113.855 l
 125.805 118.469 l 123.562 113.609 l 123.438 113.234 l 123.312 112.984 l
 123.188 112.859 l 122.938 112.859 l 122.562 113.609 l 119.949 120.461 l
 119.699 121.086 l 119.449 121.582 l 119.324 121.832 l 119.074 121.957 l
 118.824 121.957 l 118.824 122.207 l 122.316 122.207 l 122.316 121.957 l
 121.941 121.957 l 121.691 121.832 l 121.441 121.582 l 121.441 120.961 l
 121.566 120.586 l 121.691 120.086 l 121.941 119.59 l 122.191 118.965 l 
123.562 115.352 l 125.305 119.34 l 124.934 120.461 l 124.809 121.086 l 124.559
 121.457 l 124.059 121.957 l 123.562 121.957 l 123.562 122.207 l 127.797
 122.207 l 127.797 121.957 l 127.176 121.832 l 126.801 121.707 l 126.551
 121.457 l 126.426 121.207 l 126.426 121.086 l 126.676 120.586 l 126.801
 120.211 l 126.926 119.715 l 128.547 115.477 l 130.289 119.961 l 130.414
 120.711 l 130.539 121.332 l 130.539 121.582 l 130.039 121.832 l 129.668
 121.957 l 129.668 122.207 l 132.16 122.207 l 132.16 121.957 l 131.91 121.832
 l 131.66 121.582 l 131.285 120.836 l 128.547 113.734 l 128.297 112.984 
l 128.172 112.859 l h
128.047 112.859 m f
133.406 112.984 m 133.406 113.234 l 133.777 113.234 l 134.527 113.484 l
 134.652 113.734 l 134.777 113.98 l 134.777 114.48 l 134.898 114.98 l 134.898
 120.086 l 134.777 120.461 l 134.777 120.711 l 134.652 120.961 l 134.527
 121.207 l 133.406 121.207 l 133.406 121.332 l 136.395 122.453 l 136.52 
122.332 l 136.52 114.355 l 136.645 113.855 l 136.77 113.609 l 137.145 113.484
 l 137.516 113.359 l 138.016 113.234 l 138.016 112.984 l h
135.023 124.82 m 134.652 125.07 l 134.527 125.32 l 134.402 125.82 l 134.527
 126.191 l 134.777 126.441 l 135.023 126.691 l 135.523 126.816 l 135.898
 126.691 l 136.145 126.441 l 136.395 126.191 l 136.52 125.82 l 136.52 125.445
 l 136.395 125.195 l 136.145 124.945 l 135.898 124.82 l 135.398 124.699 
l h
135.023 124.82 m f
138.762 112.984 m 138.762 113.234 l 139.387 113.359 l 139.883 113.484 l
 140.008 113.734 l 140.133 113.98 l 140.258 114.355 l 140.258 125.07 l 140.133
 125.32 l 140.133 125.57 l 139.883 125.695 l 139.387 125.82 l 139.137 125.82
 l 138.762 125.695 l 138.762 125.945 l 141.879 126.816 l 141.879 114.605
 l 142.004 114.105 l 142.129 113.855 l 142.25 113.609 l 142.5 113.359 l 
142.875 113.359 l 143.375 113.234 l 143.375 112.984 l h
138.762 112.984 m f
150.852 112.859 m 150.852 114.105 l 150.227 113.359 l 149.355 112.984 l
 148.359 112.859 l 146.863 113.109 l 145.742 113.98 l 145.117 114.855 l 
144.742 115.977 l 144.621 117.348 l 144.992 119.34 l 145.867 120.961 l 146.738
 121.707 l 147.734 122.207 l 148.855 122.453 l 149.977 122.207 l 150.852
 121.332 l 150.852 125.32 l 150.727 125.57 l 150.477 125.695 l 149.48 125.695
 l 149.48 125.945 l 151.098 126.316 l 152.469 126.816 l 152.594 126.691 
l 152.594 114.73 l 152.844 114.23 l 153.219 114.105 l 154.09 114.105 l 154.09
 113.855 l 150.973 112.859 l h
148.234 121.707 m 147.859 121.582 l 147.359 121.207 l 146.988 120.836 l
 146.488 119.59 l 146.363 118.094 l 146.488 116.348 l 146.988 115.102 l 
147.984 114.105 l 149.105 113.855 l 149.605 113.855 l 149.977 114.105 l 
150.352 114.23 l 150.727 114.605 l 150.852 114.855 l 150.852 120.211 l 150.602
 120.711 l 150.352 121.086 l 149.852 121.457 l 149.355 121.707 l 148.855
 121.832 l h
148.234 121.707 m f
154.832 118.199 4.859 -1.246 re f
163.934 112.859 m 162.938 113.109 l 162.312 113.98 l 162.188 115.477 l 
162.188 121.582 l 161.191 121.582 l 161.066 121.707 l 161.316 121.957 l 
162.062 122.578 l 162.688 123.328 l 163.684 124.945 l 163.809 124.824 l 
163.809 122.207 l 165.926 122.207 l 165.926 121.582 l 163.809 121.582 l 
163.809 115.727 l 163.934 115.102 l 164.059 114.48 l 164.184 114.105 l 164.434
 113.98 l 164.805 113.855 l 165.18 113.855 l 165.555 113.98 l 165.801 114.23
 l 166.051 114.48 l 166.301 114.23 l 165.926 113.734 l 165.305 113.234 l
 164.93 112.984 l 164.434 112.859 l h
163.934 112.859 m f
168.047 108.625 m 167.672 108.75 l 167.422 108.996 l 167.172 109.246 l 
167.047 109.496 l 166.926 109.871 l 167.047 110.117 l 167.172 110.492 l 
167.547 110.617 l 168.047 110.742 l 168.418 110.742 l 168.793 110.492 l 
169.043 110.367 l 169.789 110.367 l 170.039 110.617 l 170.289 111.117 l 
170.66 111.613 l 170.91 112.238 l 171.035 112.734 l 171.16 113.234 l 171.16
 113.484 l 171.035 113.484 l 171.035 113.855 l 170.785 114.23 l 170.66 114.605
 l 169.414 117.098 l 168.793 118.594 l 167.797 120.711 l 167.672 121.207
 l 167.422 121.457 l 167.297 121.707 l 166.926 121.957 l 166.551 121.957
 l 166.551 122.207 l 170.66 122.207 l 170.66 121.957 l 170.164 121.957 l
 169.789 121.832 l 169.539 121.582 l 169.539 120.961 l 169.664 120.586 l
 172.031 115.477 l 172.531 116.723 l 173.031 118.469 l 173.777 120.586 l
 173.902 120.961 l 174.027 121.332 l 174.027 121.457 l 173.902 121.707 l
 173.777 121.832 l 173.527 121.957 l 173.031 121.957 l 173.031 122.207 l
 175.77 122.207 l 175.77 121.957 l 175.398 121.832 l 175.148 121.707 l 174.898
 121.332 l 174.773 120.836 l 171.785 112.609 l 170.91 110.617 l 170.164 
109.371 l 169.664 108.996 l 169.043 108.75 l 168.418 108.625 l h
168.047 108.625 m f
176.395 108.625 m 176.395 108.871 l 176.891 108.871 l 177.266 108.996 l
 177.516 109.121 l 177.641 109.371 l 177.766 109.746 l 177.766 120.836 l
 177.641 120.961 l 177.391 121.086 l 177.141 121.207 l 176.52 121.207 l 
176.52 121.332 l 177.766 121.832 l 179.383 122.453 l 179.508 122.332 l 179.508
 120.711 l 180.383 121.707 l 181.379 122.207 l 182.5 122.453 l 183.746 122.082
 l 184.742 121.207 l 185.488 119.84 l 185.738 118.094 l 185.488 116.102 
l 184.617 114.355 l 183.746 113.484 l 182.75 112.984 l 181.504 112.859 l
 180.383 113.109 l 179.508 113.855 l 179.508 109.871 l 179.633 109.371 l
 179.883 109.121 l 180.133 108.996 l 180.629 108.871 l 181.129 108.871 l
 181.129 108.625 l h
180.879 121.086 m 180.258 120.711 l 179.883 120.461 l 179.633 120.211 l
 179.508 119.84 l 179.508 114.605 l 179.758 114.23 l 180.133 113.98 l 180.504
 113.609 l 181.004 113.484 l 182.125 113.484 l 182.625 113.734 l 182.996
 113.98 l 183.371 114.48 l 183.871 115.727 l 184.121 117.348 l 183.871 118.84
 l 183.371 120.086 l 183.121 120.586 l 182.625 120.836 l 182.125 121.086
 l 181.504 121.207 l h
180.879 121.086 m f
189.105 113.109 m 187.859 113.98 l 187.234 114.98 l 186.859 116.102 l 186.734
 117.473 l 186.859 118.84 l 187.359 120.086 l 187.98 121.086 l 189.352 122.082
 l 190.973 122.453 l 192.344 122.207 l 193.465 121.457 l 194.211 120.336
 l 194.461 118.719 l 188.23 118.719 l 188.48 116.973 l 189.105 115.602 l
 190.102 114.605 l 191.473 114.23 l 192.719 114.48 l 193.84 115.227 l 194.711
 116.348 l 194.961 116.227 l 194.336 114.98 l 193.34 113.855 l 192.094 113.109
 l 190.723 112.859 l h
190.102 121.707 m 189.602 121.582 l 189.227 121.457 l 188.98 121.086 l 
188.605 120.586 l 188.48 119.961 l 188.23 119.34 l 192.469 119.34 l 192.094
 120.711 l 191.473 121.457 l 190.598 121.832 l h
190.102 121.707 m f
0 0 1 rg
73.715 120.57 40.496 -1.371 re f
0 g
121.07 85.32 m 119.949 85.695 l 119.199 86.445 l 119.074 86.691 l 118.949
 87.066 l 119.199 87.812 l 119.949 88.688 l 121.07 89.559 l 120.445 89.809
 l 120.07 90.059 l 119.949 90.43 l 119.824 90.68 l 119.949 91.055 l 120.195
 91.551 l 121.566 92.922 l 120.57 93.547 l 120.07 94.418 l 119.824 95.539
 l 120.07 96.91 l 120.82 98.031 l 121.941 98.656 l 123.312 98.902 l 123.809
 98.902 l 124.309 98.777 l 124.809 98.656 l 125.18 98.531 l 125.805 98.406
 l 126.551 98.281 l 127.922 98.281 l 127.922 97.531 l 126.301 97.531 l 126.551
 96.535 l 126.676 95.664 l 126.426 94.418 l 125.68 93.547 l 124.559 92.922
 l 123.312 92.672 l 122.316 92.672 l 122.191 92.797 l 121.941 92.672 l 121.691
 92.551 l 121.441 92.176 l 121.316 91.926 l 121.07 91.676 l 121.07 91.426
 l 121.441 91.055 l 121.691 90.93 l 122.191 90.93 l 122.688 90.805 l 125.305
 90.68 l 125.93 90.68 l 126.426 90.555 l 126.801 90.305 l 127.176 90.059
 l 127.422 89.684 l 127.672 89.184 l 127.797 88.562 l 127.547 87.688 l 127.051
 86.816 l 126.055 86.195 l 124.309 85.445 l 122.562 85.195 l h
120.945 89.059 m 120.695 88.562 l 120.445 88.062 l 120.445 87.688 l 120.57
 87.316 l 120.82 86.941 l 121.191 86.691 l 122.191 86.32 l 123.438 86.195
 l 124.93 86.32 l 126.176 86.816 l 126.551 87.066 l 126.926 87.441 l 127.051
 87.812 l 127.176 88.312 l 127.051 88.688 l 126.926 88.934 l 126.676 89.059
 l 126.301 89.184 l 125.93 89.184 l 125.305 89.309 l 123.062 89.309 l 122.191
 89.434 l 121.316 89.559 l h
122.191 98.156 m 121.941 97.906 l 121.691 97.531 l 121.566 97.16 l 121.441
 96.66 l 121.566 95.289 l 122.066 94.293 l 122.316 93.793 l 122.688 93.547
 l 123.062 93.422 l 123.562 93.297 l 124.059 93.422 l 124.434 93.547 l 124.684
 93.793 l 124.93 94.168 l 125.055 94.543 l 125.055 95.164 l 124.93 96.285
 l 124.434 97.285 l 124.184 97.781 l 123.809 98.031 l 123.438 98.281 l 122.562
 98.281 l h
122.191 98.156 m f
136.77 89.559 m 136.77 89.934 l 137.27 90.059 l 137.766 90.184 l 138.141
 90.305 l 138.391 90.555 l 138.512 90.805 l 138.512 91.305 l 138.637 91.801
 l 138.637 95.789 l 132.531 95.789 l 132.531 91.305 l 132.781 90.555 l 132.906
 90.43 l 133.281 90.184 l 133.777 90.059 l 134.402 89.934 l 134.402 89.559
 l 128.547 89.559 l 128.547 89.934 l 129.293 90.059 l 129.793 90.184 l 130.289
 90.68 l 130.414 90.93 l 130.414 101.27 l 130.289 101.645 l 130.039 102.145
 l 129.668 102.27 l 129.168 102.395 l 128.547 102.516 l 128.547 102.891 
l 134.402 102.891 l 134.402 102.516 l 133.902 102.395 l 133.406 102.27 l
 133.031 102.145 l 132.906 102.02 l 132.656 101.645 l 132.531 101.148 l 
132.531 96.66 l 138.637 96.66 l 138.637 100.773 l 138.512 101.27 l 138.512
 101.645 l 138.391 102.02 l 138.141 102.145 l 137.766 102.27 l 137.27 102.395
 l 136.77 102.516 l 136.77 102.891 l 142.5 102.891 l 142.5 102.516 l 142.004
 102.395 l 141.629 102.395 l 141.254 102.27 l 141.004 102.02 l 140.883 101.645
 l 140.758 101.27 l 140.633 100.648 l 140.633 91.676 l 140.758 91.055 l 
140.883 90.68 l 141.129 90.305 l 141.379 90.184 l 141.879 90.059 l 142.5
 89.934 l 142.5 89.559 l h
136.77 89.559 m f
145.242 89.434 m 144.742 89.434 l 144.246 89.684 l 143.871 89.809 l 143.621
 90.184 l 143.621 90.805 l 143.746 91.055 l 143.996 91.18 l 144.742 91.18
 l 145.117 90.93 l 145.617 90.555 l 146.238 90.305 l 146.738 90.059 l 147.113
 89.934 l 147.734 90.059 l 148.234 90.184 l 148.73 90.43 l 149.105 90.805
 l 149.727 91.801 l 149.852 93.047 l 149.727 94.168 l 149.23 95.164 l 148.355
 95.789 l 147.859 96.039 l 147.234 96.164 l 146.738 96.289 l 145.867 96.289
 l 145.867 96.535 l 147.359 97.16 l 148.355 97.906 l 148.98 98.777 l 149.23
 99.902 l 149.105 100.398 l 148.98 100.898 l 148.605 101.27 l 148.109 101.645
 l 147.609 101.77 l 146.988 101.895 l 145.742 101.645 l 144.621 100.898 
l 143.871 99.777 l 143.621 99.902 l 144.246 101.27 l 145.117 102.27 l 146.238
 102.891 l 147.609 103.141 l 148.855 102.891 l 149.852 102.395 l 150.227
 101.895 l 150.477 101.52 l 150.602 101.023 l 150.727 100.398 l 150.477 
99.402 l 149.852 98.531 l 148.855 97.656 l 150.227 96.785 l 151.098 95.539
 l 151.348 93.918 l 151.098 92.676 l 150.602 91.551 l 149.727 90.555 l 148.605
 89.934 l 147.359 89.434 l 145.867 89.309 l h
145.242 89.434 m f
0 0.501961 0 rg
73.715 97.02 40.496 -1.371 re f
0 g
121.07 61.895 m 119.949 62.395 l 119.574 62.645 l 119.199 63.016 l 118.949
 63.766 l 119.199 64.512 l 119.949 65.383 l 121.07 66.258 l 120.445 66.504
 l 120.07 66.754 l 119.949 67.004 l 119.824 67.379 l 119.949 67.75 l 120.195
 68.125 l 120.32 68.375 l 120.695 68.75 l 121.07 69.121 l 121.566 69.621
 l 120.57 70.242 l 120.07 71.117 l 119.824 72.238 l 120.07 73.609 l 120.82
 74.605 l 121.941 75.352 l 123.312 75.602 l 123.809 75.602 l 124.809 75.352
 l 125.18 75.102 l 125.805 74.98 l 127.922 74.98 l 127.922 74.105 l 126.301
 74.105 l 126.551 73.234 l 126.676 72.238 l 126.426 71.117 l 125.68 70.121
 l 124.559 69.496 l 123.312 69.371 l 121.941 69.371 l 121.691 69.121 l 121.441
 68.875 l 121.316 68.5 l 121.07 68.25 l 121.07 68.125 l 121.195 67.875 l
 121.441 67.75 l 121.691 67.629 l 122.191 67.504 l 122.688 67.504 l 125.305
 67.379 l 125.93 67.254 l 126.426 67.129 l 126.801 67.004 l 127.176 66.754
 l 127.422 66.258 l 127.672 65.758 l 127.797 65.258 l 127.547 64.262 l 127.051
 63.516 l 126.055 62.77 l 124.309 62.02 l 122.562 61.77 l h
120.945 65.633 m 120.695 65.137 l 120.445 64.762 l 120.445 64.387 l 120.57
 63.891 l 121.195 63.266 l 122.191 63.016 l 123.438 62.891 l 124.93 63.016
 l 126.176 63.391 l 126.551 63.766 l 126.926 64.137 l 127.176 64.887 l 127.051
 65.258 l 126.926 65.508 l 126.676 65.758 l 126.301 65.758 l 125.93 65.883
 l 125.305 65.883 l 124.684 66.008 l 122.191 66.008 l 121.316 66.133 l h
122.562 74.855 m 122.191 74.73 l 121.691 74.23 l 121.566 73.734 l 121.441
 73.234 l 121.566 71.988 l 122.066 70.867 l 122.316 70.492 l 122.688 70.242
 l 123.062 69.996 l 124.059 69.996 l 124.434 70.121 l 124.684 70.367 l 124.93
 70.742 l 125.055 71.242 l 125.055 71.738 l 124.93 72.859 l 124.434 73.98
 l 124.184 74.355 l 123.809 74.73 l 123.438 74.855 l 123.062 74.98 l h
122.562 74.855 m f
136.77 66.133 m 136.77 66.629 l 137.266 66.629 l 137.766 66.754 l 138.141
 66.879 l 138.391 67.129 l 138.512 67.504 l 138.512 67.875 l 138.637 68.5
 l 138.637 72.488 l 132.531 72.488 l 132.531 68 l 132.656 67.504 l 132.906
 67.004 l 133.281 66.754 l 133.777 66.629 l 134.402 66.629 l 134.402 66.133
 l 128.547 66.133 l 128.547 66.629 l 129.293 66.629 l 129.793 66.754 l 130.039
 67.004 l 130.289 67.254 l 130.414 67.629 l 130.414 77.844 l 130.164 78.594
 l 130.039 78.719 l 129.668 78.965 l 129.168 79.09 l 128.547 79.09 l 128.547
 79.59 l 134.402 79.59 l 134.402 79.09 l 133.902 79.09 l 133.406 78.965 
l 133.031 78.84 l 132.906 78.594 l 132.656 78.219 l 132.531 77.719 l 132.531
 73.234 l 138.637 73.234 l 138.637 77.348 l 138.512 77.844 l 138.512 78.344
 l 138.391 78.594 l 138.141 78.84 l 137.766 78.965 l 137.266 79.09 l 136.77
 79.09 l 136.77 79.59 l 142.5 79.59 l 142.5 79.09 l 142.004 79.09 l 141.254
 78.84 l 141.004 78.719 l 140.883 78.344 l 140.758 77.844 l 140.633 77.223
 l 140.633 68.375 l 140.758 67.754 l 140.883 67.254 l 141.129 67.004 l 141.379
 66.754 l 141.879 66.629 l 142.5 66.629 l 142.5 66.133 l h
136.77 66.133 m f
148.605 66.133 m 148.605 69.496 l 143 69.496 l 143 70.867 l 149.48 79.715
 l 150.227 79.715 l 150.227 70.742 l 152.344 70.742 l 152.344 69.496 l 150.227
 69.496 l 150.227 66.133 l h
143.746 70.867 m 143.746 70.742 l 148.605 70.742 l 148.605 77.473 l h
143.746 70.867 m f
1 0 0 rg
73.715 73.719 40.496 -1.371 re f
1 g
362.02 284.617 12.586 -233.301 re f
0 g
360.301 283.543 1.742 -230.766 re f
359.305 63.996 1.867 -1.746 re f
359.305 61.004 1.867 -1.742 re f
359.305 57.641 1.867 -1.746 re f
359.305 53.652 1.867 -1.742 re f
357.684 63.996 3.488 -1.746 re f
359.305 84.18 1.867 -1.742 re f
359.305 96.02 1.867 -1.746 re f
359.305 104.367 1.867 -1.746 re f
359.305 110.723 1.867 -1.746 re f
359.305 115.957 1.867 -1.746 re f
359.305 120.566 1.867 -1.746 re f
359.305 124.305 1.867 -1.746 re f
359.305 127.793 1.867 -1.746 re f
359.305 130.906 1.867 -1.742 re f
357.684 130.91 3.488 -1.746 re f
359.305 150.969 1.867 -1.742 re f
359.305 162.684 1.867 -1.746 re f
359.305 171.031 1.867 -1.746 re f
359.305 177.512 1.867 -1.746 re f
359.305 182.867 1.867 -1.742 re f
359.305 187.355 1.867 -1.746 re f
359.305 191.215 1.867 -1.742 re f
359.305 194.582 1.867 -1.746 re f
359.305 197.695 1.867 -1.742 re f
357.684 197.695 3.488 -1.742 re f
359.305 217.633 1.867 -1.746 re f
359.305 229.469 1.867 -1.742 re f
359.305 237.82 1.867 -1.746 re f
359.305 244.297 1.867 -1.742 re f
359.305 249.656 1.867 -1.746 re f
359.305 254.016 1.867 -1.742 re f
359.305 258.004 1.867 -1.742 re f
359.305 261.246 1.867 -1.746 re f
359.305 264.359 1.867 -1.742 re f
357.684 264.359 3.488 -1.742 re f
360.301 283.551 1.742 -230.766 re f
  Q
Q
Q Q
showpage
%%Trailer
end restore
%%EOF
